time	Vx	Vy
0.125	-7.31e-06	-2.9273333333333337e-05
0.25	-7.303333333333334e-06	-2.9273333333333337e-05
0.375	-7.253333333333334e-06	-2.9296666666666667e-05
0.5	-7.186666666666667e-06	-2.9323333333333334e-05
0.625	-7.13e-06	-2.934e-05
0.75	-7.096666666666667e-06	-2.9320000000000004e-05
0.875	-7.096666666666667e-06	-2.9306666666666665e-05
1.0	-7.103333333333334e-06	-2.9310000000000006e-05
1.125	-7.143333333333334e-06	-2.929e-05
1.25	-7.166666666666667e-06	-2.928666666666667e-05
1.375	-7.133333333333333e-06	-2.9310000000000006e-05
1.5	-7.080000000000001e-06	-2.9330000000000002e-05
1.625	-7.063333333333334e-06	-2.935e-05
1.75	-7.06e-06	-2.9380000000000003e-05
1.875	-7.090000000000001e-06	-2.9406666666666664e-05
2.0	-7.133333333333333e-06	-2.941666666666667e-05
2.125	-7.140000000000001e-06	-2.941666666666667e-05
2.25	-7.16e-06	-2.9396666666666666e-05
2.375	-7.193333333333334e-06	-2.9370000000000002e-05
2.5	-7.193333333333334e-06	-2.9370000000000002e-05
2.625	-7.15e-06	-2.9370000000000002e-05
2.75	-7.1233333333333335e-06	-2.9353333333333332e-05
2.875	-7.180000000000001e-06	-2.9393333333333335e-05
3.0	-7.246666666666667e-06	-2.943e-05
3.125	-7.270000000000001e-06	-2.941666666666667e-05
3.25	-7.256666666666667e-06	-2.937666666666667e-05
3.375	-7.2100000000000004e-06	-2.9343333333333334e-05
3.5	-7.153333333333334e-06	-2.9333333333333336e-05
3.625	-7.143333333333334e-06	-2.9343333333333334e-05
3.75	-7.193333333333334e-06	-2.9386666666666668e-05
3.875	-7.240000000000001e-06	-2.94e-05
4.0	-7.25e-06	-2.9353333333333332e-05
4.125	-7.246666666666667e-06	-2.929e-05
4.25	-7.223333333333333e-06	-2.9270000000000003e-05
4.375	-7.2e-06	-2.9293333333333333e-05
4.5	-7.193333333333334e-06	-2.9336666666666666e-05
4.625	-7.2100000000000004e-06	-2.9353333333333332e-05
4.75	-7.2133333333333334e-06	-2.9360000000000003e-05
4.875	-7.2e-06	-2.939e-05
5.0	-7.1200000000000004e-06	-2.9409999999999998e-05
5.125	-7.0333333333333335e-06	-2.9393333333333335e-05
5.25	-7.01e-06	-2.931666666666667e-05
5.375	-6.993333333333334e-06	-2.927666666666667e-05
5.5	-6.986666666666666e-06	-2.9283333333333335e-05
5.625	-6.996666666666667e-06	-2.9293333333333333e-05
5.75	-7.000000000000001e-06	-2.9293333333333333e-05
5.875	-7.0233333333333336e-06	-2.9273333333333337e-05
6.0	-7.049999999999999e-06	-2.926666666666667e-05
6.125	-7.073333333333333e-06	-2.9283333333333335e-05
6.25	-7.090000000000001e-06	-2.9310000000000006e-05
6.375	-7.103333333333334e-06	-2.9343333333333334e-05
6.5	-7.11e-06	-2.9360000000000003e-05
6.625	-7.126666666666667e-06	-2.9346666666666668e-05
6.75	-7.11e-06	-2.9346666666666668e-05
6.875	-7.103333333333334e-06	-2.934e-05
7.0	-7.13e-06	-2.9346666666666668e-05
7.125	-7.156666666666667e-06	-2.9363333333333337e-05
7.25	-7.163333333333333e-06	-2.9343333333333334e-05
7.375	-7.163333333333333e-06	-2.930333333333333e-05
7.5	-7.163333333333333e-06	-2.9313333333333336e-05
7.625	-7.15e-06	-2.9330000000000002e-05
7.75	-7.153333333333334e-06	-2.9326666666666668e-05
7.875	-7.163333333333333e-06	-2.9326666666666668e-05
8.0	-7.193333333333334e-06	-2.9346666666666668e-05
8.125	-7.2133333333333334e-06	-2.9330000000000002e-05
8.25	-7.226666666666668e-06	-2.9293333333333333e-05
8.375	-7.236666666666666e-06	-2.928666666666667e-05
8.5	-7.216666666666667e-06	-2.9320000000000004e-05
8.625	-7.203333333333334e-06	-2.9353333333333332e-05
8.75	-7.206666666666667e-06	-2.9370000000000002e-05
8.875	-7.240000000000001e-06	-2.9383333333333334e-05
9.0	-7.303333333333334e-06	-2.9393333333333335e-05
9.125	-7.343333333333334e-06	-2.9380000000000003e-05
9.25	-7.330000000000001e-06	-2.9370000000000002e-05
9.375	-7.313333333333333e-06	-2.9353333333333332e-05
9.5	-7.2966666666666665e-06	-2.9343333333333334e-05
9.625	-7.256666666666667e-06	-2.9343333333333334e-05
9.75	-7.2100000000000004e-06	-2.9343333333333334e-05
9.875	-7.196666666666667e-06	-2.935e-05
10.0	-7.196666666666667e-06	-2.935e-05
10.125	-7.193333333333334e-06	-2.9356666666666666e-05
10.25	-7.203333333333334e-06	-2.9356666666666666e-05
10.375	-7.190000000000001e-06	-2.935e-05
10.5	-7.153333333333334e-06	-2.9330000000000002e-05
10.625	-7.056666666666667e-06	-2.9306666666666665e-05
10.75	-7.0233333333333336e-06	-2.9336666666666666e-05
10.875	-7.076666666666668e-06	-2.935e-05
11.0	-7.183333333333334e-06	-2.9360000000000003e-05
11.125	-7.263333333333333e-06	-2.935e-05
11.25	-7.276666666666667e-06	-2.934e-05
11.375	-7.270000000000001e-06	-2.9333333333333336e-05
11.5	-7.240000000000001e-06	-2.9320000000000004e-05
11.625	-7.190000000000001e-06	-2.931666666666667e-05
11.75	-7.146666666666667e-06	-2.931666666666667e-05
11.875	-7.15e-06	-2.931666666666667e-05
12.0	-7.196666666666667e-06	-2.9310000000000006e-05
12.125	-7.25e-06	-2.9320000000000004e-05
12.25	-7.313333333333333e-06	-2.935e-05
12.375	-7.35e-06	-2.9383333333333334e-05
12.5	-7.340000000000001e-06	-2.9380000000000003e-05
12.625	-7.283333333333334e-06	-2.9363333333333337e-05
12.75	-7.266666666666668e-06	-2.9363333333333337e-05
12.875	-7.283333333333334e-06	-2.9383333333333334e-05
13.0	-7.290000000000001e-06	-2.941333333333334e-05
13.125	-7.293333333333334e-06	-2.9396666666666666e-05
13.25	-7.286666666666667e-06	-2.935e-05
13.375	-7.263333333333333e-06	-2.931666666666667e-05
13.5	-7.2e-06	-2.9326666666666668e-05
13.625	-7.143333333333334e-06	-2.935e-05
13.75	-7.103333333333334e-06	-2.9356666666666666e-05
13.875	-7.093333333333334e-06	-2.9356666666666666e-05
14.0	-7.093333333333334e-06	-2.9343333333333334e-05
14.125	-7.090000000000001e-06	-2.935e-05
14.25	-7.1233333333333335e-06	-2.9370000000000002e-05
14.375	-7.186666666666667e-06	-2.9353333333333332e-05
14.5	-7.230000000000001e-06	-2.931666666666667e-05
14.625	-7.216666666666667e-06	-2.9346666666666668e-05
14.75	-7.173333333333333e-06	-2.9373333333333336e-05
14.875	-7.163333333333333e-06	-2.9360000000000003e-05
15.0	-7.186666666666667e-06	-2.9346666666666668e-05
15.125	-7.253333333333334e-06	-2.934e-05
15.25	-7.2999999999999996e-06	-2.9333333333333336e-05
15.375	-7.2999999999999996e-06	-2.9320000000000004e-05
15.5	-7.246666666666667e-06	-2.931666666666667e-05
15.625	-7.186666666666667e-06	-2.9333333333333336e-05
15.75	-7.163333333333333e-06	-2.9356666666666666e-05
15.875	-7.166666666666667e-06	-2.9343333333333334e-05
16.0	-7.186666666666667e-06	-2.930333333333333e-05
16.125	-7.253333333333334e-06	-2.9273333333333337e-05
16.25	-7.280000000000001e-06	-2.93e-05
16.375	-7.266666666666668e-06	-2.9353333333333332e-05
16.5	-7.240000000000001e-06	-2.9380000000000003e-05
16.625	-7.203333333333334e-06	-2.9383333333333334e-05
16.75	-7.146666666666667e-06	-2.9356666666666666e-05
16.875	-7.076666666666668e-06	-2.9283333333333335e-05
17.0	-7.073333333333333e-06	-2.9243333333333335e-05
17.125	-7.103333333333334e-06	-2.9256666666666667e-05
17.25	-7.156666666666667e-06	-2.926333333333334e-05
17.375	-7.236666666666666e-06	-2.926333333333334e-05
17.5	-7.2966666666666665e-06	-2.9296666666666667e-05
17.625	-7.316666666666667e-06	-2.9313333333333336e-05
17.75	-7.2999999999999996e-06	-2.930333333333333e-05
17.875	-7.263333333333333e-06	-2.931666666666667e-05
18.0	-7.223333333333333e-06	-2.9363333333333337e-05
18.125	-7.186666666666667e-06	-2.9373333333333336e-05
18.25	-7.186666666666667e-06	-2.936666666666667e-05
18.375	-7.22e-06	-2.936666666666667e-05
18.5	-7.25e-06	-2.9360000000000003e-05
18.625	-7.243333333333334e-06	-2.931666666666667e-05
18.75	-7.223333333333333e-06	-2.9270000000000003e-05
18.875	-7.203333333333334e-06	-2.9270000000000003e-05
19.0	-7.2100000000000004e-06	-2.9313333333333336e-05
19.125	-7.226666666666668e-06	-2.9356666666666666e-05
19.25	-7.226666666666668e-06	-2.9356666666666666e-05
19.375	-7.226666666666668e-06	-2.9330000000000002e-05
19.5	-7.190000000000001e-06	-2.9320000000000004e-05
19.625	-7.146666666666667e-06	-2.930333333333333e-05
19.75	-7.126666666666667e-06	-2.9293333333333333e-05
19.875	-7.16e-06	-2.930333333333333e-05
20.0	-7.233333333333333e-06	-2.9283333333333335e-05
20.125	-7.276666666666667e-06	-2.9243333333333335e-05
20.25	-7.286666666666667e-06	-2.9236666666666667e-05
20.375	-7.273333333333334e-06	-2.9233333333333334e-05
20.5	-7.246666666666667e-06	-2.926333333333334e-05
20.625	-7.2133333333333334e-06	-2.9320000000000004e-05
20.75	-7.223333333333333e-06	-2.9360000000000003e-05
20.875	-7.236666666666666e-06	-2.937666666666667e-05
21.0	-7.266666666666668e-06	-2.9373333333333336e-05
21.125	-7.303333333333334e-06	-2.9356666666666666e-05
21.25	-7.31e-06	-2.9353333333333332e-05
21.375	-7.276666666666667e-06	-2.9356666666666666e-05
21.5	-7.226666666666668e-06	-2.9353333333333332e-05
21.625	-7.186666666666667e-06	-2.9346666666666668e-05
21.75	-7.206666666666667e-06	-2.9360000000000003e-05
21.875	-7.246666666666667e-06	-2.9383333333333334e-05
22.0	-7.223333333333333e-06	-2.9406666666666664e-05
22.125	-7.196666666666667e-06	-2.943e-05
22.25	-7.173333333333333e-06	-2.941333333333334e-05
22.375	-7.13e-06	-2.939e-05
22.5	-7.07e-06	-2.9353333333333332e-05
22.625	-7.076666666666668e-06	-2.9356666666666666e-05
22.75	-7.1e-06	-2.9383333333333334e-05
22.875	-7.146666666666667e-06	-2.94e-05
23.0	-7.216666666666667e-06	-2.9373333333333336e-05
23.125	-7.273333333333334e-06	-2.9370000000000002e-05
23.25	-7.290000000000001e-06	-2.9383333333333334e-05
23.375	-7.283333333333334e-06	-2.9383333333333334e-05
23.5	-7.25e-06	-2.9386666666666668e-05
23.625	-7.206666666666667e-06	-2.94e-05
23.75	-7.17e-06	-2.9406666666666664e-05
23.875	-7.140000000000001e-06	-2.9370000000000002e-05
24.0	-7.106666666666667e-06	-2.9346666666666668e-05
24.125	-7.076666666666668e-06	-2.9353333333333332e-05
24.25	-7.06e-06	-2.9373333333333336e-05
24.375	-7.066666666666667e-06	-2.9370000000000002e-05
24.5	-7.1e-06	-2.9353333333333332e-05
24.625	-7.153333333333334e-06	-2.9326666666666668e-05
24.75	-7.2e-06	-2.931666666666667e-05
24.875	-7.190000000000001e-06	-2.9333333333333336e-05
25.0	-7.15e-06	-2.9323333333333334e-05
25.125	-7.106666666666667e-06	-2.9343333333333334e-05
25.25	-7.146666666666667e-06	-2.9353333333333332e-05
25.375	-7.233333333333333e-06	-2.9363333333333337e-05
25.5	-7.266666666666668e-06	-2.937666666666667e-05
25.625	-7.246666666666667e-06	-2.9380000000000003e-05
25.75	-7.233333333333333e-06	-2.9370000000000002e-05
25.875	-7.203333333333334e-06	-2.9373333333333336e-05
26.0	-7.186666666666667e-06	-2.9363333333333337e-05
26.125	-7.166666666666667e-06	-2.9346666666666668e-05
26.25	-7.16e-06	-2.9336666666666666e-05
26.375	-7.140000000000001e-06	-2.9313333333333336e-05
26.5	-7.140000000000001e-06	-2.9296666666666667e-05
26.625	-7.1233333333333335e-06	-2.9310000000000006e-05
26.75	-7.096666666666667e-06	-2.9333333333333336e-05
26.875	-7.076666666666668e-06	-2.9343333333333334e-05
27.0	-7.056666666666667e-06	-2.935e-05
27.125	-7.063333333333334e-06	-2.935e-05
27.25	-7.049999999999999e-06	-2.9336666666666666e-05
27.375	-7.046666666666666e-06	-2.9320000000000004e-05
27.5	-7.076666666666668e-06	-2.9313333333333336e-05
27.625	-7.086666666666667e-06	-2.9333333333333336e-05
27.75	-7.07e-06	-2.9346666666666668e-05
27.875	-7.04e-06	-2.934e-05
28.0	-7.043333333333333e-06	-2.935e-05
28.125	-7.0366666666666665e-06	-2.9363333333333337e-05
28.25	-7.04e-06	-2.9370000000000002e-05
28.375	-7.04e-06	-2.9356666666666666e-05
28.5	-7.056666666666667e-06	-2.9333333333333336e-05
28.625	-7.07e-06	-2.931666666666667e-05
28.75	-7.0333333333333335e-06	-2.9313333333333336e-05
28.875	-6.986666666666666e-06	-2.9330000000000002e-05
29.0	-6.996666666666667e-06	-2.9356666666666666e-05
29.125	-7.073333333333333e-06	-2.9386666666666668e-05
29.25	-7.1200000000000004e-06	-2.939e-05
29.375	-7.090000000000001e-06	-2.9370000000000002e-05
29.5	-7.053333333333334e-06	-2.9336666666666666e-05
29.625	-7.0300000000000005e-06	-2.9323333333333334e-05
29.75	-7.006666666666667e-06	-2.9360000000000003e-05
29.875	-6.983333333333333e-06	-2.9373333333333336e-05
30.0	-6.983333333333333e-06	-2.9336666666666666e-05
30.125	-7.043333333333333e-06	-2.9306666666666665e-05
30.25	-7.096666666666667e-06	-2.927666666666667e-05
30.375	-7.116666666666667e-06	-2.929e-05
30.5	-7.140000000000001e-06	-2.9323333333333334e-05
30.625	-7.163333333333333e-06	-2.9326666666666668e-05
30.75	-7.186666666666667e-06	-2.9353333333333332e-05
30.875	-7.173333333333333e-06	-2.9396666666666666e-05
31.0	-7.176666666666668e-06	-2.941333333333334e-05
31.125	-7.183333333333334e-06	-2.9383333333333334e-05
31.25	-7.176666666666668e-06	-2.9360000000000003e-05
31.375	-7.146666666666667e-06	-2.9343333333333334e-05
31.5	-7.113333333333334e-06	-2.9346666666666668e-05
31.625	-7.11e-06	-2.9336666666666666e-05
31.75	-7.11e-06	-2.931666666666667e-05
31.875	-7.1200000000000004e-06	-2.9310000000000006e-05
32.0	-7.136666666666666e-06	-2.9333333333333336e-05
32.125	-7.193333333333334e-06	-2.937666666666667e-05
32.25	-7.273333333333334e-06	-2.9423333333333337e-05
32.375	-7.306666666666667e-06	-2.9443333333333333e-05
32.5	-7.306666666666667e-06	-2.942666666666667e-05
32.625	-7.276666666666667e-06	-2.9403333333333334e-05
32.75	-7.226666666666668e-06	-2.9403333333333334e-05
32.875	-7.180000000000001e-06	-2.9386666666666668e-05
33.0	-7.15e-06	-2.9383333333333334e-05
33.125	-7.153333333333334e-06	-2.939e-05
33.25	-7.190000000000001e-06	-2.9386666666666668e-05
33.375	-7.196666666666667e-06	-2.9360000000000003e-05
33.5	-7.206666666666667e-06	-2.9330000000000002e-05
33.625	-7.193333333333334e-06	-2.9310000000000006e-05
33.75	-7.153333333333334e-06	-2.9313333333333336e-05
33.875	-7.136666666666666e-06	-2.9330000000000002e-05
34.0	-7.16e-06	-2.9353333333333332e-05
34.125	-7.186666666666667e-06	-2.9380000000000003e-05
34.25	-7.143333333333334e-06	-2.9370000000000002e-05
34.375	-7.076666666666668e-06	-2.9330000000000002e-05
34.5	-7.049999999999999e-06	-2.9320000000000004e-05
34.625	-7.003333333333334e-06	-2.9326666666666668e-05
34.75	-6.950000000000001e-06	-2.9333333333333336e-05
34.875	-6.9599999999999994e-06	-2.931666666666667e-05
35.0	-7.056666666666667e-06	-2.9336666666666666e-05
35.125	-7.13e-06	-2.9386666666666668e-05
35.25	-7.133333333333333e-06	-2.9396666666666666e-05
35.375	-7.1233333333333335e-06	-2.9370000000000002e-05
35.5	-7.106666666666667e-06	-2.935e-05
35.625	-7.096666666666667e-06	-2.9330000000000002e-05
35.75	-7.096666666666667e-06	-2.931666666666667e-05
35.875	-7.1200000000000004e-06	-2.9323333333333334e-05
36.0	-7.180000000000001e-06	-2.935e-05
36.125	-7.216666666666667e-06	-2.9363333333333337e-05
36.25	-7.246666666666667e-06	-2.9380000000000003e-05
36.375	-7.2966666666666665e-06	-2.9373333333333336e-05
36.5	-7.316666666666667e-06	-2.9363333333333337e-05
36.625	-7.286666666666667e-06	-2.9363333333333337e-05
36.75	-7.280000000000001e-06	-2.9373333333333336e-05
36.875	-7.290000000000001e-06	-2.9380000000000003e-05
37.0	-7.256666666666667e-06	-2.9403333333333334e-05
37.125	-7.226666666666668e-06	-2.9420000000000003e-05
37.25	-7.2133333333333334e-06	-2.9423333333333337e-05
37.375	-7.216666666666667e-06	-2.943666666666667e-05
37.5	-7.270000000000001e-06	-2.941666666666667e-05
37.625	-7.2999999999999996e-06	-2.937666666666667e-05
37.75	-7.280000000000001e-06	-2.9370000000000002e-05
37.875	-7.240000000000001e-06	-2.9409999999999998e-05
38.0	-7.193333333333334e-06	-2.945333333333333e-05
38.125	-7.15e-06	-2.9473333333333335e-05
38.25	-7.126666666666667e-06	-2.947666666666667e-05
38.375	-7.153333333333334e-06	-2.9446666666666667e-05
38.5	-7.17e-06	-2.9396666666666666e-05
38.625	-7.17e-06	-2.9356666666666666e-05
38.75	-7.15e-06	-2.9326666666666668e-05
38.875	-7.140000000000001e-06	-2.9343333333333334e-05
39.0	-7.146666666666667e-06	-2.9393333333333335e-05
39.125	-7.163333333333333e-06	-2.941333333333334e-05
39.25	-7.180000000000001e-06	-2.9406666666666664e-05
39.375	-7.193333333333334e-06	-2.9406666666666664e-05
39.5	-7.186666666666667e-06	-2.9386666666666668e-05
39.625	-7.156666666666667e-06	-2.9343333333333334e-05
39.75	-7.1200000000000004e-06	-2.931666666666667e-05
39.875	-7.090000000000001e-06	-2.9336666666666666e-05
40.0	-7.086666666666667e-06	-2.9373333333333336e-05
40.125	-7.116666666666667e-06	-2.9380000000000003e-05
40.25	-7.146666666666667e-06	-2.9363333333333337e-05
40.375	-7.153333333333334e-06	-2.9360000000000003e-05
40.5	-7.15e-06	-2.9383333333333334e-05
40.625	-7.153333333333334e-06	-2.9420000000000003e-05
40.75	-7.173333333333333e-06	-2.941666666666667e-05
40.875	-7.183333333333334e-06	-2.9393333333333335e-05
41.0	-7.2100000000000004e-06	-2.9380000000000003e-05
41.125	-7.233333333333333e-06	-2.9373333333333336e-05
41.25	-7.233333333333333e-06	-2.9356666666666666e-05
41.375	-7.240000000000001e-06	-2.9363333333333337e-05
41.5	-7.236666666666666e-06	-2.9353333333333332e-05
41.625	-7.190000000000001e-06	-2.934e-05
41.75	-7.136666666666666e-06	-2.9346666666666668e-05
41.875	-7.133333333333333e-06	-2.9373333333333336e-05
42.0	-7.143333333333334e-06	-2.936666666666667e-05
42.125	-7.173333333333333e-06	-2.935e-05
42.25	-7.223333333333333e-06	-2.934e-05
42.375	-7.280000000000001e-06	-2.935e-05
42.5	-7.313333333333333e-06	-2.9356666666666666e-05
42.625	-7.2966666666666665e-06	-2.9333333333333336e-05
42.75	-7.256666666666667e-06	-2.93e-05
42.875	-7.226666666666668e-06	-2.93e-05
43.0	-7.203333333333334e-06	-2.9323333333333334e-05
43.125	-7.176666666666668e-06	-2.9343333333333334e-05
43.25	-7.163333333333333e-06	-2.9336666666666666e-05
43.375	-7.166666666666667e-06	-2.9320000000000004e-05
43.5	-7.190000000000001e-06	-2.9323333333333334e-05
43.625	-7.196666666666667e-06	-2.9323333333333334e-05
43.75	-7.186666666666667e-06	-2.93e-05
43.875	-7.193333333333334e-06	-2.929e-05
44.0	-7.2133333333333334e-06	-2.9330000000000002e-05
44.125	-7.203333333333334e-06	-2.9373333333333336e-05
44.25	-7.17e-06	-2.9420000000000003e-05
44.375	-7.126666666666667e-06	-2.942666666666667e-05
44.5	-7.106666666666667e-06	-2.9356666666666666e-05
44.625	-7.106666666666667e-06	-2.9270000000000003e-05
44.75	-7.103333333333334e-06	-2.9243333333333335e-05
44.875	-7.126666666666667e-06	-2.928666666666667e-05
45.0	-7.17e-06	-2.9360000000000003e-05
45.125	-7.226666666666668e-06	-2.942666666666667e-05
45.25	-7.276666666666667e-06	-2.943666666666667e-05
45.375	-7.303333333333334e-06	-2.94e-05
45.5	-7.2999999999999996e-06	-2.9356666666666666e-05
45.625	-7.26e-06	-2.9336666666666666e-05
45.75	-7.186666666666667e-06	-2.9360000000000003e-05
45.875	-7.11e-06	-2.937666666666667e-05
46.0	-7.046666666666666e-06	-2.9363333333333337e-05
46.125	-7.0233333333333336e-06	-2.9373333333333336e-05
46.25	-7.06e-06	-2.9383333333333334e-05
46.375	-7.13e-06	-2.9373333333333336e-05
46.5	-7.193333333333334e-06	-2.9356666666666666e-05
46.625	-7.22e-06	-2.9360000000000003e-05
46.75	-7.2133333333333334e-06	-2.9356666666666666e-05
46.875	-7.196666666666667e-06	-2.9333333333333336e-05
47.0	-7.180000000000001e-06	-2.9330000000000002e-05
47.125	-7.186666666666667e-06	-2.934e-05
47.25	-7.173333333333333e-06	-2.937666666666667e-05
47.375	-7.13e-06	-2.9409999999999998e-05
47.5	-7.113333333333334e-06	-2.937666666666667e-05
47.625	-7.086666666666667e-06	-2.931666666666667e-05
47.75	-7.086666666666667e-06	-2.9293333333333333e-05
47.875	-7.140000000000001e-06	-2.9283333333333335e-05
48.0	-7.140000000000001e-06	-2.9310000000000006e-05
48.125	-7.113333333333334e-06	-2.9336666666666666e-05
48.25	-7.106666666666667e-06	-2.9336666666666666e-05
48.375	-7.11e-06	-2.9353333333333332e-05
48.5	-7.113333333333334e-06	-2.9363333333333337e-05
48.625	-7.1233333333333335e-06	-2.9346666666666668e-05
48.75	-7.15e-06	-2.935e-05
48.875	-7.163333333333333e-06	-2.9370000000000002e-05
49.0	-7.176666666666668e-06	-2.9393333333333335e-05
49.125	-7.190000000000001e-06	-2.94e-05
49.25	-7.226666666666668e-06	-2.939e-05
49.375	-7.25e-06	-2.936666666666667e-05
49.5	-7.256666666666667e-06	-2.9346666666666668e-05
49.625	-7.25e-06	-2.9336666666666666e-05
49.75	-7.2100000000000004e-06	-2.9310000000000006e-05
49.875	-7.16e-06	-2.9293333333333333e-05
50.0	-7.146666666666667e-06	-2.9313333333333336e-05
50.125	-7.16e-06	-2.9373333333333336e-05
50.25	-7.180000000000001e-06	-2.946e-05
50.375	-7.2133333333333334e-06	-2.9496666666666668e-05
50.5	-7.22e-06	-2.9480000000000002e-05
50.625	-7.163333333333333e-06	-2.945e-05
50.75	-7.073333333333333e-06	-2.941333333333334e-05
50.875	-7.0233333333333336e-06	-2.9386666666666668e-05
51.0	-7.0333333333333335e-06	-2.9363333333333337e-05
51.125	-7.07e-06	-2.9330000000000002e-05
51.25	-7.106666666666667e-06	-2.9323333333333334e-05
51.375	-7.146666666666667e-06	-2.9313333333333336e-05
51.5	-7.203333333333334e-06	-2.9273333333333337e-05
51.625	-7.2133333333333334e-06	-2.9270000000000003e-05
51.75	-7.203333333333334e-06	-2.9283333333333335e-05
51.875	-7.226666666666668e-06	-2.9313333333333336e-05
52.0	-7.22e-06	-2.9353333333333332e-05
52.125	-7.2e-06	-2.9360000000000003e-05
52.25	-7.183333333333334e-06	-2.9363333333333337e-05
52.375	-7.2e-06	-2.9356666666666666e-05
52.5	-7.216666666666667e-06	-2.9343333333333334e-05
52.625	-7.176666666666668e-06	-2.9333333333333336e-05
52.75	-7.126666666666667e-06	-2.9330000000000002e-05
52.875	-7.1e-06	-2.9323333333333334e-05
53.0	-7.093333333333334e-06	-2.9370000000000002e-05
53.125	-7.136666666666666e-06	-2.941666666666667e-05
53.25	-7.196666666666667e-06	-2.9420000000000003e-05
53.375	-7.246666666666667e-06	-2.9443333333333333e-05
53.5	-7.26e-06	-2.944e-05
53.625	-7.223333333333333e-06	-2.9383333333333334e-05
53.75	-7.163333333333333e-06	-2.9323333333333334e-05
53.875	-7.096666666666667e-06	-2.9296666666666667e-05
54.0	-7.049999999999999e-06	-2.9296666666666667e-05
54.125	-7.04e-06	-2.9306666666666665e-05
54.25	-7.086666666666667e-06	-2.9323333333333334e-05
54.375	-7.143333333333334e-06	-2.9330000000000002e-05
54.5	-7.176666666666668e-06	-2.9323333333333334e-05
54.625	-7.230000000000001e-06	-2.9326666666666668e-05
54.75	-7.26e-06	-2.9336666666666666e-05
54.875	-7.283333333333334e-06	-2.9336666666666666e-05
55.0	-7.290000000000001e-06	-2.9343333333333334e-05
55.125	-7.273333333333334e-06	-2.936666666666667e-05
55.25	-7.280000000000001e-06	-2.9396666666666666e-05
55.375	-7.280000000000001e-06	-2.941333333333334e-05
55.5	-7.273333333333334e-06	-2.9386666666666668e-05
55.625	-7.32e-06	-2.939e-05
55.75	-7.330000000000001e-06	-2.9406666666666664e-05
55.875	-7.293333333333334e-06	-2.941333333333334e-05
56.0	-7.276666666666667e-06	-2.939e-05
56.125	-7.2999999999999996e-06	-2.9373333333333336e-05
56.25	-7.32e-06	-2.9370000000000002e-05
56.375	-7.306666666666667e-06	-2.9360000000000003e-05
56.5	-7.2999999999999996e-06	-2.9346666666666668e-05
56.625	-7.31e-06	-2.9333333333333336e-05
56.75	-7.276666666666667e-06	-2.9336666666666666e-05
56.875	-7.2133333333333334e-06	-2.935e-05
57.0	-7.140000000000001e-06	-2.9333333333333336e-05
57.125	-7.146666666666667e-06	-2.934e-05
57.25	-7.196666666666667e-06	-2.937666666666667e-05
57.375	-7.233333333333333e-06	-2.9396666666666666e-05
57.5	-7.253333333333334e-06	-2.939e-05
57.625	-7.263333333333333e-06	-2.9353333333333332e-05
57.75	-7.283333333333334e-06	-2.9313333333333336e-05
57.875	-7.283333333333334e-06	-2.9306666666666665e-05
58.0	-7.283333333333334e-06	-2.9323333333333334e-05
58.125	-7.2999999999999996e-06	-2.935e-05
58.25	-7.326666666666666e-06	-2.9360000000000003e-05
58.375	-7.343333333333334e-06	-2.9356666666666666e-05
58.5	-7.340000000000001e-06	-2.9333333333333336e-05
58.625	-7.336666666666667e-06	-2.9323333333333334e-05
58.75	-7.306666666666667e-06	-2.931666666666667e-05
58.875	-7.273333333333334e-06	-2.9310000000000006e-05
59.0	-7.253333333333334e-06	-2.9313333333333336e-05
59.125	-7.256666666666667e-06	-2.9330000000000002e-05
59.25	-7.270000000000001e-06	-2.935e-05
59.375	-7.303333333333334e-06	-2.9373333333333336e-05
59.5	-7.333333333333334e-06	-2.9386666666666668e-05
59.625	-7.330000000000001e-06	-2.9380000000000003e-05
59.75	-7.31e-06	-2.9360000000000003e-05
59.875	-7.293333333333334e-06	-2.9373333333333336e-05
60.0	-7.263333333333333e-06	-2.9393333333333335e-05
60.125	-7.223333333333333e-06	-2.94e-05
60.25	-7.223333333333333e-06	-2.9420000000000003e-05
60.375	-7.243333333333334e-06	-2.945333333333333e-05
60.5	-7.293333333333334e-06	-2.946e-05
60.625	-7.343333333333334e-06	-2.944e-05
60.75	-7.370000000000001e-06	-2.9409999999999998e-05
60.875	-7.376666666666667e-06	-2.936666666666667e-05
61.0	-7.353333333333335e-06	-2.9343333333333334e-05
61.125	-7.2966666666666665e-06	-2.937666666666667e-05
61.25	-7.263333333333333e-06	-2.941333333333334e-05
61.375	-7.280000000000001e-06	-2.942666666666667e-05
61.5	-7.330000000000001e-06	-2.94e-05
61.625	-7.346666666666667e-06	-2.9356666666666666e-05
61.75	-7.330000000000001e-06	-2.935e-05
61.875	-7.290000000000001e-06	-2.937666666666667e-05
62.0	-7.216666666666667e-06	-2.941666666666667e-05
62.125	-7.156666666666667e-06	-2.946e-05
62.25	-7.176666666666668e-06	-2.9446666666666667e-05
62.375	-7.2100000000000004e-06	-2.939e-05
62.5	-7.223333333333333e-06	-2.9353333333333332e-05
62.625	-7.246666666666667e-06	-2.9330000000000002e-05
62.75	-7.246666666666667e-06	-2.9323333333333334e-05
62.875	-7.246666666666667e-06	-2.9336666666666666e-05
63.0	-7.243333333333334e-06	-2.9336666666666666e-05
63.125	-7.236666666666666e-06	-2.935e-05
63.25	-7.236666666666666e-06	-2.9393333333333335e-05
63.375	-7.240000000000001e-06	-2.943e-05
63.5	-7.246666666666667e-06	-2.9446666666666667e-05
63.625	-7.26e-06	-2.9443333333333333e-05
63.75	-7.266666666666668e-06	-2.9403333333333334e-05
63.875	-7.263333333333333e-06	-2.9360000000000003e-05
64.0	-7.236666666666666e-06	-2.9356666666666666e-05
64.125	-7.236666666666666e-06	-2.9356666666666666e-05
64.25	-7.266666666666668e-06	-2.9343333333333334e-05
64.375	-7.31e-06	-2.9330000000000002e-05
64.5	-7.326666666666666e-06	-2.935e-05
64.625	-7.326666666666666e-06	-2.9356666666666666e-05
64.75	-7.330000000000001e-06	-2.9363333333333337e-05
64.875	-7.323333333333333e-06	-2.9370000000000002e-05
65.0	-7.31e-06	-2.9370000000000002e-05
65.125	-7.293333333333334e-06	-2.9370000000000002e-05
65.25	-7.25e-06	-2.937666666666667e-05
65.375	-7.183333333333334e-06	-2.9396666666666666e-05
65.5	-7.133333333333333e-06	-2.9406666666666664e-05
65.625	-7.113333333333334e-06	-2.9373333333333336e-05
65.75	-7.143333333333334e-06	-2.9336666666666666e-05
65.875	-7.180000000000001e-06	-2.9310000000000006e-05
66.0	-7.183333333333334e-06	-2.9283333333333335e-05
66.125	-7.136666666666666e-06	-2.928666666666667e-05
66.25	-7.1e-06	-2.9296666666666667e-05
66.375	-7.103333333333334e-06	-2.9336666666666666e-05
66.5	-7.143333333333334e-06	-2.9370000000000002e-05
66.625	-7.146666666666667e-06	-2.9383333333333334e-05
66.75	-7.093333333333334e-06	-2.935e-05
66.875	-7.0300000000000005e-06	-2.9320000000000004e-05
67.0	-7.0133333333333345e-06	-2.9296666666666667e-05
67.125	-7.049999999999999e-06	-2.928e-05
67.25	-7.1233333333333335e-06	-2.93e-05
67.375	-7.216666666666667e-06	-2.9323333333333334e-05
67.5	-7.236666666666666e-06	-2.929e-05
67.625	-7.16e-06	-2.926333333333334e-05
67.75	-7.046666666666666e-06	-2.9323333333333334e-05
67.875	-6.996666666666667e-06	-2.9380000000000003e-05
68.0	-7.0366666666666665e-06	-2.9383333333333334e-05
68.125	-7.15e-06	-2.9370000000000002e-05
68.25	-7.233333333333333e-06	-2.9370000000000002e-05
68.375	-7.26e-06	-2.9356666666666666e-05
68.5	-7.273333333333334e-06	-2.9333333333333336e-05
