time	Vx	Vy
0.5	1.5078333333333333e-05	1.9275e-05
1.0	1.5048333333333333e-05	1.9223333333333336e-05
1.5	1.5040000000000002e-05	1.9231666666666667e-05
2.0	1.5120000000000001e-05	1.924e-05
2.5	1.5103333333333333e-05	1.9243333333333336e-05
3.0	1.5095e-05	1.9235e-05
3.5	1.5105e-05	1.9235e-05
4.0	1.5136666666666669e-05	1.933e-05
4.5	1.5155e-05	1.9261666666666665e-05
5.0	1.5173333333333334e-05	1.9278333333333335e-05
5.5	1.5226666666666668e-05	1.9303333333333335e-05
6.0	1.5201666666666667e-05	1.9208333333333334e-05
6.5	1.5198333333333333e-05	1.9218333333333335e-05
7.0	1.5133333333333333e-05	1.9214999999999998e-05
7.5	1.5043333333333334e-05	1.9245000000000003e-05
8.0	1.51e-05	1.9248333333333333e-05
8.5	1.5061666666666668e-05	1.9223333333333336e-05
9.0	1.514e-05	1.9235e-05
9.5	1.517e-05	1.9248333333333333e-05
10.0	1.5086666666666669e-05	1.9291666666666667e-05
10.5	1.5033333333333336e-05	1.923e-05
11.0	1.5123333333333333e-05	1.9205e-05
11.5	1.5118333333333334e-05	1.929e-05
12.0	1.5216666666666668e-05	1.9238333333333332e-05
12.5	1.5248333333333334e-05	1.929e-05
13.0	1.5191666666666667e-05	1.9268333333333337e-05
13.5	1.5073333333333334e-05	1.9285e-05
14.0	1.5156666666666667e-05	1.9276666666666668e-05
14.5	1.5146666666666667e-05	1.9263333333333332e-05
15.0	1.5098333333333334e-05	1.9286666666666666e-05
15.5	1.5158333333333332e-05	1.924e-05
16.0	1.5198333333333333e-05	1.9168333333333334e-05
16.5	1.5126666666666667e-05	1.9218333333333335e-05
17.0	1.5105e-05	1.9258333333333335e-05
17.5	1.5136666666666669e-05	1.9248333333333333e-05
18.0	1.505e-05	1.9248333333333333e-05
18.5	1.502e-05	1.9188333333333334e-05
19.0	1.5073333333333334e-05	1.9245000000000003e-05
19.5	1.5110000000000003e-05	1.9205e-05
20.0	1.5125e-05	1.920166666666667e-05
20.5	1.5021666666666667e-05	1.9245000000000003e-05
21.0	1.5005e-05	1.937166666666667e-05
21.5	1.5091666666666668e-05	1.9238333333333332e-05
22.0	1.5113333333333335e-05	1.9173333333333335e-05
22.5	1.5093333333333335e-05	1.9186666666666667e-05
23.0	1.5086666666666669e-05	1.9233333333333334e-05
23.5	1.5028333333333333e-05	1.931e-05
24.0	1.5011666666666669e-05	1.9211666666666668e-05
24.5	1.5095e-05	1.9223333333333336e-05
25.0	1.5105e-05	1.9208333333333334e-05
25.5	1.5126666666666667e-05	1.9261666666666665e-05
26.0	1.5116666666666667e-05	1.9226666666666667e-05
26.5	1.4995000000000001e-05	1.9311666666666667e-05
27.0	1.5054999999999999e-05	1.9283333333333332e-05
27.5	1.5131666666666666e-05	1.9261666666666665e-05
28.0	1.5045e-05	1.9193333333333335e-05
28.5	1.5065e-05	1.9205e-05
29.0	1.5073333333333334e-05	1.9295e-05
29.5	1.5070000000000001e-05	1.9295e-05
30.0	1.5086666666666669e-05	1.9258333333333335e-05
30.5	1.5108333333333332e-05	1.9243333333333336e-05
31.0	1.5088333333333334e-05	1.9166666666666667e-05
31.5	1.5053333333333334e-05	1.9231666666666667e-05
32.0	1.502e-05	1.9183333333333333e-05
32.5	1.5053333333333334e-05	1.9231666666666667e-05
33.0	1.5053333333333334e-05	1.9271666666666667e-05
33.5	1.5054999999999999e-05	1.9158333333333333e-05
34.0	1.508e-05	1.9226666666666667e-05
34.5	1.5138333333333335e-05	1.9213333333333335e-05
35.0	1.5073333333333334e-05	1.9248333333333333e-05
35.5	1.5103333333333333e-05	1.9296666666666668e-05
36.0	1.4986666666666668e-05	1.9288333333333333e-05
36.5	1.5085000000000002e-05	1.9200000000000003e-05
37.0	1.5088333333333334e-05	1.9195000000000002e-05
37.5	1.5110000000000003e-05	1.9208333333333334e-05
38.0	1.5083333333333335e-05	1.9163333333333333e-05
38.5	1.5076666666666667e-05	1.9295e-05
39.0	1.5118333333333334e-05	1.921e-05
39.5	1.5123333333333333e-05	1.9248333333333333e-05
40.0	1.5086666666666669e-05	1.9245000000000003e-05
40.5	1.5095e-05	1.9271666666666667e-05
41.0	1.5e-05	1.9235e-05
41.5	1.4963333333333335e-05	1.9268333333333337e-05
42.0	1.5060000000000001e-05	1.924e-05
42.5	1.5040000000000002e-05	1.9226666666666667e-05
43.0	1.5085000000000002e-05	1.925e-05
43.5	1.5053333333333334e-05	1.9203333333333333e-05
44.0	1.5016666666666668e-05	1.9223333333333336e-05
44.5	1.4985000000000001e-05	1.9200000000000003e-05
45.0	1.5018333333333335e-05	1.9243333333333336e-05
45.5	1.5086666666666669e-05	1.924e-05
46.0	1.5098333333333334e-05	1.9231666666666667e-05
46.5	1.5038333333333335e-05	1.9260000000000002e-05
47.0	1.5145000000000002e-05	1.9268333333333337e-05
47.5	1.4991666666666667e-05	1.9228333333333334e-05
48.0	1.508e-05	1.9225e-05
48.5	1.4995000000000001e-05	1.922166666666667e-05
49.0	1.5045e-05	1.9228333333333334e-05
49.5	1.5048333333333333e-05	1.9305000000000002e-05
50.0	1.5054999999999999e-05	1.9233333333333334e-05
50.5	1.4983333333333336e-05	1.926666666666667e-05
51.0	1.5001666666666667e-05	1.9205e-05
51.5	1.4968333333333334e-05	1.9291666666666667e-05
52.0	1.4986666666666668e-05	1.9218333333333335e-05
52.5	1.4936666666666669e-05	1.9313333333333334e-05
53.0	1.4993333333333334e-05	1.919e-05
53.5	1.5071666666666667e-05	1.9183333333333333e-05
54.0	1.508e-05	1.9203333333333333e-05
54.5	1.5e-05	1.9233333333333334e-05
55.0	1.5053333333333334e-05	1.9213333333333335e-05
55.5	1.508e-05	1.9311666666666667e-05
56.0	1.5071666666666667e-05	1.9235e-05
56.5	1.5121666666666668e-05	1.923e-05
57.0	1.5025000000000001e-05	1.9235e-05
57.5	1.5088333333333334e-05	1.924e-05
58.0	1.5078333333333333e-05	1.922166666666667e-05
58.5	1.5081666666666667e-05	1.9236666666666668e-05
59.0	1.5066666666666668e-05	1.923e-05
59.5	1.5071666666666667e-05	1.9226666666666667e-05
60.0	1.5123333333333333e-05	1.925e-05
60.5	1.5185000000000003e-05	1.9186666666666667e-05
61.0	1.5143333333333335e-05	1.921e-05
61.5	1.5103333333333333e-05	1.9251666666666667e-05
62.0	1.516166666666667e-05	1.918e-05
62.5	1.5166666666666668e-05	1.9253333333333334e-05
63.0	1.5148333333333334e-05	1.924666666666667e-05
63.5	1.5155e-05	1.922166666666667e-05
64.0	1.5158333333333332e-05	1.9268333333333337e-05
64.5	1.5220000000000002e-05	1.9253333333333334e-05
65.0	1.518e-05	1.9226666666666667e-05
65.5	1.514e-05	1.9226666666666667e-05
66.0	1.5091666666666668e-05	1.9253333333333334e-05
66.5	1.5048333333333333e-05	1.9285e-05
67.0	1.5135000000000002e-05	1.9261666666666665e-05
67.5	1.5008333333333335e-05	1.9233333333333334e-05
68.0	1.5121666666666668e-05	1.9211666666666668e-05
68.5	1.5171666666666667e-05	1.932e-05
69.0	1.5185000000000003e-05	1.9295e-05
69.5	1.518e-05	1.9236666666666668e-05
70.0	1.5198333333333333e-05	1.9243333333333336e-05
70.5	1.526166666666667e-05	1.9253333333333334e-05
71.0	1.5260000000000003e-05	1.9178333333333336e-05
71.5	1.5226666666666668e-05	1.921666666666667e-05
72.0	1.5198333333333333e-05	1.9263333333333332e-05
72.5	1.5155e-05	1.9231666666666667e-05
73.0	1.5210000000000002e-05	1.924166666666667e-05
73.5	1.5213333333333336e-05	1.9183333333333333e-05
74.0	1.5216666666666668e-05	1.9238333333333332e-05
74.5	1.5205e-05	1.919666666666667e-05
75.0	1.5171666666666667e-05	1.9243333333333336e-05
75.5	1.5181666666666666e-05	1.924166666666667e-05
76.0	1.5171666666666667e-05	1.9251666666666667e-05
76.5	1.5231666666666667e-05	1.920166666666667e-05
77.0	1.5111666666666668e-05	1.9278333333333335e-05
77.5	1.5125e-05	1.9191666666666668e-05
78.0	1.5131666666666666e-05	1.9263333333333332e-05
78.5	1.5060000000000001e-05	1.9165e-05
79.0	1.5063333333333335e-05	1.9175000000000002e-05
79.5	1.5106666666666665e-05	1.9253333333333334e-05
80.0	1.5121666666666668e-05	1.9276666666666668e-05
80.5	1.5051666666666667e-05	1.9243333333333336e-05
81.0	1.4998333333333333e-05	1.9218333333333335e-05
81.5	1.5093333333333335e-05	1.920166666666667e-05
82.0	1.5091666666666668e-05	1.917666666666667e-05
82.5	1.5108333333333332e-05	1.926666666666667e-05
83.0	1.5008333333333335e-05	1.924166666666667e-05
83.5	1.4953333333333333e-05	1.9161666666666666e-05
84.0	1.5041666666666669e-05	1.9223333333333336e-05
84.5	1.5054999999999999e-05	1.9206666666666667e-05
85.0	1.5108333333333332e-05	1.924e-05
85.5	1.5051666666666667e-05	1.9255e-05
86.0	1.5163333333333334e-05	1.9225e-05
86.5	1.5128333333333334e-05	1.921666666666667e-05
87.0	1.5216666666666668e-05	1.9205e-05
87.5	1.5185000000000003e-05	1.9231666666666667e-05
88.0	1.5016666666666668e-05	1.9295e-05
88.5	1.5011666666666669e-05	1.9233333333333334e-05
89.0	1.5033333333333336e-05	1.9181666666666666e-05
89.5	1.5068333333333334e-05	1.9256666666666668e-05
90.0	1.5018333333333335e-05	1.9278333333333335e-05
90.5	1.4943333333333335e-05	1.922166666666667e-05
91.0	1.4886666666666668e-05	1.9263333333333332e-05
91.5	1.4945e-05	1.921e-05
92.0	1.5023333333333334e-05	1.9205e-05
92.5	1.5118333333333334e-05	1.920166666666667e-05
93.0	1.5101666666666666e-05	1.918e-05
93.5	1.5035000000000003e-05	1.9173333333333335e-05
94.0	1.5054999999999999e-05	1.9231666666666667e-05
94.5	1.4983333333333336e-05	1.9248333333333333e-05
95.0	1.4988333333333335e-05	1.9173333333333335e-05
95.5	1.5108333333333332e-05	1.9268333333333337e-05
96.0	1.5083333333333335e-05	1.9291666666666667e-05
96.5	1.5176666666666666e-05	1.9256666666666668e-05
97.0	1.5081666666666667e-05	1.9214999999999998e-05
97.5	1.5093333333333335e-05	1.9213333333333335e-05
98.0	1.5045e-05	1.9185e-05
98.5	1.5033333333333336e-05	1.920166666666667e-05
99.0	1.5078333333333333e-05	1.9305000000000002e-05
99.5	1.4973333333333333e-05	1.923e-05
100.0	1.4996666666666667e-05	1.929e-05
100.5	1.5016666666666668e-05	1.919666666666667e-05
101.0	1.5018333333333335e-05	1.9208333333333334e-05
101.5	1.4993333333333334e-05	1.9173333333333335e-05
102.0	1.4998333333333333e-05	1.9165e-05
102.5	1.5056666666666666e-05	1.9214999999999998e-05
103.0	1.4978333333333334e-05	1.921666666666667e-05
103.5	1.5013333333333334e-05	1.9203333333333333e-05
104.0	1.5120000000000001e-05	1.9175000000000002e-05
104.5	1.5121666666666668e-05	1.9186666666666667e-05
105.0	1.518e-05	1.9243333333333336e-05
105.5	1.505e-05	1.9255e-05
106.0	1.5121666666666668e-05	1.9211666666666668e-05
106.5	1.5088333333333334e-05	1.9233333333333334e-05
107.0	1.5193333333333334e-05	1.9308333333333333e-05
107.5	1.5116666666666667e-05	1.9185e-05
108.0	1.5225e-05	1.9205e-05
108.5	1.5243333333333334e-05	1.9198333333333336e-05
109.0	1.523e-05	1.9193333333333335e-05
109.5	1.5220000000000002e-05	1.9243333333333336e-05
110.0	1.5203333333333334e-05	1.9178333333333336e-05
110.5	1.5090000000000001e-05	1.9191666666666668e-05
111.0	1.5098333333333334e-05	1.924166666666667e-05
111.5	1.5160000000000002e-05	1.9161666666666666e-05
112.0	1.5143333333333335e-05	1.9213333333333335e-05
112.5	1.5095e-05	1.9285e-05
113.0	1.5105e-05	1.919666666666667e-05
113.5	1.5116666666666667e-05	1.924666666666667e-05
114.0	1.5190000000000002e-05	1.9220000000000002e-05
114.5	1.5123333333333333e-05	1.9195000000000002e-05
115.0	1.5026666666666666e-05	1.9178333333333336e-05
115.5	1.5063333333333335e-05	1.924166666666667e-05
116.0	1.5115000000000002e-05	1.919e-05
116.5	1.5066666666666668e-05	1.921e-05
117.0	1.5081666666666667e-05	1.9214999999999998e-05
117.5	1.5121666666666668e-05	1.9233333333333334e-05
118.0	1.5201666666666667e-05	1.9235e-05
118.5	1.5210000000000002e-05	1.921e-05
119.0	1.5275000000000002e-05	1.917666666666667e-05
119.5	1.5125e-05	1.9260000000000002e-05
120.0	1.5165000000000001e-05	1.9245000000000003e-05
120.5	1.5193333333333334e-05	1.9225e-05
121.0	1.5301666666666666e-05	1.9191666666666668e-05
121.5	1.5128333333333334e-05	1.9163333333333333e-05
122.0	1.5168333333333335e-05	1.9251666666666667e-05
122.5	1.5258333333333333e-05	1.9256666666666668e-05
123.0	1.5281666666666666e-05	1.9361666666666668e-05
123.5	1.5291666666666668e-05	1.9226666666666667e-05
124.0	1.5208333333333333e-05	1.9231666666666667e-05
124.5	1.5240000000000001e-05	1.9243333333333336e-05
125.0	1.5131666666666666e-05	1.9271666666666667e-05
125.5	1.52e-05	1.9253333333333334e-05
126.0	1.5171666666666667e-05	1.929e-05
126.5	1.516166666666667e-05	1.934e-05
127.0	1.5123333333333333e-05	1.9286666666666666e-05
127.5	1.514e-05	1.9308333333333333e-05
128.0	1.5116666666666667e-05	1.9211666666666668e-05
128.5	1.5146666666666667e-05	1.9168333333333334e-05
129.0	1.5093333333333335e-05	1.9213333333333335e-05
129.5	1.5098333333333334e-05	1.9238333333333332e-05
130.0	1.5033333333333336e-05	1.9205e-05
130.5	1.5120000000000001e-05	1.9178333333333336e-05
131.0	1.5171666666666667e-05	1.923e-05
131.5	1.5273333333333335e-05	1.9278333333333335e-05
132.0	1.5245e-05	1.9223333333333336e-05
132.5	1.5213333333333336e-05	1.919666666666667e-05
133.0	1.5156666666666667e-05	1.9214999999999998e-05
133.5	1.5143333333333335e-05	1.9261666666666665e-05
134.0	1.5146666666666667e-05	1.9253333333333334e-05
134.5	1.5198333333333333e-05	1.9268333333333337e-05
135.0	1.5235000000000002e-05	1.925e-05
135.5	1.5218333333333335e-05	1.9275e-05
136.0	1.5190000000000002e-05	1.9206666666666667e-05
136.5	1.5225e-05	1.9193333333333335e-05
137.0	1.5176666666666666e-05	1.9173333333333335e-05
137.5	1.515e-05	1.9248333333333333e-05
138.0	1.5243333333333334e-05	1.9265e-05
138.5	1.5218333333333335e-05	1.922166666666667e-05
139.0	1.5315e-05	1.930166666666667e-05
139.5	1.5260000000000003e-05	1.9270000000000004e-05
140.0	1.5216666666666668e-05	1.9211666666666668e-05
140.5	1.5248333333333334e-05	1.931e-05
141.0	1.5301666666666666e-05	1.9183333333333333e-05
141.5	1.5165000000000001e-05	1.9205e-05
142.0	1.5183333333333333e-05	1.9268333333333337e-05
142.5	1.505e-05	1.9198333333333336e-05
143.0	1.5086666666666669e-05	1.9223333333333336e-05
143.5	1.5118333333333334e-05	1.9248333333333333e-05
144.0	1.5148333333333334e-05	1.9293333333333334e-05
144.5	1.51e-05	1.9171666666666668e-05
145.0	1.5158333333333332e-05	1.9211666666666668e-05
145.5	1.5141666666666668e-05	1.9166666666666667e-05
146.0	1.5185000000000003e-05	1.9251666666666667e-05
146.5	1.5178333333333333e-05	1.9255e-05
147.0	1.5173333333333334e-05	1.932666666666667e-05
147.5	1.5155e-05	1.9256666666666668e-05
148.0	1.5103333333333333e-05	1.9211666666666668e-05
148.5	1.5155e-05	1.919666666666667e-05
149.0	1.5178333333333333e-05	1.9203333333333333e-05
149.5	1.5131666666666666e-05	1.9308333333333333e-05
150.0	1.5120000000000001e-05	1.9228333333333334e-05
150.5	1.5183333333333333e-05	1.9171666666666668e-05
151.0	1.5138333333333335e-05	1.9231666666666667e-05
151.5	1.52e-05	1.9214999999999998e-05
152.0	1.5060000000000001e-05	1.9168333333333334e-05
152.5	1.5016666666666668e-05	1.9175000000000002e-05
153.0	1.5016666666666668e-05	1.9260000000000002e-05
153.5	1.5061666666666668e-05	1.9218333333333335e-05
154.0	1.5011666666666669e-05	1.9225e-05
154.5	1.4986666666666668e-05	1.9214999999999998e-05
155.0	1.4976666666666667e-05	1.9208333333333334e-05
155.5	1.5096666666666667e-05	1.9248333333333333e-05
156.0	1.508e-05	1.9191666666666668e-05
156.5	1.5110000000000003e-05	1.9193333333333335e-05
157.0	1.5138333333333335e-05	1.9260000000000002e-05
157.5	1.5120000000000001e-05	1.9214999999999998e-05
158.0	1.5101666666666666e-05	1.9275e-05
158.5	1.5098333333333334e-05	1.9271666666666667e-05
159.0	1.5041666666666669e-05	1.9175000000000002e-05
159.5	1.4976666666666667e-05	1.921666666666667e-05
160.0	1.4988333333333335e-05	1.9223333333333336e-05
160.5	1.4985000000000001e-05	1.9328333333333336e-05
161.0	1.5105e-05	1.9261666666666665e-05
161.5	1.5073333333333334e-05	1.9253333333333334e-05
162.0	1.5036666666666668e-05	1.920166666666667e-05
162.5	1.51e-05	1.921e-05
163.0	1.523e-05	1.9253333333333334e-05
163.5	1.5208333333333333e-05	1.9223333333333336e-05
164.0	1.5151666666666668e-05	1.9265e-05
164.5	1.5223333333333334e-05	1.9225e-05
165.0	1.5208333333333333e-05	1.9218333333333335e-05
165.5	1.5158333333333332e-05	1.9163333333333333e-05
166.0	1.5143333333333335e-05	1.9235e-05
166.5	1.5045e-05	1.924666666666667e-05
167.0	1.5113333333333335e-05	1.9168333333333334e-05
167.5	1.52e-05	1.922166666666667e-05
168.0	1.5210000000000002e-05	1.9268333333333337e-05
168.5	1.5126666666666667e-05	1.9273333333333334e-05
169.0	1.5093333333333335e-05	1.9233333333333334e-05
169.5	1.514e-05	1.920166666666667e-05
170.0	1.5123333333333333e-05	1.9251666666666667e-05
170.5	1.5203333333333334e-05	1.9265e-05
171.0	1.5105e-05	1.9188333333333334e-05
171.5	1.5128333333333334e-05	1.9175000000000002e-05
172.0	1.5135000000000002e-05	1.9261666666666665e-05
172.5	1.5151666666666668e-05	1.9220000000000002e-05
173.0	1.5115000000000002e-05	1.9293333333333334e-05
173.5	1.5106666666666665e-05	1.9191666666666668e-05
174.0	1.5093333333333335e-05	1.9193333333333335e-05
174.5	1.5113333333333335e-05	1.930166666666667e-05
175.0	1.5070000000000001e-05	1.9213333333333335e-05
175.5	1.5116666666666667e-05	1.9205e-05
176.0	1.5103333333333333e-05	1.9205e-05
176.5	1.5160000000000002e-05	1.9273333333333334e-05
177.0	1.5146666666666667e-05	1.9223333333333336e-05
177.5	1.5054999999999999e-05	1.9233333333333334e-05
178.0	1.5063333333333335e-05	1.919666666666667e-05
178.5	1.5103333333333333e-05	1.9238333333333332e-05
179.0	1.5205e-05	1.9208333333333334e-05
179.5	1.517e-05	1.9263333333333332e-05
180.0	1.52e-05	1.9303333333333335e-05
180.5	1.5141666666666668e-05	1.9248333333333333e-05
181.0	1.5065e-05	1.9223333333333336e-05
181.5	1.5060000000000001e-05	1.9223333333333336e-05
182.0	1.5081666666666667e-05	1.9226666666666667e-05
182.5	1.5110000000000003e-05	1.9193333333333335e-05
183.0	1.5076666666666667e-05	1.9248333333333333e-05
183.5	1.5175e-05	1.9261666666666665e-05
184.0	1.5193333333333334e-05	1.9211666666666668e-05
184.5	1.5213333333333336e-05	1.921666666666667e-05
185.0	1.516166666666667e-05	1.9195000000000002e-05
185.5	1.5115000000000002e-05	1.9295e-05
186.0	1.5071666666666667e-05	1.9225e-05
186.5	1.5070000000000001e-05	1.9260000000000002e-05
187.0	1.503e-05	1.929e-05
187.5	1.4950000000000001e-05	1.9256666666666668e-05
188.0	1.5068333333333334e-05	1.9233333333333334e-05
188.5	1.5093333333333335e-05	1.9206666666666667e-05
189.0	1.4955e-05	1.9238333333333332e-05
189.5	1.5006666666666666e-05	1.9255e-05
190.0	1.5053333333333334e-05	1.920166666666667e-05
190.5	1.508e-05	1.919e-05
191.0	1.5078333333333333e-05	1.9243333333333336e-05
191.5	1.5028333333333333e-05	1.9208333333333334e-05
192.0	1.5060000000000001e-05	1.9218333333333335e-05
192.5	1.5031666666666665e-05	1.9251666666666667e-05
193.0	1.5053333333333334e-05	1.9268333333333337e-05
193.5	1.5098333333333334e-05	1.923e-05
194.0	1.4996666666666667e-05	1.9270000000000004e-05
194.5	1.5026666666666666e-05	1.9278333333333335e-05
195.0	1.4981666666666666e-05	1.9256666666666668e-05
195.5	1.5051666666666667e-05	1.9208333333333334e-05
196.0	1.5033333333333336e-05	1.9305000000000002e-05
196.5	1.5054999999999999e-05	1.923e-05
197.0	1.505e-05	1.918e-05
197.5	1.4996666666666667e-05	1.920166666666667e-05
198.0	1.4996666666666667e-05	1.9171666666666668e-05
198.5	1.4961666666666668e-05	1.9205e-05
199.0	1.5125e-05	1.919e-05
199.5	1.5070000000000001e-05	1.924666666666667e-05
200.0	1.4993333333333334e-05	1.9231666666666667e-05
200.5	1.5065e-05	1.9191666666666668e-05
201.0	1.4996666666666667e-05	1.9253333333333334e-05
201.5	1.4978333333333334e-05	1.9265e-05
202.0	1.5018333333333335e-05	1.9293333333333334e-05
202.5	1.5015000000000001e-05	1.9253333333333334e-05
203.0	1.4988333333333335e-05	1.9283333333333332e-05
203.5	1.5031666666666665e-05	1.9280000000000002e-05
204.0	1.5081666666666667e-05	1.9258333333333335e-05
204.5	1.5023333333333334e-05	1.921e-05
205.0	1.5001666666666667e-05	1.9278333333333335e-05
205.5	1.4956666666666665e-05	1.9263333333333332e-05
206.0	1.4938333333333334e-05	1.9228333333333334e-05
206.5	1.5005e-05	1.924e-05
207.0	1.4936666666666669e-05	1.9185e-05
207.5	1.4991666666666667e-05	1.9181666666666666e-05
208.0	1.4935000000000002e-05	1.930166666666667e-05
208.5	1.4888333333333335e-05	1.923e-05
209.0	1.4956666666666665e-05	1.9248333333333333e-05
209.5	1.503e-05	1.9231666666666667e-05
210.0	1.4998333333333333e-05	1.9235e-05
210.5	1.4953333333333333e-05	1.9273333333333334e-05
211.0	1.4968333333333334e-05	1.9206666666666667e-05
211.5	1.4983333333333336e-05	1.9261666666666665e-05
212.0	1.4971666666666668e-05	1.9223333333333336e-05
212.5	1.5001666666666667e-05	1.9228333333333334e-05
213.0	1.4996666666666667e-05	1.9268333333333337e-05
213.5	1.5043333333333334e-05	1.9285e-05
214.0	1.5091666666666668e-05	1.925e-05
214.5	1.502e-05	1.921e-05
215.0	1.51e-05	1.9173333333333335e-05
215.5	1.497e-05	1.921666666666667e-05
216.0	1.505e-05	1.9195000000000002e-05
216.5	1.5123333333333333e-05	1.9286666666666666e-05
217.0	1.5103333333333333e-05	1.920166666666667e-05
217.5	1.5136666666666669e-05	1.926666666666667e-05
218.0	1.5046666666666668e-05	1.9341666666666665e-05
218.5	1.502e-05	1.9208333333333334e-05
219.0	1.514e-05	1.9231666666666667e-05
219.5	1.5116666666666667e-05	1.9255e-05
220.0	1.5120000000000001e-05	1.9238333333333332e-05
220.5	1.4981666666666666e-05	1.917e-05
221.0	1.502e-05	1.9203333333333333e-05
221.5	1.5051666666666667e-05	1.921666666666667e-05
222.0	1.5115000000000002e-05	1.924e-05
222.5	1.5105e-05	1.9191666666666668e-05
223.0	1.5043333333333334e-05	1.9206666666666667e-05
223.5	1.5013333333333334e-05	1.9218333333333335e-05
224.0	1.5038333333333335e-05	1.9206666666666667e-05
224.5	1.5060000000000001e-05	1.9220000000000002e-05
225.0	1.5125e-05	1.9226666666666667e-05
225.5	1.5103333333333333e-05	1.9263333333333332e-05
226.0	1.51e-05	1.928166666666667e-05
226.5	1.4983333333333336e-05	1.9285e-05
227.0	1.5138333333333335e-05	1.9223333333333336e-05
227.5	1.5125e-05	1.9173333333333335e-05
228.0	1.5078333333333333e-05	1.9306666666666666e-05
228.5	1.5065e-05	1.9236666666666668e-05
229.0	1.5129999999999999e-05	1.9203333333333333e-05
229.5	1.5120000000000001e-05	1.9168333333333334e-05
230.0	1.51e-05	1.9200000000000003e-05
230.5	1.5008333333333335e-05	1.919666666666667e-05
231.0	1.5143333333333335e-05	1.920166666666667e-05
231.5	1.5163333333333334e-05	1.9206666666666667e-05
232.0	1.5115000000000002e-05	1.9265e-05
232.5	1.5056666666666666e-05	1.9285e-05
233.0	1.5053333333333334e-05	1.9280000000000002e-05
233.5	1.502e-05	1.9233333333333334e-05
234.0	1.5113333333333335e-05	1.9258333333333335e-05
234.5	1.5025000000000001e-05	1.9205e-05
235.0	1.499e-05	1.9238333333333332e-05
235.5	1.5026666666666666e-05	1.9205e-05
236.0	1.5038333333333335e-05	1.9205e-05
236.5	1.4968333333333334e-05	1.9225e-05
237.0	1.5023333333333334e-05	1.9231666666666667e-05
237.5	1.5033333333333336e-05	1.9175000000000002e-05
238.0	1.5076666666666667e-05	1.9228333333333334e-05
238.5	1.508e-05	1.925e-05
239.0	1.508e-05	1.922166666666667e-05
239.5	1.5108333333333332e-05	1.9205e-05
240.0	1.4996666666666667e-05	1.9213333333333335e-05
240.5	1.5125e-05	1.929e-05
241.0	1.5076666666666667e-05	1.9283333333333332e-05
241.5	1.5110000000000003e-05	1.9243333333333336e-05
242.0	1.5125e-05	1.9211666666666668e-05
242.5	1.5085000000000002e-05	1.9220000000000002e-05
243.0	1.5135000000000002e-05	1.9255e-05
243.5	1.5163333333333334e-05	1.9283333333333332e-05
244.0	1.5088333333333334e-05	1.930166666666667e-05
244.5	1.5125e-05	1.9261666666666665e-05
245.0	1.5101666666666666e-05	1.9288333333333333e-05
245.5	1.5138333333333335e-05	1.9171666666666668e-05
246.0	1.5088333333333334e-05	1.919e-05
246.5	1.516166666666667e-05	1.9225e-05
247.0	1.5193333333333334e-05	1.9238333333333332e-05
247.5	1.514e-05	1.923e-05
248.0	1.5115000000000002e-05	1.9313333333333334e-05
248.5	1.516166666666667e-05	1.9273333333333334e-05
249.0	1.5035000000000003e-05	1.9288333333333333e-05
249.5	1.5123333333333333e-05	1.9175000000000002e-05
250.0	1.5138333333333335e-05	1.9278333333333335e-05
250.5	1.5115000000000002e-05	1.932e-05
251.0	1.5120000000000001e-05	1.9258333333333335e-05
251.5	1.5125e-05	1.9193333333333335e-05
252.0	1.5210000000000002e-05	1.921666666666667e-05
252.5	1.5196666666666668e-05	1.9223333333333336e-05
253.0	1.529666666666667e-05	1.9213333333333335e-05
253.5	1.5315e-05	1.9208333333333334e-05
254.0	1.5205e-05	1.9235e-05
254.5	1.5158333333333332e-05	1.9186666666666667e-05
255.0	1.5145000000000002e-05	1.9231666666666667e-05
255.5	1.518e-05	1.9273333333333334e-05
256.0	1.5195000000000001e-05	1.9245000000000003e-05
256.5	1.5118333333333334e-05	1.9245000000000003e-05
257.0	1.5168333333333335e-05	1.9261666666666665e-05
257.5	1.5115000000000002e-05	1.9298333333333335e-05
258.0	1.5090000000000001e-05	1.9261666666666665e-05
258.5	1.5129999999999999e-05	1.926666666666667e-05
259.0	1.5066666666666668e-05	1.9231666666666667e-05
259.5	1.5076666666666667e-05	1.924e-05
260.0	1.5093333333333335e-05	1.9238333333333332e-05
260.5	1.5118333333333334e-05	1.9245000000000003e-05
261.0	1.5141666666666668e-05	1.9263333333333332e-05
261.5	1.5105e-05	1.9273333333333334e-05
262.0	1.5166666666666668e-05	1.9188333333333334e-05
262.5	1.5171666666666667e-05	1.9181666666666666e-05
263.0	1.5123333333333333e-05	1.923e-05
263.5	1.5093333333333335e-05	1.9178333333333336e-05
264.0	1.5128333333333334e-05	1.922166666666667e-05
264.5	1.5078333333333333e-05	1.9285e-05
265.0	1.5123333333333333e-05	1.9256666666666668e-05
265.5	1.5135000000000002e-05	1.9214999999999998e-05
266.0	1.5066666666666668e-05	1.9203333333333333e-05
266.5	1.505e-05	1.9261666666666665e-05
267.0	1.51e-05	1.9275e-05
267.5	1.5181666666666666e-05	1.928166666666667e-05
268.0	1.5211666666666669e-05	1.9283333333333332e-05
268.5	1.5133333333333333e-05	1.9260000000000002e-05
269.0	1.5085000000000002e-05	1.9275e-05
269.5	1.5123333333333333e-05	1.9231666666666667e-05
270.0	1.5083333333333335e-05	1.9255e-05
270.5	1.5126666666666667e-05	1.9238333333333332e-05
271.0	1.517e-05	1.9236666666666668e-05
271.5	1.5110000000000003e-05	1.9255e-05
272.0	1.5103333333333333e-05	1.9286666666666666e-05
272.5	1.5125e-05	1.922166666666667e-05
273.0	1.5106666666666665e-05	1.9273333333333334e-05
273.5	1.515e-05	1.9265e-05
274.0	1.514e-05	1.9236666666666668e-05
274.5	1.5168333333333335e-05	1.9256666666666668e-05
275.0	1.5036666666666668e-05	1.9226666666666667e-05
275.5	1.5191666666666667e-05	1.9206666666666667e-05
276.0	1.5245e-05	1.9206666666666667e-05
276.5	1.5201666666666667e-05	1.919666666666667e-05
277.0	1.5183333333333333e-05	1.9271666666666667e-05
277.5	1.5151666666666668e-05	1.9195000000000002e-05
278.0	1.508e-05	1.9218333333333335e-05
278.5	1.5129999999999999e-05	1.9268333333333337e-05
279.0	1.5090000000000001e-05	1.9228333333333334e-05
279.5	1.5228333333333333e-05	1.9263333333333332e-05
280.0	1.5178333333333333e-05	1.9223333333333336e-05
280.5	1.5098333333333334e-05	1.9288333333333333e-05
281.0	1.5071666666666667e-05	1.9181666666666666e-05
281.5	1.5046666666666668e-05	1.9265e-05
282.0	1.5115000000000002e-05	1.922166666666667e-05
282.5	1.5155e-05	1.9236666666666668e-05
283.0	1.51e-05	1.9245000000000003e-05
283.5	1.5085000000000002e-05	1.922166666666667e-05
284.0	1.5090000000000001e-05	1.9270000000000004e-05
284.5	1.5125e-05	1.9286666666666666e-05
285.0	1.5186666666666668e-05	1.929e-05
285.5	1.5158333333333332e-05	1.9273333333333334e-05
286.0	1.5101666666666666e-05	1.9248333333333333e-05
286.5	1.5218333333333335e-05	1.9280000000000002e-05
287.0	1.515e-05	1.928166666666667e-05
287.5	1.5193333333333334e-05	1.9263333333333332e-05
288.0	1.5135000000000002e-05	1.926666666666667e-05
288.5	1.5116666666666667e-05	1.9248333333333333e-05
289.0	1.5181666666666666e-05	1.9226666666666667e-05
289.5	1.5160000000000002e-05	1.9188333333333334e-05
290.0	1.515e-05	1.9175000000000002e-05
290.5	1.5218333333333335e-05	1.9218333333333335e-05
291.0	1.5226666666666668e-05	1.9195000000000002e-05
291.5	1.5216666666666668e-05	1.9188333333333334e-05
292.0	1.5126666666666667e-05	1.9218333333333335e-05
292.5	1.5126666666666667e-05	1.9243333333333336e-05
293.0	1.5108333333333332e-05	1.9193333333333335e-05
293.5	1.5090000000000001e-05	1.9158333333333333e-05
294.0	1.5133333333333333e-05	1.925e-05
294.5	1.5106666666666665e-05	1.9198333333333336e-05
295.0	1.5125e-05	1.9203333333333333e-05
295.5	1.5051666666666667e-05	1.9238333333333332e-05
296.0	1.503e-05	1.9233333333333334e-05
296.5	1.5121666666666668e-05	1.918e-05
297.0	1.5220000000000002e-05	1.9198333333333336e-05
297.5	1.5213333333333336e-05	1.9186666666666667e-05
298.0	1.5176666666666666e-05	1.9273333333333334e-05
298.5	1.5231666666666667e-05	1.9175000000000002e-05
299.0	1.5163333333333334e-05	1.921e-05
299.5	1.5195000000000001e-05	1.919666666666667e-05
300.0	1.5176666666666666e-05	1.9260000000000002e-05
300.5	1.5165000000000001e-05	1.9245000000000003e-05
301.0	1.5195000000000001e-05	1.919e-05
301.5	1.5155e-05	1.9225e-05
302.0	1.5188333333333335e-05	1.9265e-05
302.5	1.5108333333333332e-05	1.9233333333333334e-05
303.0	1.5096666666666667e-05	1.9203333333333333e-05
303.5	1.5095e-05	1.9275e-05
304.0	1.5075e-05	1.9318333333333334e-05
304.5	1.5166666666666668e-05	1.923e-05
305.0	1.5156666666666667e-05	1.9225e-05
305.5	1.5085000000000002e-05	1.9270000000000004e-05
306.0	1.514e-05	1.9258333333333335e-05
306.5	1.5281666666666666e-05	1.9295e-05
307.0	1.5235000000000002e-05	1.9225e-05
307.5	1.5188333333333335e-05	1.923e-05
308.0	1.5166666666666668e-05	1.9235e-05
308.5	1.5108333333333332e-05	1.9275e-05
309.0	1.5111666666666668e-05	1.9245000000000003e-05
309.5	1.5136666666666669e-05	1.9225e-05
310.0	1.5098333333333334e-05	1.9256666666666668e-05
310.5	1.5146666666666667e-05	1.9186666666666667e-05
311.0	1.5120000000000001e-05	1.9220000000000002e-05
311.5	1.5056666666666666e-05	1.919e-05
312.0	1.514e-05	1.9181666666666666e-05
312.5	1.5105e-05	1.9186666666666667e-05
313.0	1.5146666666666667e-05	1.922166666666667e-05
313.5	1.5143333333333335e-05	1.9186666666666667e-05
314.0	1.5188333333333335e-05	1.9263333333333332e-05
314.5	1.5181666666666666e-05	1.9235e-05
315.0	1.5173333333333334e-05	1.920166666666667e-05
315.5	1.5155e-05	1.9233333333333334e-05
316.0	1.5220000000000002e-05	1.9261666666666665e-05
316.5	1.5185000000000003e-05	1.9265e-05
317.0	1.5181666666666666e-05	1.9256666666666668e-05
317.5	1.5231666666666667e-05	1.9223333333333336e-05
318.0	1.5191666666666667e-05	1.9238333333333332e-05
318.5	1.5203333333333334e-05	1.924166666666667e-05
319.0	1.5185000000000003e-05	1.9233333333333334e-05
319.5	1.5248333333333334e-05	1.93e-05
320.0	1.5190000000000002e-05	1.9255e-05
320.5	1.5131666666666666e-05	1.923e-05
321.0	1.5133333333333333e-05	1.9211666666666668e-05
321.5	1.5038333333333335e-05	1.9203333333333333e-05
322.0	1.5078333333333333e-05	1.9251666666666667e-05
322.5	1.5136666666666669e-05	1.9183333333333333e-05
323.0	1.5116666666666667e-05	1.9218333333333335e-05
323.5	1.5173333333333334e-05	1.9233333333333334e-05
324.0	1.5054999999999999e-05	1.9243333333333336e-05
324.5	1.5101666666666666e-05	1.9273333333333334e-05
325.0	1.5090000000000001e-05	1.9165e-05
325.5	1.5085000000000002e-05	1.9120000000000003e-05
326.0	1.5110000000000003e-05	1.922166666666667e-05
326.5	1.5113333333333335e-05	1.928166666666667e-05
327.0	1.514e-05	1.924166666666667e-05
327.5	1.5135000000000002e-05	1.9226666666666667e-05
328.0	1.5188333333333335e-05	1.931e-05
328.5	1.5068333333333334e-05	1.9275e-05
329.0	1.4995000000000001e-05	1.9220000000000002e-05
329.5	1.5033333333333336e-05	1.9245000000000003e-05
330.0	1.5073333333333334e-05	1.9208333333333334e-05
330.5	1.5115000000000002e-05	1.9251666666666667e-05
331.0	1.5136666666666669e-05	1.9198333333333336e-05
331.5	1.5128333333333334e-05	1.9263333333333332e-05
332.0	1.5129999999999999e-05	1.9276666666666668e-05
332.5	1.5108333333333332e-05	1.923e-05
333.0	1.5121666666666668e-05	1.9268333333333337e-05
333.5	1.5116666666666667e-05	1.9261666666666665e-05
334.0	1.5081666666666667e-05	1.917666666666667e-05
334.5	1.4991666666666667e-05	1.9135e-05
335.0	1.5031666666666665e-05	1.9223333333333336e-05
335.5	1.5110000000000003e-05	1.920166666666667e-05
336.0	1.5190000000000002e-05	1.923e-05
336.5	1.5201666666666667e-05	1.926666666666667e-05
337.0	1.5171666666666667e-05	1.9228333333333334e-05
337.5	1.5143333333333335e-05	1.9208333333333334e-05
338.0	1.5203333333333334e-05	1.9223333333333336e-05
338.5	1.5088333333333334e-05	1.9286666666666666e-05
339.0	1.5228333333333333e-05	1.9348333333333336e-05
339.5	1.5208333333333333e-05	1.9276666666666668e-05
340.0	1.5246666666666668e-05	1.919666666666667e-05
340.5	1.5193333333333334e-05	1.9183333333333333e-05
341.0	1.5131666666666666e-05	1.9248333333333333e-05
341.5	1.5188333333333335e-05	1.9214999999999998e-05
342.0	1.5153333333333333e-05	1.9278333333333335e-05
342.5	1.5128333333333334e-05	1.931e-05
343.0	1.5128333333333334e-05	1.9255e-05
343.5	1.5146666666666667e-05	1.9248333333333333e-05
344.0	1.5113333333333335e-05	1.924e-05
344.5	1.5098333333333334e-05	1.9268333333333337e-05
345.0	1.508e-05	1.921e-05
345.5	1.5065e-05	1.9175000000000002e-05
346.0	1.5093333333333335e-05	1.9198333333333336e-05
346.5	1.5048333333333333e-05	1.9195000000000002e-05
347.0	1.5078333333333333e-05	1.9236666666666668e-05
347.5	1.5088333333333334e-05	1.9253333333333334e-05
348.0	1.503e-05	1.921666666666667e-05
348.5	1.51e-05	1.9225e-05
349.0	1.5098333333333334e-05	1.923e-05
349.5	1.5151666666666668e-05	1.9270000000000004e-05
350.0	1.5060000000000001e-05	1.9311666666666667e-05
350.5	1.5093333333333335e-05	1.9288333333333333e-05
351.0	1.5045e-05	1.923e-05
351.5	1.5066666666666668e-05	1.9223333333333336e-05
352.0	1.5131666666666666e-05	1.9223333333333336e-05
352.5	1.5068333333333334e-05	1.9206666666666667e-05
353.0	1.4948333333333334e-05	1.9183333333333333e-05
353.5	1.4975e-05	1.9203333333333333e-05
354.0	1.5e-05	1.918e-05
354.5	1.4950000000000001e-05	1.9183333333333333e-05
355.0	1.4958333333333336e-05	1.9183333333333333e-05
355.5	1.5005e-05	1.9251666666666667e-05
356.0	1.4975e-05	1.9205e-05
356.5	1.4955e-05	1.9223333333333336e-05
357.0	1.5e-05	1.9273333333333334e-05
357.5	1.5e-05	1.924166666666667e-05
358.0	1.5026666666666666e-05	1.919e-05
358.5	1.5115000000000002e-05	1.923e-05
359.0	1.5131666666666666e-05	1.9243333333333336e-05
359.5	1.5068333333333334e-05	1.9186666666666667e-05
360.0	1.4991666666666667e-05	1.921e-05
360.5	1.5006666666666666e-05	1.9275e-05
361.0	1.5060000000000001e-05	1.9178333333333336e-05
361.5	1.502e-05	1.9203333333333333e-05
362.0	1.5008333333333335e-05	1.9203333333333333e-05
362.5	1.5010000000000002e-05	1.9225e-05
363.0	1.5075e-05	1.9228333333333334e-05
363.5	1.5095e-05	1.9238333333333332e-05
364.0	1.5203333333333334e-05	1.9265e-05
364.5	1.5045e-05	1.9278333333333335e-05
365.0	1.508e-05	1.9251666666666667e-05
365.5	1.5075e-05	1.9206666666666667e-05
366.0	1.51e-05	1.924666666666667e-05
366.5	1.5071666666666667e-05	1.9285e-05
367.0	1.5103333333333333e-05	1.9206666666666667e-05
367.5	1.5070000000000001e-05	1.9188333333333334e-05
368.0	1.5056666666666666e-05	1.9206666666666667e-05
368.5	1.4973333333333333e-05	1.9238333333333332e-05
369.0	1.5041666666666669e-05	1.9245000000000003e-05
369.5	1.5018333333333335e-05	1.9316666666666668e-05
370.0	1.5128333333333334e-05	1.923e-05
370.5	1.5138333333333335e-05	1.9245000000000003e-05
371.0	1.502e-05	1.9214999999999998e-05
371.5	1.4981666666666666e-05	1.9235e-05
372.0	1.5036666666666668e-05	1.9226666666666667e-05
372.5	1.4981666666666666e-05	1.9280000000000002e-05
373.0	1.497e-05	1.9251666666666667e-05
373.5	1.5046666666666668e-05	1.9258333333333335e-05
374.0	1.493e-05	1.9256666666666668e-05
374.5	1.4935000000000002e-05	1.9193333333333335e-05
375.0	1.4913333333333335e-05	1.9203333333333333e-05
375.5	1.4876666666666666e-05	1.914e-05
376.0	1.4861666666666669e-05	1.918e-05
376.5	1.4833333333333336e-05	1.9211666666666668e-05
377.0	1.4913333333333335e-05	1.9178333333333336e-05
377.5	1.5018333333333335e-05	1.9165e-05
378.0	1.5083333333333335e-05	1.917666666666667e-05
378.5	1.5071666666666667e-05	1.9168333333333334e-05
379.0	1.5016666666666668e-05	1.9206666666666667e-05
379.5	1.5006666666666666e-05	1.9203333333333333e-05
380.0	1.5053333333333334e-05	1.9206666666666667e-05
380.5	1.4971666666666668e-05	1.9220000000000002e-05
381.0	1.4968333333333334e-05	1.9260000000000002e-05
381.5	1.5023333333333334e-05	1.9268333333333337e-05
382.0	1.5006666666666666e-05	1.9233333333333334e-05
382.5	1.4988333333333335e-05	1.9198333333333336e-05
383.0	1.4965000000000002e-05	1.9253333333333334e-05
383.5	1.4993333333333334e-05	1.9178333333333336e-05
384.0	1.5041666666666669e-05	1.931e-05
384.5	1.5090000000000001e-05	1.9228333333333334e-05
385.0	1.502e-05	1.9205e-05
385.5	1.5006666666666666e-05	1.9186666666666667e-05
386.0	1.5023333333333334e-05	1.928166666666667e-05
386.5	1.5041666666666669e-05	1.921666666666667e-05
387.0	1.5045e-05	1.9220000000000002e-05
387.5	1.5040000000000002e-05	1.9213333333333335e-05
388.0	1.5e-05	1.9265e-05
388.5	1.4995000000000001e-05	1.9165e-05
389.0	1.4993333333333334e-05	1.9151666666666668e-05
389.5	1.4936666666666669e-05	1.9251666666666667e-05
390.0	1.5063333333333335e-05	1.9245000000000003e-05
390.5	1.4963333333333335e-05	1.925e-05
391.0	1.4848333333333333e-05	1.9163333333333333e-05
391.5	1.4918333333333334e-05	1.9231666666666667e-05
392.0	1.5071666666666667e-05	1.9251666666666667e-05
392.5	1.5085000000000002e-05	1.9226666666666667e-05
393.0	1.5051666666666667e-05	1.9243333333333336e-05
393.5	1.5018333333333335e-05	1.9251666666666667e-05
394.0	1.4943333333333335e-05	1.923e-05
394.5	1.5066666666666668e-05	1.9193333333333335e-05
395.0	1.5096666666666667e-05	1.9191666666666668e-05
395.5	1.4998333333333333e-05	1.919e-05
396.0	1.4968333333333334e-05	1.9270000000000004e-05
396.5	1.4940000000000001e-05	1.9208333333333334e-05
397.0	1.4841666666666667e-05	1.9223333333333336e-05
397.5	1.4913333333333335e-05	1.929e-05
398.0	1.4911666666666668e-05	1.9285e-05
398.5	1.4975e-05	1.9220000000000002e-05
399.0	1.503e-05	1.9316666666666668e-05
399.5	1.5056666666666666e-05	1.9226666666666667e-05
400.0	1.4953333333333333e-05	1.9288333333333333e-05
400.5	1.503e-05	1.9256666666666668e-05
401.0	1.4973333333333333e-05	1.9233333333333334e-05
401.5	1.4926666666666667e-05	1.9185e-05
402.0	1.4918333333333334e-05	1.9206666666666667e-05
402.5	1.497e-05	1.9245000000000003e-05
403.0	1.5098333333333334e-05	1.924e-05
403.5	1.5033333333333336e-05	1.9214999999999998e-05
404.0	1.4956666666666665e-05	1.9166666666666667e-05
404.5	1.49e-05	1.916e-05
405.0	1.4956666666666665e-05	1.9226666666666667e-05
405.5	1.4916666666666667e-05	1.9255e-05
406.0	1.4933333333333335e-05	1.9265e-05
406.5	1.4950000000000001e-05	1.9261666666666665e-05
407.0	1.4991666666666667e-05	1.9214999999999998e-05
407.5	1.5128333333333334e-05	1.9198333333333336e-05
408.0	1.5010000000000002e-05	1.9338333333333334e-05
408.5	1.5006666666666666e-05	1.9295e-05
409.0	1.4988333333333335e-05	1.9235e-05
409.5	1.5035000000000003e-05	1.924666666666667e-05
410.0	1.5048333333333333e-05	1.9268333333333337e-05
410.5	1.5040000000000002e-05	1.9283333333333332e-05
411.0	1.4968333333333334e-05	1.9223333333333336e-05
411.5	1.4998333333333333e-05	1.9271666666666667e-05
412.0	1.502e-05	1.924e-05
412.5	1.4993333333333334e-05	1.9225e-05
413.0	1.5015000000000001e-05	1.9175000000000002e-05
413.5	1.4995000000000001e-05	1.9226666666666667e-05
414.0	1.4958333333333336e-05	1.9285e-05
414.5	1.4948333333333334e-05	1.9315e-05
415.0	1.4946666666666667e-05	1.929e-05
415.5	1.4960000000000002e-05	1.9186666666666667e-05
416.0	1.4985000000000001e-05	1.918e-05
416.5	1.4945e-05	1.9213333333333335e-05
417.0	1.4966666666666668e-05	1.9198333333333336e-05
417.5	1.4986666666666668e-05	1.9228333333333334e-05
418.0	1.4971666666666668e-05	1.9225e-05
418.5	1.4995000000000001e-05	1.926666666666667e-05
419.0	1.4948333333333334e-05	1.925e-05
419.5	1.5078333333333333e-05	1.924666666666667e-05
420.0	1.4971666666666668e-05	1.9195000000000002e-05
420.5	1.49e-05	1.919e-05
421.0	1.4888333333333335e-05	1.925e-05
421.5	1.4933333333333335e-05	1.9153333333333335e-05
422.0	1.4888333333333335e-05	1.9188333333333334e-05
422.5	1.4936666666666669e-05	1.9168333333333334e-05
423.0	1.4878333333333333e-05	1.9185e-05
423.5	1.4813333333333334e-05	1.9248333333333333e-05
424.0	1.4918333333333334e-05	1.921e-05
424.5	1.4920000000000001e-05	1.9261666666666665e-05
425.0	1.4941666666666668e-05	1.9220000000000002e-05
425.5	1.493e-05	1.9156666666666666e-05
426.0	1.4963333333333335e-05	1.922166666666667e-05
426.5	1.4925e-05	1.9185e-05
427.0	1.4956666666666665e-05	1.9218333333333335e-05
427.5	1.4966666666666668e-05	1.9233333333333334e-05
428.0	1.4923333333333333e-05	1.9203333333333333e-05
428.5	1.4921666666666666e-05	1.9185e-05
429.0	1.5005e-05	1.9258333333333335e-05
429.5	1.4951666666666666e-05	1.9214999999999998e-05
430.0	1.4946666666666667e-05	1.9186666666666667e-05
430.5	1.4886666666666668e-05	1.924e-05
431.0	1.4928333333333332e-05	1.9280000000000002e-05
431.5	1.4920000000000001e-05	1.9283333333333332e-05
432.0	1.497e-05	1.9295e-05
432.5	1.4951666666666666e-05	1.9233333333333334e-05
433.0	1.493e-05	1.9195000000000002e-05
433.5	1.4876666666666666e-05	1.9163333333333333e-05
434.0	1.502e-05	1.917666666666667e-05
434.5	1.5008333333333335e-05	1.9214999999999998e-05
435.0	1.4941666666666668e-05	1.9220000000000002e-05
435.5	1.5041666666666669e-05	1.9195000000000002e-05
436.0	1.4953333333333333e-05	1.9171666666666668e-05
436.5	1.5011666666666669e-05	1.9191666666666668e-05
437.0	1.4979999999999999e-05	1.9183333333333333e-05
437.5	1.4995000000000001e-05	1.921e-05
438.0	1.4825e-05	1.9231666666666667e-05
438.5	1.4891666666666668e-05	1.9225e-05
439.0	1.4896666666666667e-05	1.9231666666666667e-05
439.5	1.4810000000000002e-05	1.9186666666666667e-05
440.0	1.4945e-05	1.923e-05
440.5	1.5016666666666668e-05	1.9203333333333333e-05
441.0	1.5076666666666667e-05	1.9163333333333333e-05
441.5	1.5065e-05	1.924166666666667e-05
442.0	1.5015000000000001e-05	1.9271666666666667e-05
442.5	1.5081666666666667e-05	1.925e-05
443.0	1.5043333333333334e-05	1.921666666666667e-05
443.5	1.5010000000000002e-05	1.9200000000000003e-05
444.0	1.5058333333333335e-05	1.917666666666667e-05
444.5	1.5081666666666667e-05	1.9203333333333333e-05
445.0	1.4986666666666668e-05	1.9156666666666666e-05
445.5	1.4940000000000001e-05	1.9248333333333333e-05
446.0	1.4931666666666666e-05	1.9251666666666667e-05
446.5	1.4943333333333335e-05	1.9248333333333333e-05
447.0	1.4925e-05	1.9225e-05
447.5	1.4938333333333334e-05	1.921666666666667e-05
448.0	1.5005e-05	1.9218333333333335e-05
448.5	1.503e-05	1.919666666666667e-05
449.0	1.5065e-05	1.9171666666666668e-05
449.5	1.5021666666666667e-05	1.921e-05
450.0	1.5054999999999999e-05	1.9271666666666667e-05
450.5	1.4986666666666668e-05	1.919e-05
451.0	1.4943333333333335e-05	1.9166666666666667e-05
451.5	1.4953333333333333e-05	1.918e-05
452.0	1.4961666666666668e-05	1.919e-05
452.5	1.5048333333333333e-05	1.9220000000000002e-05
453.0	1.5058333333333335e-05	1.9206666666666667e-05
453.5	1.5001666666666667e-05	1.9245000000000003e-05
454.0	1.5025000000000001e-05	1.9271666666666667e-05
454.5	1.4960000000000002e-05	1.9225e-05
455.0	1.4920000000000001e-05	1.9263333333333332e-05
455.5	1.4971666666666668e-05	1.9205e-05
456.0	1.4979999999999999e-05	1.9238333333333332e-05
456.5	1.4956666666666665e-05	1.9278333333333335e-05
457.0	1.4986666666666668e-05	1.9235e-05
457.5	1.505e-05	1.924166666666667e-05
458.0	1.5011666666666669e-05	1.9253333333333334e-05
458.5	1.5025000000000001e-05	1.9205e-05
459.0	1.5016666666666668e-05	1.9203333333333333e-05
459.5	1.4985000000000001e-05	1.9223333333333336e-05
460.0	1.5e-05	1.926666666666667e-05
460.5	1.5010000000000002e-05	1.9226666666666667e-05
461.0	1.5096666666666667e-05	1.9268333333333337e-05
461.5	1.5028333333333333e-05	1.9248333333333333e-05
462.0	1.4946666666666667e-05	1.9220000000000002e-05
462.5	1.5001666666666667e-05	1.9223333333333336e-05
463.0	1.502e-05	1.9271666666666667e-05
463.5	1.5015000000000001e-05	1.922166666666667e-05
464.0	1.4953333333333333e-05	1.9226666666666667e-05
464.5	1.485e-05	1.9166666666666667e-05
465.0	1.4928333333333332e-05	1.922166666666667e-05
465.5	1.499e-05	1.9256666666666668e-05
466.0	1.4986666666666668e-05	1.9236666666666668e-05
466.5	1.5021666666666667e-05	1.9214999999999998e-05
467.0	1.5008333333333335e-05	1.9253333333333334e-05
467.5	1.4981666666666666e-05	1.9296666666666668e-05
468.0	1.497e-05	1.9256666666666668e-05
468.5	1.5006666666666666e-05	1.9248333333333333e-05
469.0	1.5036666666666668e-05	1.9203333333333333e-05
469.5	1.503e-05	1.9166666666666667e-05
470.0	1.5013333333333334e-05	1.9268333333333337e-05
470.5	1.5016666666666668e-05	1.9191666666666668e-05
471.0	1.4936666666666669e-05	1.9218333333333335e-05
471.5	1.5053333333333334e-05	1.9256666666666668e-05
472.0	1.4958333333333336e-05	1.9271666666666667e-05
472.5	1.4911666666666668e-05	1.9195000000000002e-05
473.0	1.4878333333333333e-05	1.9191666666666668e-05
473.5	1.4976666666666667e-05	1.9261666666666665e-05
474.0	1.502e-05	1.9203333333333333e-05
474.5	1.5021666666666667e-05	1.9305000000000002e-05
475.0	1.4985000000000001e-05	1.924e-05
475.5	1.5005e-05	1.920166666666667e-05
476.0	1.5056666666666666e-05	1.9181666666666666e-05
476.5	1.4993333333333334e-05	1.9223333333333336e-05
477.0	1.5075e-05	1.9181666666666666e-05
477.5	1.5076666666666667e-05	1.9296666666666668e-05
478.0	1.5075e-05	1.9214999999999998e-05
478.5	1.4978333333333334e-05	1.9238333333333332e-05
479.0	1.4966666666666668e-05	1.9261666666666665e-05
479.5	1.5056666666666666e-05	1.9268333333333337e-05
480.0	1.497e-05	1.9233333333333334e-05
480.5	1.4966666666666668e-05	1.928166666666667e-05
481.0	1.5048333333333333e-05	1.9271666666666667e-05
481.5	1.5023333333333334e-05	1.9298333333333335e-05
482.0	1.5081666666666667e-05	1.9220000000000002e-05
482.5	1.5028333333333333e-05	1.9328333333333336e-05
483.0	1.5058333333333335e-05	1.9265e-05
483.5	1.5091666666666668e-05	1.9233333333333334e-05
484.0	1.5123333333333333e-05	1.9273333333333334e-05
484.5	1.51e-05	1.928166666666667e-05
485.0	1.5121666666666668e-05	1.9248333333333333e-05
485.5	1.515e-05	1.9248333333333333e-05
486.0	1.516166666666667e-05	1.929e-05
486.5	1.5141666666666668e-05	1.9198333333333336e-05
487.0	1.5146666666666667e-05	1.9226666666666667e-05
487.5	1.5120000000000001e-05	1.921666666666667e-05
488.0	1.505e-05	1.924666666666667e-05
488.5	1.5023333333333334e-05	1.9220000000000002e-05
489.0	1.5103333333333333e-05	1.9186666666666667e-05
489.5	1.5015000000000001e-05	1.9226666666666667e-05
490.0	1.5036666666666668e-05	1.9258333333333335e-05
490.5	1.5071666666666667e-05	1.925e-05
491.0	1.5063333333333335e-05	1.9173333333333335e-05
491.5	1.4966666666666668e-05	1.9206666666666667e-05
492.0	1.4876666666666666e-05	1.9255e-05
492.5	1.4931666666666666e-05	1.9195000000000002e-05
493.0	1.4965000000000002e-05	1.9228333333333334e-05
493.5	1.5025000000000001e-05	1.9243333333333336e-05
494.0	1.4975e-05	1.9208333333333334e-05
494.5	1.5040000000000002e-05	1.9260000000000002e-05
495.0	1.4973333333333333e-05	1.9273333333333334e-05
495.5	1.5025000000000001e-05	1.9271666666666667e-05
496.0	1.4986666666666668e-05	1.9255e-05
496.5	1.4985000000000001e-05	1.9238333333333332e-05
497.0	1.4968333333333334e-05	1.9223333333333336e-05
497.5	1.4958333333333336e-05	1.9271666666666667e-05
498.0	1.5025000000000001e-05	1.9163333333333333e-05
498.5	1.4958333333333336e-05	1.9200000000000003e-05
499.0	1.5086666666666669e-05	1.922166666666667e-05
499.5	1.5068333333333334e-05	1.9270000000000004e-05
500.0	1.5075e-05	1.9243333333333336e-05
500.5	1.4943333333333335e-05	1.9253333333333334e-05
501.0	1.4886666666666668e-05	1.9268333333333337e-05
501.5	1.503e-05	1.9173333333333335e-05
502.0	1.5053333333333334e-05	1.921666666666667e-05
502.5	1.5086666666666669e-05	1.9235e-05
503.0	1.5103333333333333e-05	1.9256666666666668e-05
503.5	1.5070000000000001e-05	1.9260000000000002e-05
504.0	1.5110000000000003e-05	1.919666666666667e-05
504.5	1.5075e-05	1.9165e-05
505.0	1.5128333333333334e-05	1.9205e-05
505.5	1.5120000000000001e-05	1.922166666666667e-05
506.0	1.5116666666666667e-05	1.9258333333333335e-05
506.5	1.5046666666666668e-05	1.9235e-05
507.0	1.5108333333333332e-05	1.9206666666666667e-05
507.5	1.5068333333333334e-05	1.9185e-05
508.0	1.5011666666666669e-05	1.9206666666666667e-05
508.5	1.5056666666666666e-05	1.9260000000000002e-05
509.0	1.5053333333333334e-05	1.9225e-05
509.5	1.5033333333333336e-05	1.9231666666666667e-05
510.0	1.5066666666666668e-05	1.9243333333333336e-05
510.5	1.5146666666666667e-05	1.928166666666667e-05
511.0	1.5068333333333334e-05	1.919e-05
511.5	1.5046666666666668e-05	1.9236666666666668e-05
512.0	1.4986666666666668e-05	1.9251666666666667e-05
512.5	1.4933333333333335e-05	1.9258333333333335e-05
513.0	1.5058333333333335e-05	1.9193333333333335e-05
513.5	1.5025000000000001e-05	1.921666666666667e-05
514.0	1.4991666666666667e-05	1.9206666666666667e-05
514.5	1.4976666666666667e-05	1.9270000000000004e-05
515.0	1.5053333333333334e-05	1.9256666666666668e-05
515.5	1.508e-05	1.9235e-05
516.0	1.5110000000000003e-05	1.923e-05
516.5	1.5048333333333333e-05	1.9280000000000002e-05
517.0	1.5043333333333334e-05	1.9188333333333334e-05
517.5	1.5105e-05	1.9193333333333335e-05
518.0	1.5085000000000002e-05	1.9218333333333335e-05
518.5	1.5118333333333334e-05	1.922166666666667e-05
519.0	1.5223333333333334e-05	1.9306666666666666e-05
519.5	1.5185000000000003e-05	1.9276666666666668e-05
520.0	1.5125e-05	1.9226666666666667e-05
520.5	1.514e-05	1.9238333333333332e-05
521.0	1.5033333333333336e-05	1.9258333333333335e-05
521.5	1.5006666666666666e-05	1.9273333333333334e-05
522.0	1.5035000000000003e-05	1.9251666666666667e-05
522.5	1.4960000000000002e-05	1.9235e-05
523.0	1.5045e-05	1.9220000000000002e-05
523.5	1.4966666666666668e-05	1.9236666666666668e-05
524.0	1.5e-05	1.9278333333333335e-05
524.5	1.4955e-05	1.9175000000000002e-05
525.0	1.4931666666666666e-05	1.9191666666666668e-05
525.5	1.4981666666666666e-05	1.9200000000000003e-05
526.0	1.5118333333333334e-05	1.9185e-05
526.5	1.5133333333333333e-05	1.9251666666666667e-05
527.0	1.5085000000000002e-05	1.9168333333333334e-05
527.5	1.5146666666666667e-05	1.9171666666666668e-05
528.0	1.5081666666666667e-05	1.9203333333333333e-05
528.5	1.5051666666666667e-05	1.9178333333333336e-05
529.0	1.5051666666666667e-05	1.916e-05
529.5	1.5015000000000001e-05	1.9193333333333335e-05
530.0	1.5021666666666667e-05	1.922166666666667e-05
530.5	1.5028333333333333e-05	1.9236666666666668e-05
531.0	1.5085000000000002e-05	1.9193333333333335e-05
531.5	1.5115000000000002e-05	1.9226666666666667e-05
532.0	1.5070000000000001e-05	1.9191666666666668e-05
532.5	1.5085000000000002e-05	1.919e-05
533.0	1.5053333333333334e-05	1.9188333333333334e-05
533.5	1.5011666666666669e-05	1.9186666666666667e-05
534.0	1.497e-05	1.919666666666667e-05
534.5	1.5018333333333335e-05	1.9175000000000002e-05
535.0	1.5078333333333333e-05	1.9228333333333334e-05
535.5	1.5018333333333335e-05	1.9261666666666665e-05
536.0	1.4936666666666669e-05	1.9235e-05
536.5	1.5005e-05	1.9235e-05
537.0	1.5e-05	1.9153333333333335e-05
537.5	1.4931666666666666e-05	1.9238333333333332e-05
538.0	1.4993333333333334e-05	1.9200000000000003e-05
538.5	1.5086666666666669e-05	1.9243333333333336e-05
539.0	1.5053333333333334e-05	1.9238333333333332e-05
539.5	1.5038333333333335e-05	1.925e-05
540.0	1.5060000000000001e-05	1.9223333333333336e-05
540.5	1.4976666666666667e-05	1.9218333333333335e-05
541.0	1.5048333333333333e-05	1.9233333333333334e-05
541.5	1.4913333333333335e-05	1.9233333333333334e-05
542.0	1.4995000000000001e-05	1.9255e-05
542.5	1.5095e-05	1.9236666666666668e-05
543.0	1.5143333333333335e-05	1.919666666666667e-05
543.5	1.5041666666666669e-05	1.9265e-05
544.0	1.505e-05	1.9270000000000004e-05
544.5	1.5081666666666667e-05	1.9260000000000002e-05
545.0	1.5116666666666667e-05	1.9256666666666668e-05
545.5	1.5085000000000002e-05	1.9238333333333332e-05
546.0	1.5086666666666669e-05	1.9268333333333337e-05
546.5	1.5076666666666667e-05	1.926666666666667e-05
547.0	1.5021666666666667e-05	1.9251666666666667e-05
547.5	1.5058333333333335e-05	1.921e-05
548.0	1.503e-05	1.9286666666666666e-05
548.5	1.5076666666666667e-05	1.930166666666667e-05
549.0	1.5173333333333334e-05	1.930166666666667e-05
549.5	1.514e-05	1.9256666666666668e-05
550.0	1.5066666666666668e-05	1.9203333333333333e-05
550.5	1.5013333333333334e-05	1.9276666666666668e-05
551.0	1.4966666666666668e-05	1.9226666666666667e-05
551.5	1.4995000000000001e-05	1.9181666666666666e-05
552.0	1.5058333333333335e-05	1.9163333333333333e-05
552.5	1.5054999999999999e-05	1.923e-05
553.0	1.5061666666666668e-05	1.9238333333333332e-05
553.5	1.4976666666666667e-05	1.9268333333333337e-05
554.0	1.5060000000000001e-05	1.9183333333333333e-05
554.5	1.5005e-05	1.920166666666667e-05
555.0	1.4973333333333333e-05	1.9223333333333336e-05
555.5	1.4963333333333335e-05	1.9233333333333334e-05
556.0	1.5018333333333335e-05	1.9238333333333332e-05
556.5	1.4956666666666665e-05	1.9226666666666667e-05
557.0	1.5008333333333335e-05	1.9133333333333332e-05
557.5	1.5013333333333334e-05	1.9206666666666667e-05
558.0	1.5011666666666669e-05	1.921666666666667e-05
558.5	1.4996666666666667e-05	1.9220000000000002e-05
559.0	1.5041666666666669e-05	1.9220000000000002e-05
559.5	1.5013333333333334e-05	1.9228333333333334e-05
560.0	1.4973333333333333e-05	1.9213333333333335e-05
560.5	1.4935000000000002e-05	1.9166666666666667e-05
561.0	1.4928333333333332e-05	1.9275e-05
561.5	1.5016666666666668e-05	1.9185e-05
562.0	1.4971666666666668e-05	1.9228333333333334e-05
562.5	1.4918333333333334e-05	1.9211666666666668e-05
563.0	1.4973333333333333e-05	1.9256666666666668e-05
563.5	1.4916666666666667e-05	1.9208333333333334e-05
564.0	1.5046666666666668e-05	1.9283333333333332e-05
564.5	1.4971666666666668e-05	1.9200000000000003e-05
565.0	1.4991666666666667e-05	1.917666666666667e-05
565.5	1.5003333333333333e-05	1.9248333333333333e-05
566.0	1.4893333333333334e-05	1.921666666666667e-05
566.5	1.4893333333333334e-05	1.9231666666666667e-05
567.0	1.4926666666666667e-05	1.929e-05
567.5	1.4938333333333334e-05	1.9251666666666667e-05
568.0	1.49e-05	1.923e-05
568.5	1.4925e-05	1.9156666666666666e-05
569.0	1.5085000000000002e-05	1.923e-05
569.5	1.5013333333333334e-05	1.9193333333333335e-05
570.0	1.503e-05	1.9251666666666667e-05
570.5	1.5013333333333334e-05	1.9225e-05
571.0	1.4960000000000002e-05	1.9205e-05
571.5	1.4953333333333333e-05	1.9236666666666668e-05
572.0	1.4913333333333335e-05	1.9163333333333333e-05
572.5	1.4945e-05	1.9255e-05
573.0	1.4906666666666666e-05	1.9205e-05
573.5	1.4940000000000001e-05	1.9148333333333334e-05
574.0	1.4945e-05	1.9248333333333333e-05
574.5	1.4926666666666667e-05	1.9261666666666665e-05
575.0	1.497e-05	1.9185e-05
575.5	1.4973333333333333e-05	1.9245000000000003e-05
576.0	1.5015000000000001e-05	1.9321666666666668e-05
576.5	1.5016666666666668e-05	1.9200000000000003e-05
577.0	1.5045e-05	1.9213333333333335e-05
577.5	1.508e-05	1.9258333333333335e-05
578.0	1.5121666666666668e-05	1.924e-05
578.5	1.5033333333333336e-05	1.9198333333333336e-05
579.0	1.5060000000000001e-05	1.919666666666667e-05
579.5	1.5070000000000001e-05	1.9236666666666668e-05
580.0	1.5078333333333333e-05	1.919666666666667e-05
580.5	1.5083333333333335e-05	1.9205e-05
581.0	1.5056666666666666e-05	1.9218333333333335e-05
581.5	1.5023333333333334e-05	1.9228333333333334e-05
582.0	1.5038333333333335e-05	1.9233333333333334e-05
582.5	1.5031666666666665e-05	1.9271666666666667e-05
583.0	1.4968333333333334e-05	1.9178333333333336e-05
583.5	1.5035000000000003e-05	1.9228333333333334e-05
584.0	1.4996666666666667e-05	1.9195000000000002e-05
584.5	1.4960000000000002e-05	1.9285e-05
585.0	1.5016666666666668e-05	1.9273333333333334e-05
585.5	1.5038333333333335e-05	1.9256666666666668e-05
586.0	1.5036666666666668e-05	1.9288333333333333e-05
586.5	1.4983333333333336e-05	1.9233333333333334e-05
587.0	1.4968333333333334e-05	1.9228333333333334e-05
587.5	1.4996666666666667e-05	1.9185e-05
588.0	1.5025000000000001e-05	1.9208333333333334e-05
588.5	1.5011666666666669e-05	1.920166666666667e-05
589.0	1.4996666666666667e-05	1.9193333333333335e-05
589.5	1.5035000000000003e-05	1.9191666666666668e-05
590.0	1.4981666666666666e-05	1.9183333333333333e-05
590.5	1.5060000000000001e-05	1.9208333333333334e-05
591.0	1.5028333333333333e-05	1.924666666666667e-05
591.5	1.505e-05	1.9225e-05
592.0	1.4995000000000001e-05	1.9133333333333332e-05
592.5	1.5026666666666666e-05	1.9155000000000002e-05
593.0	1.4995000000000001e-05	1.9261666666666665e-05
593.5	1.5035000000000003e-05	1.9173333333333335e-05
594.0	1.5065e-05	1.9268333333333337e-05
594.5	1.5028333333333333e-05	1.9271666666666667e-05
595.0	1.499e-05	1.9235e-05
595.5	1.5010000000000002e-05	1.9206666666666667e-05
596.0	1.4988333333333335e-05	1.920166666666667e-05
596.5	1.4979999999999999e-05	1.9205e-05
597.0	1.5018333333333335e-05	1.9238333333333332e-05
597.5	1.4916666666666667e-05	1.9225e-05
598.0	1.508e-05	1.923e-05
598.5	1.5058333333333335e-05	1.932666666666667e-05
599.0	1.5046666666666668e-05	1.9205e-05
599.5	1.4983333333333336e-05	1.9206666666666667e-05
600.0	1.5071666666666667e-05	1.9188333333333334e-05
600.5	1.5e-05	1.9178333333333336e-05
601.0	1.5006666666666666e-05	1.9236666666666668e-05
601.5	1.4878333333333333e-05	1.9225e-05
602.0	1.4960000000000002e-05	1.921666666666667e-05
602.5	1.4973333333333333e-05	1.9208333333333334e-05
603.0	1.502e-05	1.9235e-05
603.5	1.5070000000000001e-05	1.9218333333333335e-05
604.0	1.5011666666666669e-05	1.9191666666666668e-05
604.5	1.4961666666666668e-05	1.924166666666667e-05
605.0	1.497e-05	1.9228333333333334e-05
605.5	1.5040000000000002e-05	1.913166666666667e-05
606.0	1.5208333333333333e-05	1.921666666666667e-05
606.5	1.5135000000000002e-05	1.925e-05
607.0	1.5126666666666667e-05	1.9228333333333334e-05
607.5	1.5143333333333335e-05	1.9285e-05
608.0	1.5081666666666667e-05	1.9258333333333335e-05
608.5	1.5106666666666665e-05	1.9243333333333336e-05
609.0	1.5146666666666667e-05	1.9238333333333332e-05
609.5	1.5155e-05	1.9235e-05
610.0	1.5141666666666668e-05	1.919666666666667e-05
610.5	1.5103333333333333e-05	1.9203333333333333e-05
611.0	1.518e-05	1.9143333333333337e-05
611.5	1.5068333333333334e-05	1.9218333333333335e-05
612.0	1.5048333333333333e-05	1.9208333333333334e-05
612.5	1.5075e-05	1.921e-05
613.0	1.5108333333333332e-05	1.924166666666667e-05
613.5	1.5058333333333335e-05	1.9243333333333336e-05
614.0	1.5038333333333335e-05	1.9223333333333336e-05
614.5	1.5021666666666667e-05	1.9295e-05
615.0	1.5065e-05	1.9220000000000002e-05
615.5	1.5090000000000001e-05	1.9206666666666667e-05
616.0	1.5045e-05	1.9233333333333334e-05
616.5	1.5010000000000002e-05	1.917666666666667e-05
617.0	1.5105e-05	1.9238333333333332e-05
617.5	1.502e-05	1.922166666666667e-05
618.0	1.5063333333333335e-05	1.9153333333333335e-05
618.5	1.5098333333333334e-05	1.9225e-05
619.0	1.5010000000000002e-05	1.926666666666667e-05
619.5	1.5091666666666668e-05	1.9288333333333333e-05
620.0	1.5028333333333333e-05	1.9270000000000004e-05
620.5	1.5011666666666669e-05	1.9220000000000002e-05
621.0	1.5106666666666665e-05	1.9263333333333332e-05
621.5	1.5023333333333334e-05	1.924666666666667e-05
622.0	1.4998333333333333e-05	1.9245000000000003e-05
622.5	1.4991666666666667e-05	1.9200000000000003e-05
623.0	1.4906666666666666e-05	1.9165e-05
623.5	1.4971666666666668e-05	1.9256666666666668e-05
624.0	1.4998333333333333e-05	1.9183333333333333e-05
624.5	1.4890000000000001e-05	1.9195000000000002e-05
625.0	1.4986666666666668e-05	1.9256666666666668e-05
625.5	1.4906666666666666e-05	1.9225e-05
626.0	1.499e-05	1.925e-05
626.5	1.5016666666666668e-05	1.9260000000000002e-05
627.0	1.4921666666666666e-05	1.9305000000000002e-05
627.5	1.4975e-05	1.9256666666666668e-05
628.0	1.4903333333333334e-05	1.9236666666666668e-05
628.5	1.4948333333333334e-05	1.919666666666667e-05
629.0	1.4993333333333334e-05	1.9193333333333335e-05
629.5	1.5088333333333334e-05	1.9268333333333337e-05
630.0	1.505e-05	1.925e-05
630.5	1.505e-05	1.9223333333333336e-05
631.0	1.5043333333333334e-05	1.9273333333333334e-05
631.5	1.5071666666666667e-05	1.921e-05
632.0	1.5163333333333334e-05	1.919e-05
632.5	1.5115000000000002e-05	1.9280000000000002e-05
633.0	1.51e-05	1.934666666666667e-05
633.5	1.5066666666666668e-05	1.9233333333333334e-05
634.0	1.5038333333333335e-05	1.9171666666666668e-05
634.5	1.4968333333333334e-05	1.9195000000000002e-05
635.0	1.4911666666666668e-05	1.9256666666666668e-05
635.5	1.4925e-05	1.9158333333333333e-05
636.0	1.4920000000000001e-05	1.9235e-05
636.5	1.4836666666666668e-05	1.9238333333333332e-05
637.0	1.4895e-05	1.920166666666667e-05
637.5	1.4886666666666668e-05	1.9205e-05
638.0	1.4885000000000002e-05	1.9200000000000003e-05
638.5	1.4865e-05	1.923e-05
639.0	1.4973333333333333e-05	1.9268333333333337e-05
639.5	1.4876666666666666e-05	1.9166666666666667e-05
640.0	1.4976666666666667e-05	1.924166666666667e-05
640.5	1.4925e-05	1.9223333333333336e-05
641.0	1.4961666666666668e-05	1.9218333333333335e-05
641.5	1.5041666666666669e-05	1.9193333333333335e-05
642.0	1.5028333333333333e-05	1.925e-05
642.5	1.4925e-05	1.9256666666666668e-05
643.0	1.4950000000000001e-05	1.9231666666666667e-05
643.5	1.5015000000000001e-05	1.9278333333333335e-05
644.0	1.5025000000000001e-05	1.9206666666666667e-05
644.5	1.5040000000000002e-05	1.9313333333333334e-05
645.0	1.5086666666666669e-05	1.921666666666667e-05
645.5	1.5054999999999999e-05	1.9198333333333336e-05
646.0	1.4983333333333336e-05	1.9293333333333334e-05
646.5	1.5023333333333334e-05	1.9223333333333336e-05
647.0	1.5113333333333335e-05	1.9226666666666667e-05
647.5	1.4979999999999999e-05	1.920166666666667e-05
648.0	1.4931666666666666e-05	1.9226666666666667e-05
648.5	1.4946666666666667e-05	1.924666666666667e-05
649.0	1.5045e-05	1.9145e-05
649.5	1.4976666666666667e-05	1.9195000000000002e-05
650.0	1.4996666666666667e-05	1.9271666666666667e-05
650.5	1.4975e-05	1.9220000000000002e-05
651.0	1.4979999999999999e-05	1.9256666666666668e-05
651.5	1.4973333333333333e-05	1.9218333333333335e-05
652.0	1.4983333333333336e-05	1.9185e-05
652.5	1.4975e-05	1.9218333333333335e-05
653.0	1.4975e-05	1.9295e-05
653.5	1.4958333333333336e-05	1.921666666666667e-05
654.0	1.4893333333333334e-05	1.9253333333333334e-05
654.5	1.485666666666667e-05	1.9265e-05
655.0	1.4771666666666668e-05	1.9223333333333336e-05
655.5	1.4788333333333334e-05	1.9173333333333335e-05
656.0	1.4816666666666668e-05	1.9208333333333334e-05
656.5	1.4861666666666669e-05	1.9233333333333334e-05
657.0	1.5015000000000001e-05	1.9195000000000002e-05
657.5	1.5061666666666668e-05	1.9258333333333335e-05
658.0	1.5016666666666668e-05	1.9214999999999998e-05
658.5	1.4953333333333333e-05	1.9223333333333336e-05
659.0	1.4923333333333333e-05	1.921666666666667e-05
659.5	1.4890000000000001e-05	1.921e-05
660.0	1.5010000000000002e-05	1.924e-05
660.5	1.4975e-05	1.9200000000000003e-05
661.0	1.4936666666666669e-05	1.9198333333333336e-05
661.5	1.5005e-05	1.9161666666666666e-05
662.0	1.4915000000000002e-05	1.9175000000000002e-05
662.5	1.4904999999999999e-05	1.917e-05
663.0	1.4878333333333333e-05	1.919e-05
663.5	1.4985000000000001e-05	1.9245000000000003e-05
664.0	1.4861666666666669e-05	1.9265e-05
664.5	1.4868333333333335e-05	1.9195000000000002e-05
665.0	1.4810000000000002e-05	1.917666666666667e-05
665.5	1.4773333333333333e-05	1.9283333333333332e-05
666.0	1.4836666666666668e-05	1.9238333333333332e-05
666.5	1.4890000000000001e-05	1.9245000000000003e-05
667.0	1.4908333333333336e-05	1.9225e-05
667.5	1.4940000000000001e-05	1.921e-05
668.0	1.4908333333333336e-05	1.921e-05
668.5	1.4968333333333334e-05	1.9153333333333335e-05
669.0	1.4951666666666666e-05	1.9288333333333333e-05
669.5	1.4948333333333334e-05	1.922166666666667e-05
670.0	1.4926666666666667e-05	1.9218333333333335e-05
670.5	1.4918333333333334e-05	1.924e-05
671.0	1.4963333333333335e-05	1.9253333333333334e-05
671.5	1.4915000000000002e-05	1.9156666666666666e-05
672.0	1.4888333333333335e-05	1.9220000000000002e-05
672.5	1.4863333333333334e-05	1.9278333333333335e-05
673.0	1.4936666666666669e-05	1.9228333333333334e-05
673.5	1.4916666666666667e-05	1.9214999999999998e-05
674.0	1.4991666666666667e-05	1.922166666666667e-05
674.5	1.5008333333333335e-05	1.9220000000000002e-05
675.0	1.4865e-05	1.924166666666667e-05
675.5	1.4861666666666669e-05	1.9205e-05
676.0	1.4886666666666668e-05	1.9218333333333335e-05
676.5	1.4913333333333335e-05	1.9214999999999998e-05
677.0	1.4904999999999999e-05	1.9213333333333335e-05
677.5	1.4948333333333334e-05	1.9223333333333336e-05
678.0	1.499e-05	1.924e-05
678.5	1.5091666666666668e-05	1.9270000000000004e-05
679.0	1.4985000000000001e-05	1.9225e-05
679.5	1.497e-05	1.9218333333333335e-05
680.0	1.4926666666666667e-05	1.9165e-05
680.5	1.4933333333333335e-05	1.9213333333333335e-05
681.0	1.4958333333333336e-05	1.9214999999999998e-05
681.5	1.4923333333333333e-05	1.9185e-05
682.0	1.4818333333333333e-05	1.9191666666666668e-05
682.5	1.4828333333333333e-05	1.9213333333333335e-05
683.0	1.4810000000000002e-05	1.920166666666667e-05
683.5	1.4946666666666667e-05	1.9173333333333335e-05
684.0	1.4973333333333333e-05	1.9243333333333336e-05
684.5	1.4940000000000001e-05	1.921666666666667e-05
685.0	1.4963333333333335e-05	1.921666666666667e-05
685.5	1.4958333333333336e-05	1.9161666666666666e-05
686.0	1.4943333333333335e-05	1.9235e-05
686.5	1.4981666666666666e-05	1.9291666666666667e-05
687.0	1.502e-05	1.9218333333333335e-05
687.5	1.4965000000000002e-05	1.9183333333333333e-05
688.0	1.4920000000000001e-05	1.922166666666667e-05
688.5	1.4968333333333334e-05	1.9228333333333334e-05
689.0	1.4986666666666668e-05	1.9225e-05
689.5	1.4883333333333335e-05	1.918e-05
690.0	1.4828333333333333e-05	1.9218333333333335e-05
690.5	1.4878333333333333e-05	1.9273333333333334e-05
691.0	1.4881666666666668e-05	1.930166666666667e-05
691.5	1.4868333333333335e-05	1.9253333333333334e-05
692.0	1.4881666666666668e-05	1.9273333333333334e-05
692.5	1.4885000000000002e-05	1.9238333333333332e-05
693.0	1.4888333333333335e-05	1.9206666666666667e-05
693.5	1.4886666666666668e-05	1.9165e-05
694.0	1.4886666666666668e-05	1.924e-05
694.5	1.4956666666666665e-05	1.9265e-05
695.0	1.4895e-05	1.9168333333333334e-05
695.5	1.4835000000000001e-05	1.9268333333333337e-05
696.0	1.4908333333333336e-05	1.924166666666667e-05
696.5	1.4988333333333335e-05	1.9265e-05
697.0	1.4979999999999999e-05	1.9228333333333334e-05
697.5	1.4950000000000001e-05	1.9253333333333334e-05
698.0	1.4946666666666667e-05	1.9178333333333336e-05
698.5	1.4945e-05	1.930166666666667e-05
699.0	1.5061666666666668e-05	1.9225e-05
699.5	1.4983333333333336e-05	1.9265e-05
700.0	1.4966666666666668e-05	1.9255e-05
700.5	1.503e-05	1.925e-05
701.0	1.4956666666666665e-05	1.922166666666667e-05
701.5	1.4871666666666667e-05	1.9211666666666668e-05
702.0	1.4881666666666668e-05	1.9226666666666667e-05
702.5	1.4911666666666668e-05	1.9206666666666667e-05
703.0	1.4886666666666668e-05	1.9185e-05
703.5	1.4798333333333334e-05	1.9213333333333335e-05
704.0	1.49e-05	1.9295e-05
704.5	1.4998333333333333e-05	1.924166666666667e-05
705.0	1.4973333333333333e-05	1.9328333333333336e-05
705.5	1.4961666666666668e-05	1.9245000000000003e-05
706.0	1.4973333333333333e-05	1.9261666666666665e-05
706.5	1.4955e-05	1.9276666666666668e-05
707.0	1.5010000000000002e-05	1.923e-05
707.5	1.5001666666666667e-05	1.9228333333333334e-05
708.0	1.5013333333333334e-05	1.9123333333333334e-05
708.5	1.499e-05	1.924e-05
709.0	1.4916666666666667e-05	1.9298333333333335e-05
709.5	1.4948333333333334e-05	1.9231666666666667e-05
710.0	1.4958333333333336e-05	1.9218333333333335e-05
710.5	1.5006666666666666e-05	1.9186666666666667e-05
711.0	1.4935000000000002e-05	1.9245000000000003e-05
711.5	1.4926666666666667e-05	1.9270000000000004e-05
712.0	1.4973333333333333e-05	1.922166666666667e-05
712.5	1.4928333333333332e-05	1.9258333333333335e-05
713.0	1.4915000000000002e-05	1.9183333333333333e-05
713.5	1.497e-05	1.9165e-05
714.0	1.5005e-05	1.9228333333333334e-05
714.5	1.4981666666666666e-05	1.9255e-05
715.0	1.4916666666666667e-05	1.9258333333333335e-05
715.5	1.4791666666666668e-05	1.9185e-05
716.0	1.4871666666666667e-05	1.9205e-05
716.5	1.4993333333333334e-05	1.9228333333333334e-05
717.0	1.5028333333333333e-05	1.9265e-05
717.5	1.4991666666666667e-05	1.924666666666667e-05
718.0	1.5051666666666667e-05	1.9258333333333335e-05
718.5	1.4968333333333334e-05	1.9235e-05
719.0	1.5023333333333334e-05	1.929e-05
719.5	1.5038333333333335e-05	1.9231666666666667e-05
720.0	1.5118333333333334e-05	1.9178333333333336e-05
720.5	1.5026666666666666e-05	1.9195000000000002e-05
721.0	1.502e-05	1.9276666666666668e-05
721.5	1.5068333333333334e-05	1.9280000000000002e-05
722.0	1.5033333333333336e-05	1.9208333333333334e-05
722.5	1.4998333333333333e-05	1.9238333333333332e-05
723.0	1.4995000000000001e-05	1.9214999999999998e-05
723.5	1.5065e-05	1.9171666666666668e-05
724.0	1.5113333333333335e-05	1.9331666666666667e-05
