Frequenz   Vx2   Vy2
Hz   V\+(2)/Hz   V\+(2)/Hz
Frequenz	Vx2	Vy2
Hz	V\+(2)/Hz	V\+(2)/Hz
#0.125	#+2.0178171e-002	#+4.5949072e+002
#0.25	#+5.0495570e-003	#+1.1487272e+002
0.375	+1.0407979e-006	+5.3865341e-007
0.5	+6.3707790e-007	+9.1177463e-007
0.625	+6.4724617e-007	+9.2604660e-007
0.75	+7.1592723e-007	+7.3952970e-007
0.875	+9.7535542e-007	+8.3849602e-007
1.0	+9.9198860e-007	+8.3608103e-007
1.125	+3.1701134e-006	+2.6170117e-006
1.25	+2.9632897e-006	+2.7384135e-006
1.375	+9.4192990e-007	+7.1132951e-007
1.5	+6.5637641e-007	+6.4732006e-007
1.625	+6.7335151e-007	+5.7255568e-007
1.75	+6.5149555e-007	+5.6172303e-007
1.875	+1.0579184e-006	+5.4629442e-007
2.0	+1.3696814e-006	+5.1917857e-007
2.125	+1.4449411e-006	+5.8679450e-007
2.25	+6.2103436e-007	+5.8589188e-007
2.375	+5.8230631e-007	+5.2463668e-007
2.5	+7.2733087e-007	+5.3903739e-007
2.625	+7.4530823e-007	+5.6530041e-007
2.75	+5.4847186e-007	+7.9427696e-007
2.875	+4.8988591e-007	+6.3477449e-007
3.0	+1.1565203e-006	+6.9270988e-007
3.125	+1.3765335e-006	+6.3813081e-007
3.25	+7.3111232e-007	+7.0950739e-007
3.375	+6.7565765e-007	+6.1590748e-007
3.5	+8.5643222e-007	+4.3700291e-007
3.625	+1.1263242e-006	+5.3312209e-007
3.75	+9.3717222e-007	+4.9946703e-007
3.875	+8.3594978e-007	+5.7064722e-007
4.0	+1.1628013e-006	+7.6526351e-007
4.125	+1.4854330e-006	+5.0903094e-007
4.25	+6.5514593e-007	+5.7393726e-007
4.375	+7.6681783e-007	+6.8518796e-007
4.5	+9.0064196e-007	+7.4994364e-007
4.625	+1.1022163e-006	+7.6671932e-007
4.75	+9.5344728e-007	+5.5581137e-007
4.875	+8.8543351e-007	+9.2945902e-007
5.0	+1.5413746e-006	+9.7272573e-007
5.125	+1.6106784e-006	+5.0913098e-007
5.25	+8.4303872e-007	+5.7447693e-007
5.375	+8.1269280e-007	+7.7114152e-007
5.5	+6.3109547e-007	+7.1529792e-007
5.625	+6.3582775e-007	+7.0531394e-007
5.75	+5.9320888e-007	+6.0211215e-007
5.875	+7.7706551e-007	+6.1403040e-007
6.0	+1.6704892e-006	+7.2499239e-007
6.125	+1.2583309e-006	+5.3765012e-007
6.25	+6.7472877e-007	+5.9143736e-007
6.375	+6.8301944e-007	+6.1199040e-007
6.5	+7.1251759e-007	+7.3823571e-007
6.625	+6.6949673e-007	+7.1851963e-007
6.75	+6.7473098e-007	+7.1137634e-007
6.875	+6.0178962e-007	+6.9218072e-007
7.0	+1.8774903e-005	+1.8296969e-005
7.125	+6.9627698e-005	+6.9377551e-005
7.25	+1.8135206e-005	+1.7523809e-005
7.375	+9.2358323e-007	+5.0505270e-007
7.5	+7.8657570e-007	+7.3662289e-007
7.625	+8.0950997e-007	+7.5878853e-007
7.75	+8.5443264e-007	+5.2808105e-007
7.875	+1.2197888e-006	+5.8222190e-007
8.0	+1.5621363e-006	+4.9425779e-007
8.125	+9.0984059e-007	+5.0386961e-007
8.25	+7.1340372e-007	+4.7765604e-007
8.375	+8.4553790e-007	+6.0303842e-007
8.5	+9.0875835e-007	+6.1220004e-007
8.625	+9.4720764e-007	+7.4261021e-007
8.75	+6.5753557e-007	+5.6849717e-007
8.875	+7.3488280e-007	+6.9954359e-007
9.0	+1.3959927e-006	+7.1511494e-007
9.125	+1.2944814e-006	+6.8695965e-007
9.25	+9.4295120e-007	+7.5383934e-007
9.375	+7.9171110e-007	+1.0193486e-006
9.5	+1.1052290e-006	+1.1371071e-006
9.625	+9.7662530e-007	+9.0719817e-007
9.75	+9.0449987e-007	+6.8360919e-007
9.875	+1.0396456e-006	+5.9157310e-007
10.0	+1.4962231e-006	+6.5524597e-007
10.125	+9.5786686e-007	+6.5302521e-007
10.25	+8.1219059e-007	+6.9979097e-007
10.375	+9.3489990e-007	+8.0008698e-007
10.5	+1.1387576e-006	+9.3861593e-007
10.625	+2.4983792e-006	+1.9378670e-006
10.75	+3.0953943e-006	+2.3537941e-006
10.875	+1.3450351e-006	+7.4181241e-007
11.0	+1.2842307e-006	+7.0242595e-007
11.125	+1.2955919e-006	+9.6159181e-007
11.25	+1.6974179e-006	+1.3640176e-006
11.375	+2.0378989e-006	+1.9033289e-006
11.5	+1.6267413e-006	+1.7295919e-006
11.625	+1.8416124e-006	+1.2200888e-006
11.75	+2.2651168e-006	+1.9034668e-006
11.875	+3.6068766e-006	+3.3726315e-006
12.0	+1.6018761e-005	+1.5818050e-005
12.125	+4.5378871e-005	+3.9342762e-005
12.25	+1.3301260e-005	+1.0915149e-005
12.375	+3.1558538e-006	+2.4216820e-006
12.5	+2.0510261e-006	+2.0205873e-006
12.625	+2.0914315e-006	+1.9767374e-006
12.75	+4.6634709e-006	+3.2581058e-006
12.875	+9.8447585e-005	+9.5813186e-005
13.0	+3.1423452e-003	+3.0166893e-003
13.125	+4.1507939e-003	+3.9775581e-003
13.25	+3.4151992e-004	+3.3112455e-004
13.375	+3.9669294e-006	+3.1200436e-006
13.5	+1.1151058e-006	+1.1423567e-006
13.625	+9.5294490e-007	+8.9181731e-007
13.75	+9.9841805e-007	+7.9067735e-007
13.875	+9.1010332e-007	+1.0470860e-006
14.0	+9.7377608e-007	+8.9103918e-007
14.125	+8.1755428e-007	+6.7383888e-007
14.25	+9.8365251e-007	+7.9802089e-007
14.375	+1.2824736e-006	+9.8700843e-007
14.5	+1.3182231e-006	+8.7294069e-007
14.625	+1.0004459e-006	+7.6489727e-007
14.75	+1.1374356e-006	+8.7254585e-007
14.875	+1.7126093e-006	+1.1853427e-006
15.0	+8.7767867e-006	+9.6863741e-006
15.125	+1.6017091e-004	+1.5973186e-004
15.25	+1.4591188e-004	+1.4827900e-004
15.375	+4.8947513e-006	+6.1623491e-006
15.5	+1.3678330e-006	+8.9202592e-007
15.625	+1.0095681e-006	+7.5379467e-007
15.75	+7.6923459e-007	+7.1002637e-007
15.875	+7.7373841e-007	+6.0254865e-007
16.0	+9.0100195e-007	+6.1299642e-007
16.125	+7.9536608e-007	+5.7433499e-007
16.25	+9.2773598e-007	+5.2269559e-007
16.375	+6.4091910e-007	+6.2962272e-007
16.5	+5.6985016e-007	+5.3222840e-007
16.625	+6.7338550e-007	+5.9709561e-007
16.75	+4.7323459e-007	+5.9988179e-007
16.875	+5.7762981e-007	+3.2504917e-007
17.0	+6.0762295e-007	+4.5151646e-007
17.125	+5.9189603e-007	+5.4179884e-007
17.25	+1.6892263e-006	+1.3848302e-006
17.375	+2.1031778e-006	+1.9215590e-006
17.5	+9.5545511e-007	+6.7760260e-007
17.625	+9.9247234e-007	+5.2209396e-007
17.75	+7.2440037e-007	+5.6404184e-007
17.875	+8.2888852e-007	+5.5662235e-007
18.0	+6.2792782e-007	+5.0483874e-007
18.125	+4.7422390e-007	+5.9488121e-007
18.25	+6.0083164e-007	+4.8931827e-007
18.375	+7.7425932e-007	+5.3545921e-007
18.5	+7.4956824e-007	+5.8879641e-007
18.625	+5.0750634e-007	+6.9614316e-007
18.75	+4.0858762e-007	+6.7400686e-007
18.875	+4.4077410e-007	+4.2948633e-007
19.0	+5.6388700e-007	+3.5968515e-007
19.125	+7.0373204e-007	+4.2815532e-007
19.25	+5.7843772e-007	+5.4010673e-007
19.375	+6.1684347e-007	+6.9167857e-007
19.5	+5.3400788e-007	+5.8903180e-007
19.625	+4.8467120e-007	+4.0067590e-007
19.75	+5.4686694e-007	+4.3625937e-007
19.875	+4.7678051e-007	+4.2694182e-007
20.0	+6.8304496e-007	+4.4819484e-007
20.125	+9.5486791e-007	+6.5038773e-007
20.25	+5.7837042e-007	+3.2688231e-007
20.375	+5.8837185e-007	+4.5618006e-007
20.5	+7.2166239e-007	+4.6559910e-007
20.625	+5.3840625e-007	+3.7120753e-007
20.75	+5.7516928e-007	+3.8905981e-007
20.875	+4.3569403e-007	+3.6379947e-007
21.0	+5.3645721e-007	+3.9616194e-007
21.125	+6.3766856e-007	+4.9072088e-007
21.25	+5.0833393e-007	+4.9755897e-007
21.375	+4.5242953e-007	+3.9597842e-007
21.5	+5.0343334e-007	+3.6241448e-007
21.625	+4.8498794e-007	+3.6721784e-007
21.75	+3.4736556e-007	+3.2279576e-007
21.875	+4.2678107e-007	+3.3613378e-007
22.0	+4.4331048e-007	+3.0481374e-007
22.125	+7.9974006e-007	+4.3808910e-007
22.25	+6.6402083e-007	+3.7287867e-007
22.375	+5.3207066e-007	+4.5009639e-007
22.5	+4.1909047e-007	+3.8810072e-007
22.625	+4.4325259e-007	+2.7173522e-007
22.75	+3.9834626e-007	+3.5306869e-007
22.875	+2.9360660e-007	+3.9461517e-007
23.0	+4.1757383e-007	+3.2292516e-007
23.125	+3.3286366e-007	+3.4427256e-007
23.25	+2.4612606e-007	+3.0945719e-007
23.375	+3.2815998e-007	+3.3147668e-007
23.5	+3.7420628e-007	+4.0555867e-007
23.625	+3.6887585e-007	+3.4485441e-007
23.75	+4.5820454e-007	+3.4863331e-007
23.875	+4.1545965e-007	+3.6599539e-007
24.0	+3.4861455e-007	+2.9540348e-007
24.125	+6.8858623e-007	+4.8387949e-007
24.25	+1.3974588e-006	+1.1285412e-006
24.375	+9.0326625e-007	+7.2141597e-007
24.5	+4.0060550e-007	+4.2214214e-007
24.625	+5.9967897e-007	+4.4646598e-007
24.75	+6.2358771e-007	+5.2446967e-007
24.875	+5.8986734e-007	+6.6148050e-007
25.0	+6.8924584e-007	+8.0575109e-007
25.125	+5.2600075e-007	+4.3627517e-007
25.25	+1.7526021e-006	+1.4688063e-006
25.375	+1.5334628e-005	+1.4473196e-005
25.5	+1.4084695e-005	+1.4248183e-005
25.625	+1.2812927e-006	+9.1144631e-007
25.75	+5.1436206e-007	+3.4365095e-007
25.875	+1.0875051e-006	+8.3842144e-007
26.0	+4.5080415e-006	+2.8327083e-006
26.125	+2.6622135e-006	+1.7143627e-006
26.25	+5.3038212e-007	+5.2974133e-007
26.375	+3.6878109e-007	+4.4521136e-007
26.5	+3.3222179e-007	+3.3980368e-007
26.625	+3.5241376e-007	+3.5092683e-007
26.75	+3.2525267e-007	+3.7703626e-007
26.875	+3.0961760e-007	+2.7585236e-007
27.0	+3.6623618e-007	+2.3144133e-007
27.125	+5.6428956e-007	+2.8414209e-007
27.25	+5.4816422e-007	+3.3807322e-007
27.375	+3.3023684e-007	+3.2854214e-007
27.5	+3.3991151e-007	+3.9695786e-007
27.625	+2.7662395e-007	+3.7116720e-007
27.75	+3.9577108e-007	+4.2627295e-007
27.875	+4.3255625e-007	+4.2381777e-007
28.0	+4.3055670e-007	+4.1171560e-007
28.125	+4.4314356e-007	+4.9334369e-007
28.25	+5.2492072e-007	+4.8557564e-007
28.375	+6.3221484e-007	+3.2542161e-007
28.5	+5.6827315e-007	+3.2543448e-007
28.625	+3.7641954e-007	+4.8193147e-007
28.75	+4.5290568e-007	+3.6473295e-007
28.875	+2.3471900e-007	+3.0896626e-007
29.0	+3.9102761e-007	+3.0396353e-007
29.125	+1.1192394e-006	+9.8515056e-007
29.25	+1.9266863e-006	+1.7732063e-006
29.375	+1.0536595e-006	+1.2094016e-006
29.5	+4.0056770e-007	+4.9761746e-007
29.625	+5.5480228e-007	+5.1290590e-007
29.75	+6.3305600e-007	+5.4872424e-007
29.875	+4.3060018e-007	+3.6384102e-007
30.0	+4.1277474e-007	+2.3250774e-007
30.125	+6.6095566e-007	+5.9390754e-007
30.25	+2.2105219e-006	+2.5460538e-006
30.375	+1.6907237e-006	+1.9598572e-006
30.5	+4.3194734e-007	+3.7442450e-007
30.625	+5.3704065e-007	+4.2475878e-007
30.75	+5.5497651e-007	+4.6594892e-007
30.875	+4.4711450e-007	+5.1608799e-007
31.0	+3.7341948e-007	+4.1371578e-007
31.125	+1.0935638e-006	+9.7584496e-007
31.25	+4.5355059e-006	+4.6113582e-006
31.375	+2.2488384e-006	+2.6575001e-006
31.5	+3.8824902e-007	+4.3395099e-007
31.625	+5.5778656e-007	+3.7084948e-007
31.75	+4.8349074e-007	+5.7602813e-007
31.875	+1.1029863e-006	+8.6246109e-007
32.0	+1.8321334e-005	+1.6158612e-005
32.125	+2.5105690e-005	+2.1292730e-005
32.25	+9.0466674e-006	+8.0051404e-006
32.375	+2.2625020e-006	+3.0793808e-006
32.5	+2.9918232e-007	+5.0671571e-007
32.625	+5.9524649e-007	+5.5448260e-007
32.75	+8.2204218e-007	+7.1745700e-007
32.875	+6.3505820e-007	+7.4157708e-007
33.0	+7.7524186e-007	+5.7977809e-007
33.125	+4.2246625e-006	+3.4024868e-006
33.25	+1.0359457e-005	+9.7445209e-006
33.375	+2.9263369e-006	+2.6256894e-006
33.5	+5.7039978e-007	+5.4866456e-007
33.625	+6.0555368e-007	+4.8170824e-007
33.75	+7.2061169e-007	+6.9047059e-007
33.875	+5.4706152e-007	+6.6440077e-007
34.0	+8.3873454e-007	+6.0215712e-007
34.125	+4.4256494e-006	+3.4860921e-006
34.25	+9.4957031e-006	+9.2280879e-006
34.375	+2.0756195e-006	+2.0559842e-006
34.5	+5.7890412e-007	+5.5953166e-007
34.625	+5.7783598e-007	+5.8762748e-007
34.75	+6.6678831e-007	+9.0319782e-007
34.875	+5.7503917e-007	+8.1712534e-007
35.0	+8.2723113e-007	+7.9425865e-007
35.125	+4.7257413e-006	+4.7905210e-006
35.25	+7.6973392e-006	+8.0512582e-006
35.375	+1.2158403e-006	+1.4349287e-006
35.5	+9.1671029e-007	+6.6102314e-007
35.625	+8.0043583e-007	+8.5953906e-007
35.75	+2.1909884e-006	+2.5202878e-006
35.875	+1.6285194e-005	+1.5452923e-005
36.0	+1.1591849e-005	+1.0685099e-005
36.125	+3.4596942e-006	+3.2144437e-006
36.25	+6.2925988e-006	+4.9560053e-006
36.375	+2.9824628e-006	+2.3484868e-006
36.5	+4.2439888e-006	+3.5924154e-006
36.625	+7.4263385e-006	+7.2896655e-006
36.75	+4.5846671e-005	+4.6401554e-005
36.875	+3.3322969e-004	+3.3533201e-004
37.0	+3.5447080e-002	+3.5352010e-002
37.125	+6.2717521e-001	+6.2684631e-001
37.25	+7.8008014e-001	+7.7999586e-001
37.375	+6.6490196e-002	+6.6502422e-002
37.5	+6.0774776e-004	+6.0945569e-004
37.625	+4.7308757e-005	+4.7124460e-005
37.75	+1.2115174e-005	+1.1908163e-005
37.875	+3.8157859e-006	+3.9969959e-006
38.0	+2.2624697e-006	+3.0589026e-006
38.125	+5.3874983e-006	+5.8273549e-006
38.25	+5.2227165e-006	+5.4555235e-006
38.375	+1.4669964e-006	+1.0632845e-006
38.5	+7.5056141e-007	+8.3013083e-007
38.625	+9.8008854e-007	+6.0992096e-007
38.75	+9.3233825e-007	+6.2349528e-007
38.875	+4.3996423e-007	+7.8370675e-007
39.0	+9.8079249e-007	+1.1510667e-006
39.125	+6.7542774e-006	+6.9016664e-006
39.25	+6.1862793e-006	+5.9423301e-006
39.375	+1.0383039e-006	+7.0172291e-007
39.5	+5.5431457e-007	+4.8850876e-007
39.625	+5.3407530e-007	+5.3805638e-007
39.75	+4.1399204e-007	+4.5047460e-007
39.875	+4.9965956e-007	+5.8478264e-007
40.0	+1.1794436e-006	+1.5423581e-006
40.125	+6.6357043e-006	+7.1758068e-006
40.25	+4.4300932e-006	+4.6809587e-006
40.375	+6.6563473e-007	+6.9808652e-007
40.5	+3.4883510e-007	+4.4390032e-007
40.625	+5.8223088e-007	+5.8088233e-007
40.75	+9.0297868e-007	+7.9063392e-007
40.875	+5.6231045e-007	+5.5367104e-007
41.0	+1.1740095e-006	+1.3382326e-006
41.125	+5.8120004e-006	+6.1178280e-006
41.25	+2.7093026e-006	+2.9069947e-006
41.375	+3.6962993e-007	+3.2899948e-007
41.5	+3.2460193e-007	+3.0477324e-007
41.625	+4.5473135e-007	+2.9652554e-007
41.75	+3.3621572e-007	+3.0840638e-007
41.875	+3.0971995e-007	+3.4197299e-007
42.0	+1.1006479e-006	+1.1814085e-006
42.125	+3.8322696e-006	+3.8559729e-006
42.25	+1.4391857e-006	+1.4166211e-006
42.375	+2.4271711e-007	+1.6640527e-007
42.5	+1.8418268e-007	+1.8032891e-007
42.625	+2.5812690e-007	+2.6366325e-007
42.75	+2.4914652e-007	+2.1782014e-007
42.875	+2.3446839e-007	+2.5590776e-007
43.0	+7.5577782e-007	+8.9890818e-007
43.125	+2.1951009e-006	+2.0873617e-006
43.25	+7.5616623e-007	+6.7054577e-007
43.375	+2.3890033e-007	+2.2371015e-007
43.5	+2.5268770e-007	+2.2420586e-007
43.625	+2.1907044e-007	+2.3346755e-007
43.75	+2.0777878e-007	+2.0557923e-007
43.875	+1.5376372e-007	+1.9621955e-007
44.0	+4.4098661e-007	+4.4990912e-007
44.125	+8.8699034e-007	+9.1880923e-007
44.25	+3.2547379e-007	+3.2637271e-007
44.375	+1.4123657e-007	+1.6935198e-007
44.5	+1.3621514e-007	+1.5862521e-007
44.625	+1.6078955e-007	+2.0447730e-007
44.75	+1.3579030e-007	+1.8197258e-007
44.875	+1.2007432e-007	+1.7346964e-007
45.0	+3.3364230e-007	+2.6626842e-007
45.125	+4.9355930e-007	+3.9153971e-007
45.25	+2.3092910e-007	+1.8338521e-007
45.375	+1.1409891e-007	+9.6596949e-008
45.5	+1.1425561e-007	+8.6627907e-008
45.625	+1.6395207e-007	+1.0815965e-007
45.75	+1.2965113e-007	+1.2159124e-007
45.875	+1.0777485e-007	+1.2222770e-007
46.0	+1.9397082e-007	+1.6341562e-007
46.125	+2.6093309e-007	+2.6236117e-007
46.25	+2.6942865e-007	+2.4648955e-007
46.375	+4.4748185e-007	+3.6692563e-007
46.5	+8.2245202e-007	+6.9483815e-007
46.625	+1.2603898e-006	+1.1326538e-006
46.75	+1.8743842e-006	+1.6850751e-006
46.875	+2.5826271e-006	+2.5559184e-006
47.0	+4.3125974e-006	+4.2371539e-006
47.125	+2.9450964e-006	+2.8853619e-006
47.25	+1.6663674e-006	+1.8193582e-006
47.375	+8.0300794e-007	+9.4432914e-007
47.5	+6.6604855e-007	+6.6637989e-007
47.625	+4.8919901e-007	+5.6892617e-007
47.75	+1.7130945e-007	+2.3173578e-007
47.875	+1.1544650e-007	+1.4342136e-007
48.0	+1.2798220e-007	+1.1236697e-007
48.125	+1.5270547e-007	+1.3036899e-007
48.25	+1.6688044e-007	+1.6950229e-007
48.375	+1.4835814e-007	+1.9065038e-007
48.5	+1.2560092e-007	+1.0818114e-007
48.625	+1.4181897e-007	+1.0492173e-007
48.75	+1.6427911e-007	+9.6960569e-008
48.875	+2.3288972e-007	+1.7857339e-007
49.0	+9.7618467e-006	+1.0228667e-005
49.125	+3.1029213e-005	+3.9171387e-005
49.25	+3.2726261e-005	+3.7166432e-005
49.375	+6.0510506e-006	+5.8609266e-006
49.5	+3.6256174e-007	+3.5605925e-007
49.625	+2.0103130e-007	+1.7669969e-007
49.75	+2.0648227e-007	+1.2471526e-007
49.875	+2.0682056e-007	+8.7703327e-008
50.0	+4.7853584e-005	+2.2343841e-007
   
Frequenz	Vx2	Vy2
Hz	V\+(2)/Hz	V\+(2)/Hz
#0.03125	#+8.1376471e-002	#+1.8376515e+003
#0.0625	#+2.0369560e-002	#+4.5941882e+002
0.09375	+1.0853402e-006	+8.9164695e-007
0.125	+1.3127101e-006	+1.0587552e-006
0.15625	+1.0244154e-006	+8.0399246e-007
0.1875	+9.3348547e-007	+6.4215953e-007
0.21875	+9.0579482e-007	+6.9792179e-007
0.25	+8.5017479e-007	+8.2370730e-007
0.28125	+1.0407637e-006	+5.7178363e-007
0.3125	+9.8301882e-007	+4.3734610e-007
0.34375	+5.9356461e-007	+4.9606655e-007
0.375	+6.4550460e-007	+6.1203139e-007
0.40625	+9.4881580e-007	+5.8372609e-007
0.4375	+6.8525640e-007	+7.0794016e-007
0.46875	+7.6187064e-007	+7.0184313e-007
0.5	+9.2755670e-007	+7.0280316e-007
0.53125	+7.4498178e-007	+8.2881206e-007
0.5625	+9.9753049e-007	+9.6763608e-007
0.59375	+6.8622768e-007	+9.7434190e-007
0.625	+8.5276343e-007	+7.0241049e-007
0.65625	+6.9151906e-007	+8.5408931e-007
0.6875	+6.5513586e-007	+8.7026496e-007
0.71875	+8.7684742e-007	+6.8375931e-007
0.75	+9.0708460e-007	+7.9085186e-007
0.78125	+9.8690441e-007	+7.2209434e-007
0.8125	+8.1851084e-007	+6.1819406e-007
0.84375	+9.4564064e-007	+5.5499055e-007
0.875	+7.4295031e-007	+7.7074958e-007
0.90625	+6.9559002e-007	+6.1703111e-007
0.9375	+5.0414525e-007	+6.6616411e-007
0.96875	+5.0825525e-007	+5.9417494e-007
1.0	+2.7995316e-006	+1.3204191e-006
1.03125	+9.9430799e-006	+8.3324194e-006
1.0625	+1.0528778e-005	+1.1694168e-005
1.09375	+2.8266220e-006	+3.0907654e-006
1.125	+8.6700226e-007	+6.4195370e-007
1.15625	+7.7027750e-007	+7.5668368e-007
1.1875	+7.2847934e-007	+6.9193607e-007
1.21875	+9.6152530e-007	+9.1197688e-007
1.25	+9.2441513e-007	+7.5056141e-007
1.28125	+7.4132635e-007	+8.0649187e-007
1.3125	+8.1221646e-007	+1.0968586e-006
1.34375	+6.8263034e-007	+7.6653242e-007
1.375	+6.2268532e-007	+5.4572791e-007
1.40625	+7.9829431e-007	+6.2858038e-007
1.4375	+8.1122539e-007	+6.8873442e-007
1.46875	+7.5678503e-007	+6.9928632e-007
1.5	+6.4902093e-007	+7.6010184e-007
1.53125	+6.2302450e-007	+8.2700410e-007
1.5625	+5.9563939e-007	+7.3540184e-007
1.59375	+5.9616480e-007	+8.5120314e-007
1.625	+7.9467122e-007	+6.4038244e-007
1.65625	+9.2544997e-007	+5.4662263e-007
1.6875	+6.2533127e-007	+7.5591305e-007
1.71875	+4.7350485e-007	+7.4584932e-007
1.75	+5.1332393e-007	+6.9763905e-007
1.78125	+5.2359110e-007	+6.1247437e-007
1.8125	+8.0707122e-007	+5.7405572e-007
1.84375	+8.6629905e-007	+6.6014843e-007
1.875	+5.8594532e-007	+5.7168694e-007
1.90625	+6.2972919e-007	+5.6351877e-007
1.9375	+6.3831862e-007	+5.2651325e-007
1.96875	+1.2060494e-006	+4.3531676e-007
2.0	+3.7100667e-006	+4.9625015e-007
2.03125	+1.7408822e-006	+6.0300528e-007
2.0625	+5.8779654e-007	+6.8403409e-007
2.09375	+6.2985504e-007	+6.4114784e-007
2.125	+6.4499096e-007	+5.2803063e-007
2.15625	+6.1468745e-007	+6.4283955e-007
2.1875	+6.7608511e-007	+7.0609423e-007
2.21875	+7.1460551e-007	+5.8207047e-007
2.25	+6.6067560e-007	+7.4421331e-007
2.28125	+6.1853962e-007	+7.5473957e-007
2.3125	+6.0097943e-007	+6.9839166e-007
2.34375	+6.0978169e-007	+8.6274429e-007
2.375	+5.9894069e-007	+6.3594018e-007
2.40625	+8.4862944e-007	+5.1778386e-007
2.4375	+6.0801739e-007	+6.0156634e-007
2.46875	+6.2168243e-007	+5.2045135e-007
2.5	+5.9177319e-007	+6.0228206e-007
2.53125	+5.3985832e-007	+6.1573849e-007
2.5625	+3.9609060e-007	+4.9422414e-007
2.59375	+7.6456223e-007	+4.9632314e-007
2.625	+9.9217596e-007	+4.8914848e-007
2.65625	+8.5649901e-007	+4.7573104e-007
2.6875	+8.2511667e-007	+6.1382417e-007
2.71875	+6.6953936e-007	+7.0580899e-007
2.75	+6.1774148e-007	+7.5637632e-007
2.78125	+8.3745175e-007	+7.3099193e-007
2.8125	+5.3616515e-007	+7.9069207e-007
2.84375	+5.1013319e-007	+8.1336856e-007
2.875	+6.9902455e-007	+5.1968334e-007
2.90625	+4.6227743e-007	+5.1206922e-007
2.9375	+5.8702841e-007	+7.6557529e-007
2.96875	+3.0498782e-006	+8.5499852e-007
3.0	+4.2339543e-006	+6.6612608e-007
3.03125	+8.7278636e-007	+5.3173892e-007
3.0625	+6.3634525e-007	+5.2670293e-007
3.09375	+5.5892440e-007	+6.6655184e-007
3.125	+5.2976930e-007	+8.5623384e-007
3.15625	+6.7925549e-007	+9.0371566e-007
3.1875	+7.5621438e-007	+6.8834055e-007
3.21875	+7.2408471e-007	+5.5149781e-007
3.25	+6.3162929e-007	+5.6142949e-007
3.28125	+6.3021542e-007	+7.4911901e-007
3.3125	+6.6646771e-007	+9.0618971e-007
3.34375	+7.5311880e-007	+9.8764156e-007
3.375	+9.4713693e-007	+9.8094006e-007
3.40625	+8.6821206e-007	+6.6182486e-007
3.4375	+6.3150861e-007	+4.3311039e-007
3.46875	+7.2450939e-007	+5.1092690e-007
3.5	+5.7572527e-007	+5.9306564e-007
3.53125	+6.0443045e-007	+5.5041494e-007
3.5625	+6.1139332e-007	+7.5792758e-007
3.59375	+6.4488052e-007	+7.0369191e-007
3.625	+7.3944443e-007	+5.7043735e-007
3.65625	+8.8234742e-007	+6.6672459e-007
3.6875	+7.6073803e-007	+6.8018090e-007
3.71875	+8.5109002e-007	+6.5845165e-007
3.75	+9.0441546e-007	+7.7456286e-007
3.78125	+8.2030027e-007	+8.6544725e-007
3.8125	+7.4910588e-007	+7.2449347e-007
3.84375	+7.2865367e-007	+6.8018613e-007
3.875	+6.0307349e-007	+6.9648570e-007
3.90625	+6.5913594e-007	+6.5329345e-007
3.9375	+1.3536204e-006	+6.7773726e-007
3.96875	+5.0160265e-006	+5.6750059e-007
4.0	+2.9179341e-006	+5.8282120e-007
4.03125	+9.8740190e-007	+7.8283642e-007
4.0625	+6.8759880e-007	+8.3098166e-007
4.09375	+8.9657408e-007	+9.7558791e-007
4.125	+8.2572836e-007	+6.7767547e-007
4.15625	+6.6707975e-007	+6.3010538e-007
4.1875	+6.6904846e-007	+6.4346455e-007
4.21875	+7.0564158e-007	+5.2651615e-007
4.25	+7.8141437e-007	+6.1099070e-007
4.28125	+8.9563645e-007	+7.9434670e-007
4.3125	+9.1563095e-007	+7.2816425e-007
4.34375	+7.8496060e-007	+6.9640311e-007
4.375	+7.2184940e-007	+8.9657016e-007
4.40625	+7.7843350e-007	+8.9603873e-007
4.4375	+6.1091822e-007	+7.8531059e-007
4.46875	+6.0906638e-007	+7.1555633e-007
4.5	+8.7806228e-007	+6.0879694e-007
4.53125	+8.2672989e-007	+6.9636639e-007
4.5625	+8.4310540e-007	+6.9389660e-007
4.59375	+7.7959078e-007	+7.8001199e-007
4.625	+7.5520876e-007	+8.8643736e-007
4.65625	+7.4392739e-007	+6.9132551e-007
4.6875	+5.9998519e-007	+7.1857249e-007
4.71875	+5.6858647e-007	+8.4641289e-007
4.75	+4.9758250e-007	+7.6519882e-007
4.78125	+6.6107174e-007	+7.4400333e-007
4.8125	+6.9543501e-007	+7.4701967e-007
4.84375	+6.4677658e-007	+7.4248464e-007
4.875	+5.6372113e-007	+7.7264497e-007
4.90625	+6.4355356e-007	+5.7466804e-007
4.9375	+2.3849541e-006	+5.3841393e-007
4.96875	+4.7000344e-006	+7.2715198e-007
5.0	+1.3983997e-006	+8.5720649e-007
5.03125	+7.5505454e-007	+7.7982276e-007
5.0625	+7.3273401e-007	+4.6556025e-007
5.09375	+9.0081204e-007	+7.3370251e-007
5.125	+7.2948222e-007	+8.3849602e-007
5.15625	+6.0490311e-007	+7.7655460e-007
5.1875	+5.6749315e-007	+7.3311065e-007
5.21875	+7.5815564e-007	+6.4649475e-007
5.25	+6.1998037e-007	+6.3425688e-007
5.28125	+6.8589395e-007	+5.3454460e-007
5.3125	+7.2110083e-007	+5.1228568e-007
5.34375	+6.1411401e-007	+6.7942108e-007
5.375	+6.1928915e-007	+8.0548307e-007
5.40625	+7.3326197e-007	+5.7160287e-007
5.4375	+9.2530769e-007	+7.1662561e-007
5.46875	+1.0081757e-006	+5.5350932e-007
5.5	+6.7421706e-007	+4.8777770e-007
5.53125	+6.3622997e-007	+7.2865851e-007
5.5625	+8.4957196e-007	+7.3351805e-007
5.59375	+7.2863691e-007	+5.3281309e-007
5.625	+6.1967484e-007	+5.8481862e-007
5.65625	+5.9185959e-007	+7.0406901e-007
5.6875	+5.3043397e-007	+7.3671265e-007
5.71875	+5.0026887e-007	+6.8084142e-007
5.75	+7.1263577e-007	+7.3833058e-007
5.78125	+6.3072349e-007	+7.4044857e-007
5.8125	+7.3689546e-007	+7.3986837e-007
5.84375	+7.5928688e-007	+6.2739304e-007
5.875	+5.4073570e-007	+7.3126006e-007
5.90625	+8.5092000e-007	+7.4490652e-007
5.9375	+3.7465479e-006	+6.1122284e-007
5.96875	+2.7345977e-006	+6.6303147e-007
6.0	+1.0871016e-006	+6.5507544e-007
6.03125	+9.3807506e-007	+7.0251696e-007
6.0625	+9.7828661e-007	+6.4917202e-007
6.09375	+7.2897217e-007	+7.6803707e-007
6.125	+5.5263735e-007	+7.2831136e-007
6.15625	+6.2326808e-007	+4.8323972e-007
6.1875	+5.3562383e-007	+3.7595362e-007
6.21875	+6.2837478e-007	+5.5500152e-007
6.25	+6.4686111e-007	+4.0515278e-007
6.28125	+8.5244608e-007	+4.1018691e-007
6.3125	+7.4981926e-007	+6.0647193e-007
6.34375	+6.6789249e-007	+6.7940169e-007
6.375	+7.0895993e-007	+6.8653441e-007
6.40625	+7.0046201e-007	+5.1553803e-007
6.4375	+6.2614885e-007	+5.4208743e-007
6.46875	+9.5486575e-007	+7.1333091e-007
6.5	+1.2481554e-006	+9.9779993e-007
6.53125	+1.0012723e-006	+8.0921052e-007
6.5625	+1.0884584e-006	+6.3530439e-007
6.59375	+7.8948540e-007	+5.5422265e-007
6.625	+6.2889865e-007	+8.2558608e-007
6.65625	+6.5972017e-007	+9.7226018e-007
6.6875	+6.0642793e-007	+7.0971618e-007
6.71875	+7.0627954e-007	+6.9208647e-007
6.75	+8.1138842e-007	+5.9902351e-007
6.78125	+7.2704660e-007	+6.6262760e-007
6.8125	+8.3815365e-007	+6.4888059e-007
6.84375	+9.9094029e-007	+4.7756691e-007
6.875	+9.0912363e-007	+6.3739697e-007
6.90625	+1.4648397e-006	+6.4228504e-007
6.9375	+3.2720620e-006	+5.3557267e-007
6.96875	+1.1258469e-006	+7.3807121e-007
7.0	+7.3067175e-005	+7.0685826e-005
7.03125	+2.7759938e-004	+2.7251549e-004
7.0625	+6.9853661e-005	+6.7266796e-005
7.09375	+5.8138573e-007	+5.4497104e-007
7.125	+8.5649145e-007	+5.8354988e-007
7.15625	+9.6224971e-007	+8.2495723e-007
7.1875	+7.6662758e-007	+5.0463535e-007
7.21875	+5.8994829e-007	+5.9762624e-007
7.25	+9.4487058e-007	+5.6314332e-007
7.28125	+1.0181182e-006	+5.6905611e-007
7.3125	+9.5298049e-007	+4.6615511e-007
7.34375	+7.8158428e-007	+6.9413665e-007
7.375	+8.1273117e-007	+7.6491739e-007
7.40625	+6.7608511e-007	+5.2743036e-007
7.4375	+5.4859470e-007	+4.5722555e-007
7.46875	+7.2327106e-007	+6.1410321e-007
7.5	+6.9149633e-007	+5.0094218e-007
7.53125	+7.2791403e-007	+4.3118683e-007
7.5625	+7.6410822e-007	+3.6446275e-007
7.59375	+6.6573125e-007	+5.5478887e-007
7.625	+8.7997125e-007	+5.2626069e-007
7.65625	+8.1959354e-007	+5.3256747e-007
7.6875	+8.8657850e-007	+6.7683595e-007
7.71875	+5.7574675e-007	+6.7125512e-007
7.75	+7.0339684e-007	+8.2939835e-007
7.78125	+8.8975366e-007	+7.7917917e-007
7.8125	+7.8241709e-007	+7.1768386e-007
7.84375	+6.3578938e-007	+5.9751011e-007
7.875	+7.0417883e-007	+6.4327804e-007
7.90625	+2.3753450e-006	+5.5108978e-007
7.9375	+2.0884072e-006	+5.6402757e-007
7.96875	+8.1460814e-007	+6.9003329e-007
8.0	+8.4262695e-007	+6.3986585e-007
8.03125	+6.9774018e-007	+6.9607671e-007
8.0625	+7.8427229e-007	+9.1270914e-007
8.09375	+9.4255887e-007	+8.4089589e-007
8.125	+1.1892262e-006	+5.7336536e-007
8.15625	+1.0970814e-006	+6.4267937e-007
8.1875	+9.7666498e-007	+4.4867392e-007
8.21875	+8.0736902e-007	+5.8985245e-007
8.25	+9.0726786e-007	+7.1117410e-007
8.28125	+1.0509075e-006	+6.1447150e-007
8.3125	+8.9321372e-007	+6.6591764e-007
8.34375	+9.6494864e-007	+9.3274269e-007
8.375	+7.6948714e-007	+9.8023384e-007
8.40625	+5.3016669e-007	+9.7213422e-007
8.4375	+6.4231114e-007	+7.7548106e-007
8.46875	+6.4384261e-007	+7.4576661e-007
8.5	+6.6726432e-007	+9.3083571e-007
8.53125	+8.3523963e-007	+5.8255506e-007
8.5625	+8.4889876e-007	+6.8611388e-007
8.59375	+8.4452012e-007	+6.2281930e-007
8.625	+6.5447733e-007	+8.2062820e-007
8.65625	+6.3194420e-007	+6.5691427e-007
8.6875	+5.0691995e-007	+5.6941235e-007
8.71875	+6.2622928e-007	+8.3662741e-007
8.75	+5.9545238e-007	+9.2045713e-007
8.78125	+7.1817891e-007	+9.4431260e-007
8.8125	+7.9429702e-007	+8.6406959e-007
8.84375	+8.5993361e-007	+6.8949788e-007
8.875	+1.0218587e-006	+6.2389796e-007
8.90625	+2.2736335e-006	+4.9367799e-007
8.9375	+1.0340819e-006	+4.9949500e-007
8.96875	+6.4733359e-007	+5.9722873e-007
9.0	+6.4602642e-007	+6.3607843e-007
9.03125	+6.8125041e-007	+6.0532568e-007
9.0625	+7.0150645e-007	+7.6137644e-007
9.09375	+4.7954620e-007	+7.5892098e-007
9.125	+6.3700026e-007	+6.5523875e-007
9.15625	+7.9586573e-007	+6.6891920e-007
9.1875	+6.6688932e-007	+8.1051138e-007
9.21875	+7.4311265e-007	+7.0538522e-007
9.25	+1.0375200e-006	+9.6923952e-007
9.28125	+9.3186441e-007	+7.7582257e-007
9.3125	+1.0040685e-006	+7.6722540e-007
9.34375	+1.1110874e-006	+9.2259404e-007
9.375	+1.1416068e-006	+7.2966884e-007
9.40625	+9.2722473e-007	+8.9133567e-007
9.4375	+8.5404810e-007	+5.9034028e-007
9.46875	+6.4193324e-007	+6.2122393e-007
9.5	+7.1228294e-007	+8.6075164e-007
9.53125	+9.9790623e-007	+8.0967266e-007
9.5625	+7.3656867e-007	+5.3063025e-007
9.59375	+6.8130879e-007	+5.7174407e-007
9.625	+6.1493114e-007	+5.4572007e-007
9.65625	+5.0396147e-007	+6.3747251e-007
9.6875	+6.5756518e-007	+8.2566584e-007
9.71875	+7.3082981e-007	+7.5033154e-007
9.75	+7.5256912e-007	+5.9401253e-007
9.78125	+7.3223703e-007	+7.2141285e-007
9.8125	+6.5196207e-007	+7.3755677e-007
9.84375	+7.1468008e-007	+7.8960937e-007
9.875	+1.5710253e-006	+8.0584221e-007
9.90625	+2.1309663e-006	+5.8005253e-007
9.9375	+9.7709938e-007	+4.9612430e-007
9.96875	+6.1560257e-007	+6.6554634e-007
10.0	+5.8381522e-007	+5.8644730e-007
10.03125	+7.4875311e-007	+5.7288770e-007
10.0625	+7.7062015e-007	+6.7855035e-007
10.09375	+6.3673804e-007	+7.7099168e-007
10.125	+8.2517283e-007	+7.2328140e-007
10.15625	+9.4438724e-007	+8.6369681e-007
10.1875	+7.6043489e-007	+5.9689637e-007
10.21875	+6.6663529e-007	+7.0660684e-007
10.25	+8.2505869e-007	+8.5130966e-007
10.28125	+1.0447433e-006	+8.2914431e-007
10.3125	+1.2470211e-006	+1.0070992e-006
10.34375	+1.1643612e-006	+9.7734835e-007
10.375	+9.1456593e-007	+7.9199015e-007
10.40625	+1.0447455e-006	+6.2089322e-007
10.4375	+7.9893266e-007	+5.6753112e-007
10.46875	+9.2973869e-007	+9.9366844e-007
10.5	+1.0525899e-006	+1.0656430e-006
10.53125	+1.3144726e-006	+8.9190053e-007
10.5625	+3.2103383e-006	+2.2600714e-006
10.59375	+6.4568744e-006	+5.5429023e-006
10.625	+6.8120853e-006	+5.1816037e-006
10.65625	+1.8467575e-006	+1.6354126e-006
10.6875	+9.0752394e-007	+1.0693561e-006
10.71875	+1.1815902e-006	+6.9189656e-007
10.75	+1.0119319e-006	+6.1510468e-007
10.78125	+1.2644497e-006	+9.3106360e-007
10.8125	+1.3918208e-006	+1.0648208e-006
10.84375	+1.5613064e-006	+1.1594090e-006
10.875	+2.3772704e-006	+9.5419603e-007
10.90625	+2.5940542e-006	+1.3254187e-006
10.9375	+1.6587827e-006	+1.3340120e-006
10.96875	+2.0128573e-006	+1.6506616e-006
11.0	+1.7174751e-006	+1.7909982e-006
11.03125	+1.5198420e-006	+1.4263397e-006
11.0625	+1.2687259e-006	+9.0877433e-007
11.09375	+2.2663160e-006	+1.4207925e-006
11.125	+1.9546114e-006	+1.7058777e-006
11.15625	+8.5535339e-007	+9.0396873e-007
11.1875	+6.9141129e-007	+7.5686563e-007
11.21875	+8.0818938e-007	+8.2868104e-007
11.25	+1.3224881e-006	+9.3059248e-007
11.28125	+1.6990606e-006	+1.0454135e-006
11.3125	+1.4770833e-006	+1.3392130e-006
11.34375	+1.4801143e-006	+1.5710082e-006
11.375	+1.2313719e-006	+1.1855666e-006
11.40625	+8.7327044e-007	+7.8895772e-007
11.4375	+1.1954747e-006	+1.2387719e-006
11.46875	+1.3317319e-006	+1.5535567e-006
11.5	+1.6699188e-006	+1.4713921e-006
11.53125	+1.5932113e-006	+1.5095228e-006
11.5625	+1.4724603e-006	+1.5310167e-006
11.59375	+2.1124674e-006	+2.9101179e-006
11.625	+2.7470564e-006	+3.6175572e-006
11.65625	+2.5750360e-006	+2.9107698e-006
11.6875	+1.5084806e-006	+2.2886209e-006
11.71875	+2.0534280e-006	+2.4122241e-006
11.75	+2.6210894e-006	+2.8288200e-006
11.78125	+2.8681604e-006	+3.4853533e-006
11.8125	+3.0187418e-006	+3.8560406e-006
11.84375	+4.9337673e-006	+3.8871140e-006
11.875	+4.4659591e-006	+3.4360680e-006
11.90625	+4.1588546e-006	+3.9202237e-006
11.9375	+7.1324398e-006	+8.8991292e-006
11.96875	+1.3223676e-005	+1.5132084e-005
12.0	+9.3765084e-005	+9.3756331e-005
12.03125	+1.8811889e-004	+1.7822102e-004
12.0625	+2.9189563e-005	+2.6194035e-005
12.09375	+4.6884375e-006	+4.7936251e-006
12.125	+3.9693869e-006	+3.2161136e-006
12.15625	+3.8071148e-006	+3.2268131e-006
12.1875	+3.8804574e-006	+3.3401982e-006
12.21875	+3.1136919e-006	+2.9871328e-006
12.25	+2.9770549e-006	+3.2722453e-006
12.28125	+2.7944461e-006	+2.8857485e-006
12.3125	+2.0265506e-006	+2.5015358e-006
12.34375	+2.4177396e-006	+2.3446453e-006
12.375	+1.9871500e-006	+1.9974727e-006
12.40625	+1.5966787e-006	+1.5290511e-006
12.4375	+1.0278201e-006	+1.0585098e-006
12.46875	+1.0663464e-006	+1.2065846e-006
12.5	+1.3650604e-006	+1.0667633e-006
   
Frequenz	Vx2	Vy2
Hz	V\+(2)/Hz	V\+(2)/Hz
#0.0078125	#+3.4729010e-001	#+7.3507324e+003
#0.015625	#+8.6800687e-002	#+1.8376656e+003
0.0234375	+3.2892508e-006	+3.8147009e-006
0.03125	+2.3951463e-006	+2.0764719e-006
0.0390625	+2.2439501e-006	+1.9280935e-006
0.046875	+1.7374832e-006	+1.5574968e-006
0.0546875	+1.2503912e-006	+1.4510412e-006
0.0625	+1.2725652e-006	+1.2437846e-006
0.0703125	+1.1668081e-006	+9.4487473e-007
0.078125	+8.8778830e-007	+1.2216625e-006
0.0859375	+1.0770092e-006	+1.0797478e-006
0.09375	+1.3837420e-006	+1.0812176e-006
0.1015625	+1.2036722e-006	+9.2487198e-007
0.109375	+1.2842490e-006	+1.0078613e-006
0.1171875	+1.4643653e-006	+1.1635969e-006
0.125	+8.9311175e-007	+1.1212653e-006
0.1328125	+1.0154255e-006	+1.1233416e-006
0.140625	+1.1938994e-006	+9.9829526e-007
0.1484375	+1.0969670e-006	+9.2783580e-007
0.15625	+8.7047135e-007	+9.7566499e-007
0.1640625	+9.0328609e-007	+1.0540125e-006
0.171875	+9.9601800e-007	+7.8922716e-007
0.1796875	+1.0243726e-006	+8.1717826e-007
0.1875	+1.0550024e-006	+9.3279186e-007
0.1953125	+7.4817621e-007	+8.0610857e-007
0.203125	+1.0092411e-006	+5.9806405e-007
0.2109375	+1.0087482e-006	+4.7704498e-007
0.21875	+8.8595476e-007	+8.8420848e-007
0.2265625	+9.9085980e-007	+1.0495814e-006
0.234375	+1.0787264e-006	+8.7928362e-007
0.2421875	+9.6369195e-007	+9.0140668e-007
0.25	+7.5885436e-007	+7.7221159e-007
0.2578125	+8.9205037e-007	+5.2196151e-007
0.265625	+9.1851371e-007	+6.6235629e-007
0.2734375	+7.7533463e-007	+7.9792011e-007
0.28125	+8.9178599e-007	+9.3682343e-007
0.2890625	+9.0371168e-007	+9.7446275e-007
0.296875	+1.0144025e-006	+9.6782094e-007
0.3046875	+9.7954091e-007	+7.6009513e-007
0.3125	+1.0098386e-006	+8.4301649e-007
0.3203125	+1.0988982e-006	+6.8470513e-007
0.328125	+1.2115268e-006	+8.5199787e-007
0.3359375	+9.0088230e-007	+7.8249531e-007
0.34375	+1.3870778e-006	+7.9786844e-007
0.3515625	+1.0392324e-006	+6.8913687e-007
0.359375	+8.4557041e-007	+9.2927229e-007
0.3671875	+8.7354567e-007	+9.9120041e-007
0.375	+1.0246168e-006	+7.6998748e-007
0.3828125	+9.2955599e-007	+7.6398993e-007
0.390625	+9.4388241e-007	+7.4160636e-007
0.3984375	+9.2132564e-007	+8.8152433e-007
0.40625	+1.0131748e-006	+9.9078693e-007
0.4140625	+8.2226512e-007	+1.1845036e-006
0.421875	+1.0182021e-006	+9.1710393e-007
0.4296875	+9.5203092e-007	+8.5225895e-007
0.4375	+9.3340759e-007	+6.7493772e-007
0.4453125	+8.4817020e-007	+5.0339963e-007
0.453125	+7.9627915e-007	+7.6509212e-007
0.4609375	+7.4865198e-007	+9.9205613e-007
0.46875	+9.0796647e-007	+7.3849350e-007
0.4765625	+1.0089930e-006	+8.0558209e-007
0.484375	+1.0737091e-006	+7.3298349e-007
0.4921875	+9.2473385e-007	+9.2521321e-007
0.5	+8.0739738e-007	+7.3299879e-007
0.5078125	+8.5864389e-007	+7.1273121e-007
0.515625	+9.5247839e-007	+8.3633444e-007
0.5234375	+9.9734314e-007	+6.9318082e-007
0.53125	+1.3995225e-006	+6.3401592e-007
0.5390625	+1.2233954e-006	+1.0361971e-006
0.546875	+8.3603055e-007	+1.1977239e-006
0.5546875	+9.9858028e-007	+8.7529588e-007
0.5625	+1.0658290e-006	+6.2880542e-007
0.5703125	+1.0377786e-006	+8.1509484e-007
0.578125	+9.4665455e-007	+9.9869976e-007
0.5859375	+1.0482121e-006	+1.3423310e-006
0.59375	+1.0748238e-006	+9.1389643e-007
0.6015625	+8.9473610e-007	+6.2209352e-007
0.609375	+8.4529933e-007	+5.5938915e-007
0.6171875	+1.0502869e-006	+7.0767828e-007
0.625	+9.7005079e-007	+7.3171219e-007
0.6328125	+1.1758866e-006	+8.3815269e-007
0.640625	+7.4688762e-007	+9.8283965e-007
0.6484375	+7.3631401e-007	+1.3594113e-006
0.65625	+1.1434836e-006	+9.5574262e-007
0.6640625	+1.2061156e-006	+8.6923075e-007
0.671875	+9.8093039e-007	+7.9926252e-007
0.6796875	+7.8849439e-007	+9.7067198e-007
0.6875	+9.4164551e-007	+1.2393392e-006
0.6953125	+1.0894184e-006	+1.0109591e-006
0.703125	+1.3102205e-006	+8.4784244e-007
0.7109375	+8.2619181e-007	+7.5421275e-007
0.71875	+8.6839799e-007	+7.9205103e-007
0.7265625	+1.0050127e-006	+7.6197267e-007
0.734375	+9.7454722e-007	+8.8548114e-007
0.7421875	+1.0094893e-006	+1.0326183e-006
0.75	+1.0518702e-006	+8.2358162e-007
0.7578125	+9.5809401e-007	+8.9213756e-007
0.765625	+8.4963727e-007	+9.3191966e-007
0.7734375	+8.3055750e-007	+7.2587807e-007
0.78125	+7.8158342e-007	+7.6508877e-007
0.7890625	+9.1418542e-007	+9.8129021e-007
0.796875	+7.8391156e-007	+6.7295161e-007
0.8046875	+7.6285500e-007	+7.2555059e-007
0.8125	+9.9194074e-007	+1.0187343e-006
0.8203125	+1.1243127e-006	+9.2080381e-007
0.828125	+6.6232644e-007	+7.2933886e-007
0.8359375	+5.3295003e-007	+5.8267659e-007
0.84375	+7.3231740e-007	+7.5593715e-007
0.8515625	+9.0928233e-007	+8.8850697e-007
0.859375	+1.0149673e-006	+9.6249494e-007
0.8671875	+6.6554412e-007	+1.0512064e-006
0.875	+7.5322299e-007	+8.4655045e-007
0.8828125	+7.8350456e-007	+7.9460580e-007
0.890625	+1.0786198e-006	+8.7475405e-007
0.8984375	+1.0487059e-006	+1.0590621e-006
0.90625	+9.9431668e-007	+9.0098712e-007
0.9140625	+8.0907103e-007	+9.0574008e-007
0.921875	+8.3726604e-007	+7.9618297e-007
0.9296875	+1.1561242e-006	+8.4377029e-007
0.9375	+1.3838604e-006	+6.8229468e-007
0.9453125	+1.2058468e-006	+6.2001715e-007
0.953125	+6.0047091e-007	+8.4009025e-007
0.9609375	+8.4991808e-007	+7.8773121e-007
0.96875	+8.7915623e-007	+6.2973538e-007
0.9765625	+7.5198597e-007	+1.1038743e-006
0.984375	+2.3766129e-006	+1.2734570e-006
0.9921875	+1.2604576e-005	+2.9048824e-006
1.0	+1.5552429e-005	+9.5017003e-006
1.0078125	+9.6091526e-006	+1.1032576e-005
1.015625	+1.8323004e-005	+1.9567115e-005
1.0234375	+1.9149898e-005	+1.9678006e-005
1.03125	+1.1016622e-005	+1.1004558e-005
1.0390625	+5.0530175e-006	+4.1225885e-006
1.046875	+2.3402215e-006	+1.8400985e-006
1.0546875	+1.2258816e-006	+9.0398458e-007
1.0625	+9.8812745e-007	+6.3152942e-007
1.0703125	+5.8648340e-007	+5.6329793e-007
1.078125	+5.2838845e-007	+8.4972402e-007
1.0859375	+9.9927229e-007	+9.4822741e-007
1.09375	+1.0619323e-006	+6.1917564e-007
1.1015625	+1.1425674e-006	+4.8439404e-007
1.109375	+8.8128434e-007	+6.1716662e-007
1.1171875	+6.9229168e-007	+8.3451181e-007
1.125	+8.7040064e-007	+8.9608596e-007
1.1328125	+6.8606420e-007	+7.5749244e-007
1.140625	+6.3167710e-007	+7.9479952e-007
1.1484375	+7.0074049e-007	+7.5412743e-007
1.15625	+7.9573903e-007	+8.0495261e-007
1.1640625	+8.6223196e-007	+6.4923404e-007
1.171875	+7.4185800e-007	+6.5394863e-007
1.1796875	+8.7058413e-007	+7.1204914e-007
1.1875	+8.7571021e-007	+5.4829121e-007
1.1953125	+8.5130034e-007	+6.4456759e-007
1.203125	+9.5076069e-007	+9.1977824e-007
1.2109375	+8.2533228e-007	+8.8060631e-007
1.21875	+1.0579998e-006	+8.2246470e-007
1.2265625	+1.1172443e-006	+7.8951660e-007
1.234375	+1.1236610e-006	+6.9203634e-007
1.2421875	+1.0661205e-006	+5.7115494e-007
1.25	+9.0441642e-007	+7.3890715e-007
1.2578125	+9.5149585e-007	+6.2416586e-007
1.265625	+8.0223157e-007	+5.6499880e-007
1.2734375	+5.5814434e-007	+6.1805628e-007
1.28125	+8.4148695e-007	+6.6877527e-007
1.2890625	+1.0868366e-006	+8.0619265e-007
1.296875	+1.1279800e-006	+6.1152423e-007
1.3046875	+8.6266380e-007	+5.9359462e-007
1.3125	+9.8107250e-007	+7.7407321e-007
1.3203125	+1.0244650e-006	+9.0378904e-007
1.328125	+7.7553045e-007	+7.9906334e-007
1.3359375	+7.7561049e-007	+1.0343068e-006
1.34375	+1.0061024e-006	+7.9230500e-007
1.3515625	+8.4672331e-007	+1.0355022e-006
1.359375	+7.6134131e-007	+7.7915433e-007
1.3671875	+8.3182238e-007	+4.5391727e-007
1.375	+1.0302097e-006	+5.9983768e-007
1.3828125	+6.9801911e-007	+5.9653928e-007
1.390625	+7.0691027e-007	+9.1900199e-007
1.3984375	+7.9935120e-007	+1.1015510e-006
1.40625	+1.0763318e-006	+7.7136758e-007
1.4140625	+9.4218433e-007	+6.2934691e-007
1.421875	+1.1119356e-006	+9.5753762e-007
1.4296875	+1.2811887e-006	+7.7218192e-007
1.4375	+1.1893150e-006	+7.5572882e-007
1.4453125	+1.0695346e-006	+6.3745853e-007
1.453125	+7.0982526e-007	+1.0734310e-006
1.4609375	+7.7144978e-007	+9.0505716e-007
1.46875	+7.8724440e-007	+5.2074398e-007
1.4765625	+6.7985985e-007	+4.6986307e-007
1.484375	+9.0004488e-007	+8.2724745e-007
1.4921875	+9.1821323e-007	+1.0895189e-006
1.5	+8.4367304e-007	+8.0901418e-007
1.5078125	+8.1143116e-007	+5.6918293e-007
1.515625	+1.0415066e-006	+5.8185066e-007
1.5234375	+7.3349793e-007	+6.0382087e-007
1.53125	+8.7326083e-007	+6.6136215e-007
1.5390625	+1.0851376e-006	+7.7596485e-007
1.546875	+7.6023122e-007	+7.5814478e-007
1.5546875	+7.2173845e-007	+6.1513845e-007
1.5625	+7.4947110e-007	+5.7494447e-007
1.5703125	+1.0498857e-006	+8.9607806e-007
1.578125	+1.0310188e-006	+9.7088514e-007
1.5859375	+1.0076467e-006	+6.2936215e-007
1.59375	+8.0416112e-007	+5.8993595e-007
1.6015625	+6.0803541e-007	+7.5557449e-007
1.609375	+5.7981248e-007	+8.5728271e-007
1.6171875	+1.0605795e-006	+5.6911233e-007
1.625	+1.5234625e-006	+6.8516914e-007
1.6328125	+1.1661011e-006	+6.0878625e-007
1.640625	+9.9271756e-007	+5.2126052e-007
1.6484375	+8.7841710e-007	+6.6778540e-007
1.65625	+6.5828897e-007	+7.5597944e-007
1.6640625	+9.5322537e-007	+7.3284508e-007
1.671875	+9.6629412e-007	+6.9305372e-007
1.6796875	+6.8492767e-007	+6.0188148e-007
1.6875	+7.9770990e-007	+7.0755789e-007
1.6953125	+7.5400408e-007	+7.0540841e-007
1.703125	+6.7540770e-007	+5.7123833e-007
1.7109375	+7.3866624e-007	+6.9627390e-007
1.71875	+7.1644621e-007	+6.3997612e-007
1.7265625	+8.6312804e-007	+4.9164629e-007
1.734375	+8.3831191e-007	+4.4269811e-007
1.7421875	+9.8803412e-007	+5.4403006e-007
1.75	+1.1147838e-006	+7.5388982e-007
1.7578125	+6.7459763e-007	+1.1216248e-006
1.765625	+7.0763946e-007	+9.1819612e-007
1.7734375	+8.6604041e-007	+7.3935109e-007
1.78125	+7.7968491e-007	+9.2829538e-007
1.7890625	+1.0600952e-006	+7.7592051e-007
1.796875	+9.0638076e-007	+9.3203323e-007
1.8046875	+1.1435953e-006	+8.0869802e-007
1.8125	+9.1725599e-007	+7.0830095e-007
1.8203125	+8.6614500e-007	+6.7973593e-007
1.828125	+1.0153586e-006	+6.4805039e-007
1.8359375	+9.2222035e-007	+5.6340059e-007
1.84375	+7.7482400e-007	+8.8081322e-007
1.8515625	+5.9208452e-007	+1.1874961e-006
1.859375	+5.4600480e-007	+1.0251570e-006
1.8671875	+6.1307117e-007	+7.9716966e-007
1.875	+6.2964688e-007	+7.5965465e-007
1.8828125	+7.7183779e-007	+6.2659586e-007
1.890625	+7.5275091e-007	+5.2190711e-007
1.8984375	+8.4470281e-007	+7.3088842e-007
1.90625	+6.8341927e-007	+8.1968716e-007
1.9140625	+4.7965204e-007	+5.6589408e-007
1.921875	+5.5522395e-007	+6.7667327e-007
1.9296875	+8.4232909e-007	+7.7154039e-007
1.9375	+1.0842526e-006	+1.0492680e-006
1.9453125	+8.7567940e-007	+9.7551072e-007
1.953125	+7.6984634e-007	+7.3170014e-007
1.9609375	+8.5316333e-007	+7.0605159e-007
1.96875	+1.2595569e-006	+4.8649082e-007
1.9765625	+1.0736384e-005	+6.2763280e-007
1.984375	+8.2561419e-006	+7.2633412e-007
1.9921875	+6.6497296e-007	+6.5198140e-007
2.0	+5.6926922e-007	+7.0472100e-007
2.0078125	+5.3607744e-007	+6.7445029e-007
2.015625	+6.8776643e-007	+7.5911350e-007
2.0234375	+1.1326737e-006	+7.7726094e-007
2.03125	+8.9061376e-007	+7.1337161e-007
2.0390625	+7.4702211e-007	+7.2135344e-007
2.046875	+9.8590044e-007	+4.8507422e-007
2.0546875	+8.7243666e-007	+6.5115444e-007
2.0625	+8.9639690e-007	+5.7814503e-007
2.0703125	+6.3224957e-007	+6.7614968e-007
2.078125	+5.4902074e-007	+9.2042177e-007
2.0859375	+7.1187486e-007	+7.7414035e-007
2.09375	+6.2627259e-007	+8.4003216e-007
2.1015625	+7.2277015e-007	+9.9642045e-007
2.109375	+6.9482519e-007	+6.5087994e-007
2.1171875	+7.7432054e-007	+6.0087717e-007
2.125	+8.4205908e-007	+7.8876025e-007
2.1328125	+8.8172663e-007	+7.2475200e-007
2.140625	+8.8532266e-007	+7.9197883e-007
2.1484375	+1.2580920e-006	+7.7643182e-007
2.15625	+1.0808295e-006	+5.9417363e-007
2.1640625	+8.2479238e-007	+6.9594984e-007
2.171875	+6.2880127e-007	+7.5716321e-007
2.1796875	+8.1675125e-007	+6.3474243e-007
2.1875	+8.7922280e-007	+9.1419645e-007
2.1953125	+7.4377300e-007	+9.5814664e-007
2.203125	+7.8561504e-007	+8.4865832e-007
2.2109375	+8.5416343e-007	+5.7987484e-007
2.21875	+7.9266437e-007	+4.9971828e-007
2.2265625	+7.9777118e-007	+6.5544020e-007
2.234375	+7.6779003e-007	+1.1483602e-006
2.2421875	+1.1205145e-006	+1.0138658e-006
2.25	+1.1810440e-006	+8.7089199e-007
2.2578125	+8.7947382e-007	+8.9391324e-007
2.265625	+6.0237397e-007	+8.9629947e-007
2.2734375	+7.5582511e-007	+8.3513788e-007
2.28125	+1.0055556e-006	+7.7656824e-007
2.2890625	+8.9202882e-007	+6.6424542e-007
2.296875	+6.4413183e-007	+7.1276253e-007
2.3046875	+7.3148169e-007	+8.3702707e-007
2.3125	+8.3709415e-007	+6.1893161e-007
2.3203125	+6.8020927e-007	+5.3451350e-007
2.328125	+6.7096698e-007	+6.7228996e-007
2.3359375	+8.8309173e-007	+7.6727764e-007
2.34375	+1.1312966e-006	+8.3945679e-007
2.3515625	+1.0370428e-006	+7.8221785e-007
2.359375	+9.5773112e-007	+6.9320134e-007
2.3671875	+8.2947940e-007	+5.2413924e-007
2.375	+7.0845340e-007	+8.1249027e-007
2.3828125	+7.6190827e-007	+8.3218413e-007
2.390625	+1.1456614e-006	+6.7819582e-007
2.3984375	+9.3480139e-007	+8.7040257e-007
2.40625	+7.2456663e-007	+7.4348969e-007
2.4140625	+6.7062308e-007	+7.4735357e-007
2.421875	+9.2673213e-007	+5.6998408e-007
2.4296875	+7.5546836e-007	+7.2176937e-007
2.4375	+6.7346241e-007	+1.1093979e-006
2.4453125	+7.7751014e-007	+8.5130688e-007
2.453125	+8.4735854e-007	+7.3946637e-007
2.4609375	+7.6282737e-007	+6.9501516e-007
2.46875	+7.6053340e-007	+8.5006741e-007
2.4765625	+7.5003339e-007	+9.5256308e-007
2.484375	+7.3977088e-007	+5.6512539e-007
2.4921875	+8.9075456e-007	+5.5485162e-007
2.5	+9.1105915e-007	+8.2419581e-007
2.5078125	+8.1910417e-007	+8.0664864e-007
2.515625	+8.1931103e-007	+7.1093672e-007
2.5234375	+7.7384118e-007	+7.7889263e-007
2.53125	+7.6899306e-007	+6.8700945e-007
2.5390625	+7.9758377e-007	+4.4383211e-007
2.546875	+8.8180019e-007	+8.4249740e-007
2.5546875	+1.1547021e-006	+8.5632973e-007
2.5625	+6.5446511e-007	+7.0673798e-007
2.5703125	+6.7371161e-007	+3.9482970e-007
2.578125	+7.8536840e-007	+5.8682605e-007
2.5859375	+9.3790101e-007	+8.0105298e-007
2.59375	+1.1043556e-006	+6.9686587e-007
2.6015625	+1.0484192e-006	+9.1966513e-007
2.609375	+1.1609146e-006	+1.3037944e-006
2.6171875	+1.3109357e-006	+1.1212751e-006
2.625	+9.5935616e-007	+9.2886017e-007
2.6328125	+5.8743780e-007	+7.9645838e-007
2.640625	+8.0160288e-007	+6.1771641e-007
2.6484375	+9.7280156e-007	+6.4557332e-007
2.65625	+1.1770866e-006	+6.1135978e-007
2.6640625	+7.3665279e-007	+6.4252629e-007
2.671875	+6.9858953e-007	+6.6691933e-007
2.6796875	+5.8346018e-007	+6.5330420e-007
2.6875	+6.0457381e-007	+6.7843860e-007
2.6953125	+6.8974242e-007	+8.1060659e-007
2.703125	+7.6838120e-007	+8.2147017e-007
2.7109375	+7.9626079e-007	+8.4589448e-007
2.71875	+8.5461556e-007	+9.3654472e-007
2.7265625	+1.1343127e-006	+8.6512330e-007
2.734375	+8.8093316e-007	+6.4600658e-007
2.7421875	+6.5184327e-007	+4.7550284e-007
2.75	+9.3189919e-007	+6.1641424e-007
2.7578125	+8.0699056e-007	+6.1688547e-007
2.765625	+7.9313099e-007	+6.3599811e-007
2.7734375	+9.5975440e-007	+6.1423003e-007
2.78125	+7.6264985e-007	+6.2438039e-007
2.7890625	+7.9241289e-007	+8.6426689e-007
2.796875	+6.5134390e-007	+7.7283164e-007
2.8046875	+6.9637713e-007	+7.3936485e-007
2.8125	+7.8878099e-007	+6.3660451e-007
2.8203125	+6.0817160e-007	+6.4376911e-007
2.828125	+9.6966960e-007	+6.9630448e-007
2.8359375	+1.4616361e-006	+7.9539836e-007
2.84375	+1.0974850e-006	+3.9663024e-007
2.8515625	+6.5497119e-007	+4.2816987e-007
2.859375	+5.0719217e-007	+5.8356079e-007
2.8671875	+7.1425961e-007	+7.3829489e-007
2.875	+8.3193015e-007	+6.9760534e-007
2.8828125	+9.0289541e-007	+6.9905605e-007
2.890625	+6.9493962e-007	+7.8814560e-007
2.8984375	+7.3723862e-007	+5.7782711e-007
2.90625	+7.4343336e-007	+6.2679402e-007
2.9140625	+5.3971604e-007	+9.5746202e-007
2.921875	+7.9227806e-007	+1.0270012e-006
2.9296875	+1.0376897e-006	+6.8909526e-007
2.9375	+8.0821422e-007	+6.2752190e-007
2.9453125	+6.0948315e-007	+5.5487965e-007
2.953125	+8.0939355e-007	+5.3980909e-007
2.9609375	+1.0618798e-005	+6.1916404e-007
2.96875	+1.5428204e-005	+6.5083918e-007
2.9765625	+1.6962125e-006	+6.8630754e-007
2.984375	+6.5628996e-007	+7.4466124e-007
2.9921875	+9.1084911e-007	+4.3675109e-007
3.0	+6.3625305e-007	+6.4121053e-007
3.0078125	+7.2420636e-007	+8.6328629e-007
3.015625	+8.3283311e-007	+9.1883345e-007
3.0234375	+5.9527065e-007	+7.3345524e-007
3.03125	+5.0937928e-007	+8.3903660e-007
3.0390625	+6.2113116e-007	+7.6319179e-007
3.046875	+6.1313170e-007	+5.2771998e-007
3.0546875	+8.1425407e-007	+6.0682692e-007
3.0625	+8.3021831e-007	+8.7353317e-007
3.0703125	+7.6797721e-007	+6.2361579e-007
3.078125	+6.7292950e-007	+6.5766335e-007
3.0859375	+6.5192484e-007	+5.7677619e-007
3.09375	+7.2311144e-007	+5.3270662e-007
3.1015625	+7.1499244e-007	+6.8115696e-007
3.109375	+4.9789236e-007	+8.3879070e-007
3.1171875	+3.9614409e-007	+6.6145077e-007
3.125	+5.2510234e-007	+6.1098933e-007
   