Frequenz   Vx2   Vy2
Hz   V\+(2)/Hz   V\+(2)/Hz
Frequenz	Vx2	Vy2
Hz	V\+(2)/Hz	V\+(2)/Hz
#0.00390625	#+6.4422127e+001	#+1.9388715e+004
#0.0078125	#+1.6145840e+001	#+4.8469038e+003
0.01171875	+1.6643703e-002	+4.3920937e-004
0.015625	+1.2471153e-002	+4.4850892e-004
0.01953125	+1.0425194e-002	+2.8219967e-004
0.0234375	+5.6916671e-003	+1.4175414e-004
0.02734375	+2.5910896e-003	+7.3817493e-005
0.03125	+2.6422429e-003	+7.0526206e-005
0.03515625	+2.2358173e-003	+6.7158166e-005
0.0390625	+2.0857260e-003	+6.3732135e-005
0.04296875	+1.3916267e-003	+3.6876248e-005
0.046875	+8.7664812e-004	+1.7159484e-005
0.05078125	+7.4187922e-004	+2.2753340e-005
0.0546875	+5.9837702e-004	+3.1400068e-005
0.05859375	+5.8803282e-004	+2.6119251e-005
0.0625	+6.4776762e-004	+2.2293580e-005
0.06640625	+7.7915780e-004	+2.6990800e-005
0.0703125	+6.2039372e-004	+1.9780900e-005
0.07421875	+2.5328682e-004	+8.2039396e-006
0.078125	+3.5875454e-004	+1.3469475e-005
0.08203125	+4.7604716e-004	+1.4126324e-005
0.0859375	+3.7085902e-004	+1.1314519e-005
0.08984375	+2.0106882e-004	+6.6174566e-006
0.09375	+1.4732916e-004	+6.7932856e-006
0.09765625	+1.2276744e-004	+5.7194375e-006
0.1015625	+1.4965025e-004	+6.7496958e-006
0.10546875	+1.7237812e-004	+6.8262211e-006
0.109375	+1.4098574e-004	+6.6465395e-006
0.11328125	+1.9079760e-004	+7.4262325e-006
0.1171875	+1.5094491e-004	+5.9852587e-006
0.12109375	+1.6349225e-004	+6.5400536e-006
0.125	+1.1609725e-004	+7.1341706e-006
0.12890625	+1.1275410e-004	+5.4683510e-006
0.1328125	+1.5519465e-004	+6.3364014e-006
0.13671875	+1.6367239e-004	+6.7693704e-006
0.140625	+1.5139345e-004	+6.3404937e-006
0.14453125	+8.4880274e-005	+3.7084133e-006
0.1484375	+6.4516731e-005	+2.6944995e-006
0.15234375	+9.1529822e-005	+2.8788622e-006
0.15625	+1.3643083e-004	+4.6984246e-006
0.16015625	+1.3027791e-004	+4.7122494e-006
0.1640625	+1.1674655e-004	+3.3027493e-006
0.16796875	+9.1632690e-005	+3.0169856e-006
0.171875	+4.5591016e-005	+1.9167990e-006
0.17578125	+6.8924433e-005	+1.9318443e-006
0.1796875	+8.8469300e-005	+2.5741258e-006
0.18359375	+8.7576402e-005	+2.1242829e-006
0.1875	+8.7339220e-005	+2.3412522e-006
0.19140625	+6.0079736e-005	+1.9904844e-006
0.1953125	+1.4435995e-005	+5.8301964e-007
0.19921875	+2.3293063e-005	+8.2593061e-007
0.203125	+6.2139174e-005	+1.8922167e-006
0.20703125	+5.6511359e-005	+2.2246243e-006
0.2109375	+3.6162506e-005	+1.3354438e-006
0.21484375	+3.4749562e-005	+1.6911971e-006
0.21875	+4.9700917e-005	+1.6800003e-006
0.22265625	+4.5889377e-005	+1.1205613e-006
0.2265625	+3.0219586e-005	+9.0591016e-007
0.23046875	+2.6866976e-005	+1.6332772e-006
0.234375	+2.2651244e-005	+1.2608202e-006
0.23828125	+3.5808534e-005	+2.1580222e-006
0.2421875	+2.8933247e-005	+1.3684729e-006
0.24609375	+1.9456380e-005	+8.5092557e-007
0.25	+1.5390644e-005	+1.2082642e-006
0.25390625	+2.5067377e-005	+1.2634338e-006
0.2578125	+3.4212320e-005	+1.1636481e-006
0.26171875	+2.8431403e-005	+1.1051901e-006
0.265625	+2.4077233e-005	+9.9360511e-007
0.26953125	+2.4802393e-005	+1.1776204e-006
0.2734375	+2.3406687e-005	+9.8881549e-007
0.27734375	+3.1663843e-005	+1.5151569e-006
0.28125	+3.4444573e-005	+1.8166794e-006
0.28515625	+2.3694321e-005	+1.4031798e-006
0.2890625	+2.1352920e-005	+1.0291820e-006
0.29296875	+2.2889550e-005	+9.2819448e-007
0.296875	+1.7389164e-005	+1.0988487e-006
0.30078125	+2.0334890e-005	+1.6492993e-006
0.3046875	+2.3573064e-005	+1.4080643e-006
0.30859375	+1.7722254e-005	+1.0303760e-006
0.3125	+9.6515323e-006	+4.0190429e-007
0.31640625	+1.1991820e-005	+8.6233138e-007
0.3203125	+1.9611120e-005	+1.1820351e-006
0.32421875	+2.0195272e-005	+2.1465823e-006
0.328125	+2.2285945e-005	+1.6593547e-006
0.33203125	+1.5178725e-005	+1.0008129e-006
0.3359375	+1.1023156e-005	+1.2474786e-006
0.33984375	+1.0734687e-005	+8.2226785e-007
0.34375	+1.0585854e-005	+9.4467345e-007
0.34765625	+8.5465499e-006	+1.1653869e-006
0.3515625	+7.5057378e-006	+1.2582245e-006
0.35546875	+1.3213865e-005	+7.8260700e-007
0.359375	+1.5025629e-005	+7.4647932e-007
0.36328125	+1.0342807e-005	+1.0190665e-006
0.3671875	+9.3414983e-006	+1.2144221e-006
0.37109375	+2.0206295e-005	+1.1226683e-006
0.375	+2.6786181e-005	+1.2608106e-006
0.37890625	+1.9667508e-005	+1.5597780e-006
0.3828125	+1.4024698e-005	+1.2339624e-006
0.38671875	+8.8800762e-006	+7.8818971e-007
0.390625	+9.1256279e-006	+4.6715115e-007
0.39453125	+1.2133692e-005	+6.2011793e-007
0.3984375	+1.7084494e-005	+7.7560452e-007
0.40234375	+1.8318538e-005	+7.1785882e-007
0.40625	+1.2580615e-005	+3.9791612e-007
0.41015625	+1.1697096e-005	+6.9288023e-007
0.4140625	+1.4770444e-005	+1.2510586e-006
0.41796875	+2.2069207e-005	+1.7537552e-006
0.421875	+2.3780851e-005	+1.9501613e-006
0.42578125	+1.4374754e-005	+1.1448001e-006
0.4296875	+7.6360166e-006	+9.4737197e-007
0.43359375	+5.2293840e-006	+8.4607001e-007
0.4375	+1.2404718e-005	+6.9620052e-007
0.44140625	+1.0812616e-005	+5.6398670e-007
0.4453125	+5.7419252e-006	+5.5026993e-007
0.44921875	+6.7312753e-006	+5.5446492e-007
0.453125	+1.0726616e-005	+6.8273232e-007
0.45703125	+1.1379801e-005	+1.1509769e-006
0.4609375	+8.2896131e-006	+7.0955412e-007
0.46484375	+7.1175446e-006	+6.9806583e-007
0.46875	+9.4412908e-006	+5.9506152e-007
0.47265625	+1.0878814e-005	+5.1468743e-007
0.4765625	+1.0737881e-005	+7.0726736e-007
0.48046875	+7.8334806e-006	+7.5030681e-007
0.484375	+6.3068333e-006	+7.2135424e-007
0.48828125	+7.1215313e-006	+6.6876498e-007
0.4921875	+1.0189838e-005	+8.8087222e-007
0.49609375	+1.0480613e-005	+5.3131583e-007
0.5	+1.2912251e-005	+6.1644062e-007
0.50390625	+1.1649456e-005	+6.5816471e-007
0.5078125	+6.4572646e-006	+5.8469857e-007
0.51171875	+5.8924138e-006	+7.1830192e-007
0.515625	+9.5696169e-006	+4.9835558e-007
0.51953125	+1.4109614e-005	+5.5827860e-007
0.5234375	+8.3115865e-006	+5.6561453e-007
0.52734375	+7.5781272e-006	+4.6459158e-007
0.53125	+5.4275088e-006	+5.6982827e-007
0.53515625	+4.0610139e-006	+3.2941298e-007
0.5390625	+8.2992574e-006	+4.0108480e-007
0.54296875	+7.2788207e-006	+4.2836220e-007
0.546875	+3.6073677e-006	+3.8626467e-007
0.55078125	+3.2621722e-006	+4.9570775e-007
0.5546875	+6.8407394e-006	+5.9290613e-007
0.55859375	+9.4439656e-006	+5.3990573e-007
0.5625	+5.1934221e-006	+4.4604607e-007
0.56640625	+4.3854725e-006	+6.7023956e-007
0.5703125	+6.4665874e-006	+5.7829612e-007
0.57421875	+7.3149213e-006	+4.8568438e-007
0.578125	+6.0654447e-006	+7.3776738e-007
0.58203125	+3.9154056e-006	+6.5063057e-007
0.5859375	+2.8113968e-006	+3.2395144e-007
0.58984375	+7.5940943e-006	+3.9738870e-007
0.59375	+9.0732565e-006	+4.2470000e-007
0.59765625	+4.2306133e-006	+3.8264210e-007
0.6015625	+3.7832922e-006	+3.3544543e-007
0.60546875	+5.7638240e-006	+4.2509004e-007
0.609375	+8.9392015e-006	+6.6969886e-007
0.61328125	+8.5271477e-006	+6.4945436e-007
0.6171875	+5.6247654e-006	+4.3701300e-007
0.62109375	+6.9012422e-006	+5.5034729e-007
0.625	+4.5233814e-006	+4.6868266e-007
0.62890625	+2.7631188e-006	+5.1425189e-007
0.6328125	+3.9847923e-006	+4.8782374e-007
0.63671875	+5.5548558e-006	+5.1929948e-007
0.640625	+6.1224041e-006	+5.1413053e-007
0.64453125	+4.9794539e-006	+1.7365716e-007
0.6484375	+4.2366378e-006	+3.4133453e-007
0.65234375	+3.8709040e-006	+4.2077104e-007
0.65625	+5.4200354e-006	+9.0611013e-007
0.66015625	+7.7044842e-006	+6.2754947e-007
0.6640625	+5.1571637e-006	+3.2189078e-007
0.66796875	+2.5187194e-006	+2.9336266e-007
0.671875	+3.9437000e-006	+2.4513173e-007
0.67578125	+3.1937652e-006	+3.7517921e-007
0.6796875	+2.5606628e-006	+4.3062477e-007
0.68359375	+2.5461964e-006	+4.6652892e-007
0.6875	+3.3336328e-006	+3.7212857e-007
0.69140625	+5.0300678e-006	+3.9271984e-007
0.6953125	+6.1614828e-006	+2.2920986e-007
0.69921875	+4.3603527e-006	+3.9683366e-007
0.703125	+2.3731604e-006	+4.4138139e-007
0.70703125	+4.2787287e-006	+4.3843750e-007
0.7109375	+7.6244301e-006	+5.1115080e-007
0.71484375	+8.2437591e-006	+4.6776142e-007
0.71875	+4.9896166e-006	+3.5777566e-007
0.72265625	+2.9325026e-006	+3.6575074e-007
0.7265625	+4.0157433e-006	+5.5110496e-007
0.73046875	+5.6033828e-006	+7.3987729e-007
0.734375	+5.4888328e-006	+5.7087090e-007
0.73828125	+6.1676624e-006	+4.3339008e-007
0.7421875	+3.7649806e-006	+6.5094571e-007
0.74609375	+2.5741654e-006	+3.7629928e-007
0.75	+3.5852479e-006	+3.0250459e-007
0.75390625	+4.3771024e-006	+4.8322011e-007
0.7578125	+3.9253705e-006	+8.2261732e-007
0.76171875	+3.9843371e-006	+7.5828797e-007
0.765625	+3.6734566e-006	+4.7093013e-007
0.76953125	+2.6024557e-006	+5.6023492e-007
0.7734375	+3.0794349e-006	+7.0780260e-007
0.77734375	+3.2170954e-006	+6.1100678e-007
0.78125	+5.3372296e-006	+6.2987232e-007
0.78515625	+3.9580495e-006	+3.0969716e-007
0.7890625	+1.9102313e-006	+3.6189039e-007
0.79296875	+2.8986442e-006	+5.1519908e-007
0.796875	+3.4857744e-006	+4.3300577e-007
0.80078125	+3.7268671e-006	+5.6065579e-007
0.8046875	+5.2337841e-006	+3.8916832e-007
0.80859375	+4.7818344e-006	+5.5157830e-007
0.8125	+5.1216143e-006	+6.2943678e-007
0.81640625	+4.2357351e-006	+6.9648490e-007
0.8203125	+2.4716896e-006	+3.1417414e-007
0.82421875	+2.0036823e-006	+2.4185226e-007
0.828125	+2.2663583e-006	+3.8384385e-007
0.83203125	+4.3293257e-006	+3.4157560e-007
0.8359375	+3.9159904e-006	+2.7362466e-007
0.83984375	+3.1417967e-006	+3.4612594e-007
0.84375	+2.3329715e-006	+5.0428696e-007
0.84765625	+3.3778902e-006	+7.6539794e-007
0.8515625	+5.0620133e-006	+5.5685217e-007
0.85546875	+4.8296388e-006	+6.4256506e-007
0.859375	+3.8348371e-006	+4.6076130e-007
0.86328125	+2.9309706e-006	+3.9693256e-007
0.8671875	+1.9879967e-006	+4.1770772e-007
0.87109375	+2.7312551e-006	+2.9599468e-007
0.875	+3.7179491e-006	+6.5375269e-007
0.87890625	+2.9723483e-006	+5.1901389e-007
0.8828125	+2.5601819e-006	+2.5661171e-007
0.88671875	+1.8389998e-006	+2.3441973e-007
0.890625	+1.4263616e-006	+2.8940079e-007
0.89453125	+1.6681980e-006	+4.9313951e-007
0.8984375	+1.6881750e-006	+5.9420302e-007
0.90234375	+2.3557307e-006	+4.6870068e-007
0.90625	+2.5188274e-006	+4.2544022e-007
0.91015625	+2.5168370e-006	+3.8318066e-007
0.9140625	+2.4685896e-006	+4.1102004e-007
0.91796875	+1.5253270e-006	+4.3268165e-007
0.921875	+1.7344621e-006	+3.7495315e-007
0.92578125	+2.2618763e-006	+1.9902004e-007
0.9296875	+1.9785352e-006	+4.5654934e-007
0.93359375	+1.8007408e-006	+4.2277807e-007
0.9375	+2.2491497e-006	+3.9395323e-007
0.94140625	+2.0792027e-006	+5.8811480e-007
0.9453125	+2.3211317e-006	+6.6913367e-007
0.94921875	+3.6452436e-006	+4.2602358e-007
0.953125	+4.0005739e-006	+3.3327544e-007
0.95703125	+4.0405330e-006	+4.5976827e-007
0.9609375	+3.0308772e-006	+3.4686971e-007
0.96484375	+2.4127407e-006	+3.7928623e-007
0.96875	+2.1264623e-006	+3.3500010e-007
0.97265625	+2.8690488e-006	+3.0376202e-007
0.9765625	+3.0350864e-006	+2.9337039e-007
0.98046875	+1.7484065e-006	+2.2225368e-007
0.984375	+1.7464265e-006	+2.6667510e-007
0.98828125	+4.1553126e-006	+2.8720427e-007
0.9921875	+5.8242654e-006	+4.8306202e-007
0.99609375	+3.2289040e-006	+6.1792196e-007
1.0	+2.0266930e-006	+8.3130561e-007
1.00390625	+1.8046242e-006	+6.5379572e-007
1.0078125	+1.9442414e-006	+5.1644224e-007
1.01171875	+2.8986633e-006	+6.7931666e-007
1.015625	+2.2272834e-006	+4.0867062e-007
1.01953125	+1.5447799e-006	+3.3191699e-007
1.0234375	+2.6833338e-006	+3.6361538e-007
1.02734375	+3.9773790e-006	+4.2836692e-007
1.03125	+2.8070356e-006	+3.9137382e-007
1.03515625	+1.4968673e-006	+4.6480588e-007
1.0390625	+1.3106938e-006	+3.1853043e-007
1.04296875	+2.3856271e-006	+4.1111571e-007
1.046875	+2.9727498e-006	+3.5617185e-007
1.05078125	+2.7288511e-006	+3.8323327e-007
1.0546875	+2.6758021e-006	+4.6533285e-007
1.05859375	+2.2466668e-006	+6.7752450e-007
1.0625	+1.6114903e-006	+6.8154372e-007
1.06640625	+2.1184692e-006	+4.1447825e-007
1.0703125	+2.8212301e-006	+4.9625993e-007
1.07421875	+3.5143039e-006	+6.3086202e-007
1.078125	+3.2981579e-006	+3.9821157e-007
1.08203125	+1.7554948e-006	+3.0980328e-007
1.0859375	+1.0194997e-006	+4.5931671e-007
1.08984375	+1.4667515e-006	+5.2336060e-007
1.09375	+2.2315205e-006	+4.8011998e-007
1.09765625	+1.9620338e-006	+6.5096071e-007
1.1015625	+1.7150047e-006	+5.0001188e-007
1.10546875	+1.3473527e-006	+4.8723496e-007
1.109375	+2.4012736e-006	+5.1376486e-007
1.11328125	+2.3258460e-006	+4.6186597e-007
1.1171875	+2.2202930e-006	+4.0861454e-007
1.12109375	+2.5654354e-006	+4.5956136e-007
1.125	+2.1670614e-006	+3.3305449e-007
1.12890625	+1.4634700e-006	+4.4711942e-007
1.1328125	+1.0699550e-006	+4.5338032e-007
1.13671875	+1.4201438e-006	+4.6874752e-007
1.140625	+2.4185226e-006	+2.5954589e-007
1.14453125	+2.7819040e-006	+2.1447376e-007
1.1484375	+2.5928157e-006	+1.4608916e-007
1.15234375	+2.1418384e-006	+2.3070254e-007
1.15625	+2.0891503e-006	+2.3142989e-007
1.16015625	+9.0794350e-007	+1.9102481e-007
1.1640625	+2.0441894e-006	+2.7241782e-007
1.16796875	+2.8984819e-006	+4.8050072e-007
1.171875	+3.2353096e-006	+3.9635336e-007
1.17578125	+2.3405325e-006	+4.2229419e-007
1.1796875	+1.6513178e-006	+4.4698641e-007
1.18359375	+1.4409740e-006	+4.0470195e-007
1.1875	+1.2539575e-006	+4.1062128e-007
1.19140625	+1.5481436e-006	+2.9327603e-007
1.1953125	+1.5078415e-006	+2.8822845e-007
1.19921875	+1.1357421e-006	+3.6136947e-007
1.203125	+1.1533843e-006	+5.3742582e-007
1.20703125	+1.1382501e-006	+4.5470787e-007
1.2109375	+1.5540446e-006	+3.3393366e-007
1.21484375	+2.1150179e-006	+3.0188545e-007
1.21875	+1.5517752e-006	+2.3317115e-007
1.22265625	+1.5193065e-006	+3.0181883e-007
1.2265625	+1.3514078e-006	+4.0072692e-007
1.23046875	+1.4287284e-006	+4.5587012e-007
1.234375	+1.3055835e-006	+3.3432804e-007
1.23828125	+1.6051703e-006	+4.2894297e-007
1.2421875	+2.1767814e-006	+4.9901320e-007
1.24609375	+2.2818988e-006	+4.8360329e-007
1.25	+1.7544697e-006	+4.6121480e-007
1.25390625	+1.5428916e-006	+4.0125349e-007
1.2578125	+1.1724405e-006	+2.5676729e-007
1.26171875	+2.1579606e-006	+2.5677630e-007
1.265625	+3.1579648e-006	+3.3050964e-007
1.26953125	+2.1690157e-006	+3.0105662e-007
1.2734375	+1.3098537e-006	+1.8663629e-007
1.27734375	+1.1551599e-006	+3.0389276e-007
1.28125	+1.9658894e-006	+2.8985329e-007
1.28515625	+2.4033654e-006	+4.2654216e-007
1.2890625	+2.1724954e-006	+3.7744590e-007
1.29296875	+1.5890604e-006	+2.9297738e-007
1.296875	+1.1119088e-006	+2.7676066e-007
1.30078125	+1.4908036e-006	+4.3666910e-007
1.3046875	+2.0417981e-006	+3.4040039e-007
1.30859375	+2.8488805e-006	+4.5670225e-007
1.3125	+2.8097675e-006	+3.2737654e-007
1.31640625	+1.2285401e-006	+2.6134140e-007
1.3203125	+6.8024366e-007	+2.9520049e-007
1.32421875	+1.2941176e-006	+1.9490889e-007
1.328125	+1.6645005e-006	+2.8657431e-007
1.33203125	+2.2689178e-006	+3.4498052e-007
1.3359375	+1.2121881e-006	+2.3004135e-007
1.33984375	+1.1085687e-006	+3.6232495e-007
1.34375	+1.4696000e-006	+4.0418905e-007
1.34765625	+1.5701149e-006	+5.5825836e-007
1.3515625	+1.1481548e-006	+4.6255667e-007
1.35546875	+8.1479510e-007	+3.5929872e-007
1.359375	+9.3745314e-007	+2.1501299e-007
1.36328125	+1.6717166e-006	+2.2390009e-007
1.3671875	+1.6924826e-006	+2.9435705e-007
1.37109375	+8.3958031e-007	+2.0746351e-007
1.375	+6.9625554e-007	+3.5382385e-007
1.37890625	+1.2239275e-006	+4.8855378e-007
1.3828125	+2.5649003e-006	+4.2449395e-007
1.38671875	+2.5674924e-006	+2.9207357e-007
1.390625	+1.4755564e-006	+4.1187701e-007
1.39453125	+1.1293853e-006	+4.6545344e-007
1.3984375	+2.2735710e-006	+5.4029533e-007
1.40234375	+2.6182074e-006	+4.5373687e-007
1.40625	+1.7798343e-006	+3.2866444e-007
1.41015625	+2.1308001e-006	+5.2322383e-007
1.4140625	+1.6841780e-006	+5.1548824e-007
1.41796875	+6.8949407e-007	+3.6817019e-007
1.421875	+8.9048274e-007	+3.0916479e-007
1.42578125	+1.5049867e-006	+2.9398853e-007
1.4296875	+1.4383784e-006	+2.8432277e-007
1.43359375	+1.2881495e-006	+3.3017594e-007
1.4375	+8.5739475e-007	+1.8488817e-007
1.44140625	+4.6567018e-007	+3.6478062e-007
1.4453125	+1.2785763e-006	+3.8303682e-007
1.44921875	+1.5581570e-006	+4.0199166e-007
1.453125	+1.0448729e-006	+3.9800437e-007
1.45703125	+5.2190711e-007	+4.0253977e-007
1.4609375	+7.9966367e-007	+4.1848028e-007
1.46484375	+1.5394024e-006	+3.8588783e-007
1.46875	+1.2350833e-006	+3.1162946e-007
1.47265625	+4.8932901e-007	+3.7644267e-007
1.4765625	+1.1151658e-006	+4.8490006e-007
1.48046875	+1.8451401e-006	+3.6137067e-007
1.484375	+1.6213545e-006	+3.3206061e-007
1.48828125	+6.4752339e-007	+3.2007193e-007
1.4921875	+4.6895806e-007	+3.9133212e-007
1.49609375	+1.0305910e-006	+3.0021226e-007
1.5	+1.4999849e-006	+2.1182016e-007
1.50390625	+1.2453013e-006	+3.1504291e-007
1.5078125	+1.3037986e-006	+4.1127871e-007
1.51171875	+7.9076415e-007	+3.4173166e-007
1.515625	+9.5232991e-007	+3.4695884e-007
1.51953125	+1.5498188e-006	+4.4772415e-007
1.5234375	+1.9169652e-006	+4.4442555e-007
1.52734375	+1.7697597e-006	+4.8644972e-007
1.53125	+1.8149070e-006	+6.1175257e-007
1.53515625	+1.1816900e-006	+6.4191420e-007
1.5390625	+1.0731717e-006	+4.1388796e-007
1.54296875	+1.5497252e-006	+3.0464847e-007
1.546875	+1.2715150e-006	+4.7792940e-007
1.55078125	+1.1942153e-006	+5.2254410e-007
1.5546875	+1.3070293e-006	+1.9085647e-007
1.55859375	+7.8850394e-007	+2.7495065e-007
1.5625	+3.2863556e-007	+3.5893993e-007
   