Frequenz   Vx2   Vy2
Hz   V\+(2)/Hz   V\+(2)/Hz
Frequenz	Vx2	Vy2
Hz	V\+(2)/Hz	V\+(2)/Hz
#0.00390625	#+4.7169365e+001	#+1.0467756e+004
#0.0078125	#+1.1782545e+001	#+2.6170088e+003
0.01171875	+2.9336219e-004	+6.7117333e-005
0.015625	+1.5096148e-004	+3.0321287e-005
0.01953125	+7.4267868e-005	+1.5645463e-005
0.0234375	+5.5885139e-005	+8.5552156e-006
0.02734375	+5.1328338e-005	+4.6640957e-006
0.03125	+4.2367352e-005	+5.0534672e-006
0.03515625	+3.1347503e-005	+5.7390193e-006
0.0390625	+1.8789049e-005	+4.1782605e-006
0.04296875	+2.1455879e-005	+2.5225470e-006
0.046875	+2.1039445e-005	+2.6360651e-006
0.05078125	+1.6372936e-005	+2.8760726e-006
0.0546875	+1.7355385e-005	+2.0588373e-006
0.05859375	+1.5477883e-005	+1.7662248e-006
0.0625	+1.1428673e-005	+3.2537018e-006
0.06640625	+1.3629772e-005	+4.1539715e-006
0.0703125	+9.5755768e-006	+2.8757727e-006
0.07421875	+1.0781640e-005	+2.1678825e-006
0.078125	+6.8250447e-006	+1.4187660e-006
0.08203125	+8.2361685e-006	+1.3644445e-006
0.0859375	+9.9274803e-006	+1.4504311e-006
0.08984375	+8.1079797e-006	+1.1534021e-006
0.09375	+6.5973395e-006	+1.4447317e-006
0.09765625	+6.6308098e-006	+1.3256079e-006
0.1015625	+8.9825107e-006	+1.0787857e-006
0.10546875	+8.3549376e-006	+1.2519463e-006
0.109375	+6.5292629e-006	+1.0594482e-006
0.11328125	+5.1067450e-006	+1.1551282e-006
0.1171875	+3.7684215e-006	+1.0813293e-006
0.12109375	+4.3412065e-006	+1.0075803e-006
0.125	+5.8559476e-006	+1.4345947e-006
0.12890625	+7.2269477e-006	+1.4897122e-006
0.1328125	+6.2103572e-006	+1.5631108e-006
0.13671875	+4.3123846e-006	+1.8136740e-006
0.140625	+3.7059181e-006	+1.3963928e-006
0.14453125	+4.1174544e-006	+1.2448105e-006
0.1484375	+4.4980343e-006	+1.1284470e-006
0.15234375	+4.1264652e-006	+9.5124102e-007
0.15625	+4.7457183e-006	+8.2519455e-007
0.16015625	+4.5752686e-006	+8.2743367e-007
0.1640625	+4.7946514e-006	+8.0971972e-007
0.16796875	+4.7454005e-006	+9.4911172e-007
0.171875	+3.8405087e-006	+1.0518506e-006
0.17578125	+3.9977594e-006	+1.1947412e-006
0.1796875	+4.0227378e-006	+1.2740850e-006
0.18359375	+4.1057169e-006	+8.7166683e-007
0.1875	+3.3195779e-006	+8.1314175e-007
0.19140625	+3.5533947e-006	+7.0564084e-007
0.1953125	+3.1031868e-006	+9.4878453e-007
0.19921875	+3.5325520e-006	+1.1258654e-006
0.203125	+4.1192766e-006	+1.0092556e-006
0.20703125	+4.0101213e-006	+8.6784701e-007
0.2109375	+3.9852648e-006	+5.5948681e-007
0.21484375	+2.9799294e-006	+7.1333483e-007
0.21875	+2.5703328e-006	+5.8162260e-007
0.22265625	+2.3633991e-006	+7.6653498e-007
0.2265625	+3.2714297e-006	+1.0043860e-006
0.23046875	+2.4479821e-006	+5.8051506e-007
0.234375	+2.5248828e-006	+3.9545225e-007
0.23828125	+2.6031187e-006	+5.1251357e-007
0.2421875	+2.2084525e-006	+9.5419296e-007
0.24609375	+2.2328854e-006	+7.4366113e-007
0.25	+2.5349298e-006	+5.0376508e-007
0.25390625	+2.5308834e-006	+7.0359067e-007
0.2578125	+2.5681888e-006	+7.6931315e-007
0.26171875	+2.4606043e-006	+5.4305787e-007
0.265625	+2.2504341e-006	+6.6564132e-007
0.26953125	+1.8744954e-006	+8.1016350e-007
0.2734375	+1.8850026e-006	+7.4119771e-007
0.27734375	+2.1443843e-006	+5.1385342e-007
0.28125	+2.0550926e-006	+5.2194378e-007
0.28515625	+1.9194483e-006	+7.2953264e-007
0.2890625	+2.0966827e-006	+9.2177896e-007
0.29296875	+1.1609617e-006	+7.9289327e-007
0.296875	+1.2351471e-006	+4.6809691e-007
0.30078125	+1.5796044e-006	+5.5796789e-007
0.3046875	+2.3841085e-006	+7.3063728e-007
0.30859375	+3.0118788e-006	+4.7861516e-007
0.3125	+2.4828439e-006	+6.1897987e-007
0.31640625	+2.5148315e-006	+8.0894665e-007
0.3203125	+2.5915974e-006	+5.2718315e-007
0.32421875	+2.4551637e-006	+5.9814613e-007
0.328125	+1.8659531e-006	+9.4688534e-007
0.33203125	+1.5345727e-006	+7.5989072e-007
0.3359375	+1.8035862e-006	+4.4610780e-007
0.33984375	+1.4821292e-006	+6.3405213e-007
0.34375	+1.4426963e-006	+7.8130626e-007
0.34765625	+1.7021508e-006	+6.2608490e-007
0.3515625	+1.8847957e-006	+5.4557751e-007
0.35546875	+2.0955458e-006	+7.4950731e-007
0.359375	+1.9298345e-006	+7.5101974e-007
0.36328125	+1.7096072e-006	+6.6544550e-007
0.3671875	+1.3949661e-006	+5.2329739e-007
0.37109375	+1.4908724e-006	+6.4604768e-007
0.375	+1.6900852e-006	+4.9603278e-007
0.37890625	+1.6069018e-006	+5.1419153e-007
0.3828125	+1.5406115e-006	+5.0621077e-007
0.38671875	+1.4101716e-006	+4.6468239e-007
0.390625	+1.1906542e-006	+3.6332924e-007
0.39453125	+1.3774724e-006	+4.3375854e-007
0.3984375	+1.1835313e-006	+7.6109558e-007
0.40234375	+1.4004340e-006	+1.0229902e-006
0.40625	+1.4237064e-006	+6.2767486e-007
0.41015625	+1.2543334e-006	+7.0011140e-007
0.4140625	+1.6971142e-006	+9.8550868e-007
0.41796875	+1.7565051e-006	+6.3020434e-007
0.421875	+1.5778536e-006	+6.8223773e-007
0.42578125	+1.4721710e-006	+6.2137946e-007
0.4296875	+1.0784481e-006	+5.2167451e-007
0.43359375	+7.4771958e-007	+4.6149543e-007
0.4375	+1.2283660e-006	+3.3461154e-007
0.44140625	+1.7244816e-006	+4.6451203e-007
0.4453125	+1.3272404e-006	+7.0528608e-007
0.44921875	+1.3525433e-006	+9.5520340e-007
0.453125	+1.2838431e-006	+7.9703403e-007
0.45703125	+1.1077839e-006	+7.4146305e-007
0.4609375	+9.5866437e-007	+8.4090971e-007
0.46484375	+1.1333927e-006	+9.3847888e-007
0.46875	+1.6150082e-006	+4.7934566e-007
0.47265625	+1.4903716e-006	+5.6673906e-007
0.4765625	+1.2889730e-006	+8.0631037e-007
0.48046875	+1.5819475e-006	+5.9533863e-007
0.484375	+1.9769088e-006	+5.4936385e-007
0.48828125	+2.4056676e-006	+5.7777129e-007
0.4921875	+1.6609861e-006	+6.8637911e-007
0.49609375	+1.1604787e-006	+5.2081833e-007
0.5	+1.1563006e-006	+5.3743588e-007
0.50390625	+1.6471132e-006	+4.6084679e-007
0.5078125	+1.5446697e-006	+4.3959869e-007
0.51171875	+1.5063638e-006	+5.6427967e-007
0.515625	+1.3175329e-006	+8.4007274e-007
0.51953125	+8.7047329e-007	+8.5262957e-007
0.5234375	+1.4663249e-006	+7.6486032e-007
0.52734375	+1.5268266e-006	+4.6481966e-007
0.53125	+1.1711822e-006	+6.4080865e-007
0.53515625	+1.3690409e-006	+7.5052844e-007
0.5390625	+1.2143954e-006	+6.1766553e-007
0.54296875	+1.0193799e-006	+5.8784303e-007
0.546875	+1.5728618e-006	+6.5717325e-007
0.55078125	+1.7683865e-006	+5.6972254e-007
0.5546875	+1.8007764e-006	+4.8794107e-007
0.55859375	+1.5332120e-006	+5.9957625e-007
0.5625	+1.0221066e-006	+7.5940693e-007
0.56640625	+1.5413169e-006	+7.0184774e-007
0.5703125	+1.9470185e-006	+4.2294940e-007
0.57421875	+1.5304015e-006	+3.7420750e-007
0.578125	+1.9159488e-006	+6.0448554e-007
0.58203125	+1.4403792e-006	+5.6127112e-007
0.5859375	+9.3522846e-007	+4.3181220e-007
0.58984375	+8.1212193e-007	+7.3804284e-007
0.59375	+1.0616478e-006	+7.9863884e-007
0.59765625	+8.3344418e-007	+7.4956409e-007
0.6015625	+1.1611301e-006	+8.6600807e-007
0.60546875	+1.3602458e-006	+7.5846617e-007
0.609375	+1.0668851e-006	+6.7832764e-007
0.61328125	+1.2021256e-006	+4.0411317e-007
0.6171875	+8.6963070e-007	+6.3627260e-007
0.62109375	+8.1325067e-007	+5.2783122e-007
0.625	+1.7127617e-006	+3.7075256e-007
0.62890625	+1.3691387e-006	+4.5775349e-007
0.6328125	+5.8211964e-007	+4.6489674e-007
0.63671875	+6.7293757e-007	+5.1080292e-007
0.640625	+1.2166722e-006	+4.8985044e-007
0.64453125	+1.5600863e-006	+5.2733770e-007
0.6484375	+1.5607236e-006	+5.7232000e-007
0.65234375	+8.8101439e-007	+4.9881817e-007
0.65625	+8.5901263e-007	+5.6316804e-007
0.66015625	+1.2121255e-006	+6.4505326e-007
0.6640625	+1.1312369e-006	+4.6645155e-007
0.66796875	+1.1512145e-006	+4.8665856e-007
0.671875	+6.2565408e-007	+6.1807799e-007
0.67578125	+6.6423229e-007	+6.9790184e-007
0.6796875	+1.4872184e-006	+8.3089407e-007
0.68359375	+9.8486294e-007	+4.9455906e-007
0.6875	+7.1148025e-007	+5.1220638e-007
0.69140625	+9.5880853e-007	+6.4652738e-007
0.6953125	+1.1563070e-006	+6.2901950e-007
0.69921875	+1.0613973e-006	+5.5947328e-007
0.703125	+9.9994952e-007	+5.0126073e-007
0.70703125	+8.8087802e-007	+5.0344607e-007
0.7109375	+9.0211358e-007	+5.0687817e-007
0.71484375	+8.2916341e-007	+4.2050596e-007
0.71875	+8.5700322e-007	+4.6909659e-007
0.72265625	+1.1605730e-006	+5.2810776e-007
0.7265625	+6.6886412e-007	+3.1289767e-007
0.73046875	+6.9203634e-007	+3.7837989e-007
0.734375	+6.8241081e-007	+6.1504386e-007
0.73828125	+8.9574360e-007	+5.0104285e-007
0.7421875	+7.6194340e-007	+3.7605270e-007
0.74609375	+8.8449292e-007	+6.0435343e-007
0.75	+9.4068656e-007	+7.3529930e-007
0.75390625	+5.4626020e-007	+6.1020563e-007
0.7578125	+1.1213169e-006	+6.9326228e-007
0.76171875	+1.1530196e-006	+6.8393797e-007
0.765625	+7.0085594e-007	+6.3810978e-007
0.76953125	+8.8260418e-007	+4.6629231e-007
0.7734375	+1.0901268e-006	+3.3351154e-007
0.77734375	+1.0506249e-006	+4.4435919e-007
0.78125	+8.8836458e-007	+5.6403809e-007
0.78515625	+7.0780106e-007	+4.7976584e-007
0.7890625	+8.1913925e-007	+3.9716886e-007
0.79296875	+8.3662741e-007	+5.1569373e-007
0.796875	+8.6038034e-007	+4.6864099e-007
0.80078125	+1.1320047e-006	+5.2278801e-007
0.8046875	+1.0329019e-006	+3.5653022e-007
0.80859375	+8.3305258e-007	+4.5499655e-007
0.8125	+7.8780641e-007	+4.9232909e-007
0.81640625	+5.8949763e-007	+6.7532244e-007
0.8203125	+7.4260043e-007	+8.3933242e-007
0.82421875	+1.0468054e-006	+7.6803451e-007
0.828125	+1.2396985e-006	+5.2712699e-007
0.83203125	+1.3615233e-006	+5.9194412e-007
0.8359375	+8.3746556e-007	+5.2135613e-007
0.83984375	+7.4199977e-007	+5.4853325e-007
0.84375	+5.9534256e-007	+6.0292189e-007
0.84765625	+7.0271830e-007	+6.7149909e-007
0.8515625	+5.9647186e-007	+7.7023691e-007
0.85546875	+6.5530998e-007	+6.6931591e-007
0.859375	+7.6179367e-007	+6.9711382e-007
0.86328125	+8.3646944e-007	+5.9097584e-007
0.8671875	+6.4782989e-007	+5.8097993e-007
0.87109375	+6.8512924e-007	+5.4466119e-007
0.875	+7.4892000e-007	+6.5161498e-007
0.87890625	+8.5674731e-007	+6.5794433e-007
0.8828125	+7.0717573e-007	+8.8229410e-007
0.88671875	+8.9681629e-007	+6.9767583e-007
0.890625	+1.0117841e-006	+5.2769508e-007
0.89453125	+8.5181267e-007	+4.8961653e-007
0.8984375	+7.7951199e-007	+5.6487414e-007
0.90234375	+6.1822800e-007	+4.3127963e-007
0.90625	+7.6891286e-007	+4.4223418e-007
0.91015625	+9.5826545e-007	+5.1230091e-007
0.9140625	+1.1787912e-006	+4.2195262e-007
0.91796875	+1.1172369e-006	+5.1462695e-007
0.921875	+1.2922591e-006	+5.8873115e-007
0.92578125	+1.3219712e-006	+4.8154169e-007
0.9296875	+8.5884471e-007	+5.3130765e-007
0.93359375	+7.3375969e-007	+6.0883440e-007
0.9375	+5.9352294e-007	+6.0050127e-007
0.94140625	+5.8240926e-007	+5.2176784e-007
0.9453125	+1.1176369e-006	+4.9542427e-007
0.94921875	+8.7312662e-007	+5.2399594e-007
0.953125	+6.9123138e-007	+5.4886885e-007
0.95703125	+6.9096734e-007	+4.6599598e-007
0.9609375	+6.4978605e-007	+4.8072337e-007
0.96484375	+1.0224422e-006	+5.8626773e-007
0.96875	+8.8890118e-007	+4.8864985e-007
0.97265625	+6.9653083e-007	+4.7012625e-007
0.9765625	+8.5570565e-007	+2.6429160e-007
0.98046875	+8.5748513e-007	+3.6981666e-007
0.984375	+1.0953470e-006	+8.4549333e-007
0.98828125	+2.1593235e-006	+4.4029525e-006
0.9921875	+1.7670337e-006	+3.8482412e-006
0.99609375	+7.5889102e-007	+6.6247190e-007
1.0	+6.8056039e-007	+5.5290985e-007
1.00390625	+1.0202085e-006	+6.3349825e-007
1.0078125	+1.1190883e-006	+5.7650453e-007
1.01171875	+9.0651116e-007	+5.4047746e-007
1.015625	+1.0281655e-006	+7.5902517e-007
1.01953125	+8.6528951e-007	+8.0193212e-007
1.0234375	+8.5591336e-007	+8.4099560e-007
1.02734375	+9.5206747e-007	+7.4589190e-007
1.03125	+1.3575453e-006	+8.5536283e-007
1.03515625	+1.2336766e-006	+8.6069781e-007
1.0390625	+1.1532032e-006	+5.6280891e-007
1.04296875	+8.5828765e-007	+6.9563737e-007
1.046875	+5.8416595e-007	+6.4467588e-007
1.05078125	+7.8026557e-007	+4.8060360e-007
1.0546875	+8.1257502e-007	+3.3395014e-007
1.05859375	+8.6256148e-007	+4.0144431e-007
1.0625	+6.7703667e-007	+2.9868409e-007
1.06640625	+7.0817651e-007	+4.1845502e-007
1.0703125	+8.4140567e-007	+5.7450148e-007
1.07421875	+9.1696501e-007	+4.8933009e-007
1.078125	+5.4132676e-007	+4.2698778e-007
1.08203125	+4.4201087e-007	+5.6284910e-007
1.0859375	+6.1929256e-007	+5.0648151e-007
1.08984375	+5.8334490e-007	+4.7183843e-007
1.09375	+6.6632430e-007	+5.0617132e-007
1.09765625	+4.8992035e-007	+4.2622383e-007
1.1015625	+5.2835367e-007	+3.8150358e-007
1.10546875	+6.6745338e-007	+3.0394216e-007
1.109375	+7.1486761e-007	+4.4680581e-007
1.11328125	+6.9171273e-007	+5.3316307e-007
1.1171875	+8.4643426e-007	+4.5249314e-007
1.12109375	+6.9402461e-007	+5.6535623e-007
1.125	+8.8578645e-007	+4.8054136e-007
1.12890625	+7.9826361e-007	+4.4247847e-007
1.1328125	+6.7524383e-007	+5.7199520e-007
1.13671875	+5.3268030e-007	+6.6846547e-007
1.140625	+4.6870892e-007	+7.1690971e-007
1.14453125	+4.8662758e-007	+5.2894279e-007
1.1484375	+4.0940446e-007	+4.9488608e-007
1.15234375	+4.2895380e-007	+4.7955098e-007
1.15625	+8.5913143e-007	+5.1840618e-007
1.16015625	+6.9575270e-007	+6.2338580e-007
1.1640625	+5.1401821e-007	+5.0729409e-007
1.16796875	+5.2847201e-007	+4.1001354e-007
1.171875	+7.0802724e-007	+6.2388631e-007
1.17578125	+6.8857719e-007	+5.6504842e-007
1.1796875	+6.2738758e-007	+4.1214889e-007
1.18359375	+8.6836457e-007	+4.7017221e-007
1.1875	+8.9311567e-007	+4.6234393e-007
1.19140625	+9.2847881e-007	+3.9721857e-007
1.1953125	+1.1075224e-006	+3.4646169e-007
1.19921875	+8.6275850e-007	+3.5660815e-007
1.203125	+8.0034880e-007	+4.5572199e-007
1.20703125	+5.6785461e-007	+5.1941635e-007
1.2109375	+6.8914591e-007	+5.8450149e-007
1.21484375	+6.2606841e-007	+6.4587039e-007
1.21875	+5.6821762e-007	+4.0678594e-007
1.22265625	+7.2418408e-007	+5.6101419e-007
1.2265625	+7.4924571e-007	+5.1482817e-007
1.23046875	+8.5740322e-007	+3.6223068e-007
1.234375	+7.6257197e-007	+5.0409818e-007
1.23828125	+6.0664837e-007	+4.8879417e-007
1.2421875	+7.3107702e-007	+3.6051662e-007
1.24609375	+8.8300254e-007	+4.1010091e-007
1.25	+6.1994228e-007	+5.6563192e-007
1.25390625	+6.7123005e-007	+5.5532155e-007
1.2578125	+9.5045590e-007	+4.7519805e-007
1.26171875	+5.7981498e-007	+3.8585731e-007
1.265625	+6.2630903e-007	+3.8205690e-007
1.26953125	+6.0025997e-007	+4.0653725e-007
1.2734375	+6.8810255e-007	+3.8045951e-007
1.27734375	+7.0902064e-007	+3.3188201e-007
1.28125	+5.9590758e-007	+5.0070412e-007
1.28515625	+6.5264106e-007	+5.2306302e-007
1.2890625	+6.4102608e-007	+5.5191515e-007
1.29296875	+4.7152926e-007	+6.5670440e-007
1.296875	+8.3358418e-007	+6.9019165e-007
1.30078125	+1.1815331e-006	+7.6619841e-007
1.3046875	+7.8635463e-007	+5.6480280e-007
1.30859375	+7.4647852e-007	+4.2365539e-007
1.3125	+6.5198071e-007	+4.0186370e-007
1.31640625	+6.5966947e-007	+3.9253877e-007
1.3203125	+8.5854208e-007	+4.3801168e-007
1.32421875	+7.7507417e-007	+4.5728783e-007
1.328125	+6.7297231e-007	+6.6971654e-007
1.33203125	+8.4024981e-007	+7.1387620e-007
1.3359375	+7.2190329e-007	+5.8969573e-007
1.33984375	+7.2402986e-007	+4.9425995e-007
1.34375	+6.4841907e-007	+4.4489130e-007
1.34765625	+8.5106575e-007	+4.4535656e-007
1.3515625	+9.3449353e-007	+4.8556444e-007
1.35546875	+6.5866999e-007	+4.7628293e-007
1.359375	+4.7246155e-007	+4.4475601e-007
1.36328125	+4.3751805e-007	+4.3253962e-007
1.3671875	+4.4937397e-007	+4.4250277e-007
1.37109375	+5.8399280e-007	+5.3686500e-007
1.375	+6.3202538e-007	+4.4903811e-007
1.37890625	+6.2319003e-007	+4.1978723e-007
1.3828125	+5.9184339e-007	+3.6311309e-007
1.38671875	+9.2248462e-007	+5.2198618e-007
1.390625	+8.8964816e-007	+4.9356959e-007
1.39453125	+5.4646597e-007	+3.4141436e-007
1.3984375	+6.4397977e-007	+6.3078306e-007
1.40234375	+6.9334448e-007	+7.9003780e-007
1.40625	+6.1706157e-007	+3.9350755e-007
1.41015625	+5.7824025e-007	+3.9349848e-007
1.4140625	+3.4087088e-007	+6.1170221e-007
1.41796875	+3.8455255e-007	+5.9267052e-007
1.421875	+6.2465398e-007	+4.4469743e-007
1.42578125	+6.6905216e-007	+5.3194799e-007
1.4296875	+8.1955938e-007	+4.5183731e-007
1.43359375	+6.0430636e-007	+5.2497376e-007
1.4375	+4.9985437e-007	+5.9228864e-007
1.44140625	+1.0058042e-006	+3.5741837e-007
1.4453125	+8.7155013e-007	+2.3203086e-007
1.44921875	+6.4395857e-007	+3.7261225e-007
1.453125	+5.9645942e-007	+4.7562554e-007
1.45703125	+9.9979252e-007	+5.0423381e-007
1.4609375	+8.5179960e-007	+4.9501210e-007
1.46484375	+4.9738418e-007	+5.0865663e-007
1.46875	+6.4043866e-007	+3.7920171e-007
1.47265625	+8.8040133e-007	+3.8154170e-007
1.4765625	+9.9993304e-007	+4.3808575e-007
1.48046875	+7.4121482e-007	+4.4771332e-007
1.484375	+5.5112008e-007	+3.9973952e-007
1.48828125	+7.2716875e-007	+4.6549076e-007
1.4921875	+6.4410636e-007	+3.7941828e-007
1.49609375	+5.8764294e-007	+5.4489027e-007
1.5	+5.8313168e-007	+4.5235205e-007
1.50390625	+5.2432915e-007	+4.1990108e-007
1.5078125	+6.0054077e-007	+3.1834793e-007
1.51171875	+5.8285832e-007	+4.3379856e-007
1.515625	+5.0358921e-007	+2.8956924e-007
1.51953125	+5.2183606e-007	+5.9243433e-007
1.5234375	+6.3757966e-007	+6.1640810e-007
1.52734375	+7.2938610e-007	+4.2239807e-007
1.53125	+7.6338034e-007	+3.0248665e-007
1.53515625	+6.6083516e-007	+4.6874288e-007
1.5390625	+7.0571753e-007	+3.4566224e-007
1.54296875	+5.0411421e-007	+3.0622058e-007
1.546875	+3.8892014e-007	+4.7226291e-007
1.55078125	+6.8174427e-007	+5.3180082e-007
1.5546875	+6.8175478e-007	+4.6605533e-007
1.55859375	+4.9140993e-007	+4.2011322e-007
1.5625	+5.5072326e-007	+5.0678301e-007
   